%FSLAX45Y45*%
G04 Gerber Fmt 4.5, Leading zero omitted, Abs format (unit mm)*
G04 Created by KiCad (PCBNEW (5.1.10)-1) date 2021-12-05 22:44:01*
%MOMM*%
%LPD*%
G01*
G04 APERTURE LIST*
%TA.AperFunction,Profile*%
%ADD10C,0.050000*%
%TD*%
%ADD11C,0.200000*%
%ADD12C,0.300000*%
G04 APERTURE END LIST*
D10*
X0Y-350000D02*
G75*
G02*
X350000Y0I350000J0D01*
G01*
X350000Y-5600000D02*
G75*
G02*
X0Y-5250000I0J350000D01*
G01*
X6500000Y-5250000D02*
G75*
G02*
X6150000Y-5600000I-350000J0D01*
G01*
X6150000Y0D02*
G75*
G02*
X6500000Y-350000I0J-350000D01*
G01*
X6150000Y0D02*
X350000Y0D01*
X6500000Y-5250000D02*
X6500000Y-350000D01*
X350000Y-5600000D02*
X6150000Y-5600000D01*
X0Y-350000D02*
X0Y-5250000D01*
D11*
X215000Y-215000D02*
X485000Y-485000D01*
X485000Y-215000D02*
X215000Y-485000D01*
X215000Y-5115000D02*
X485000Y-5385000D01*
X485000Y-5115000D02*
X215000Y-5385000D01*
X6015000Y-215000D02*
X6285000Y-485000D01*
X6285000Y-215000D02*
X6015000Y-485000D01*
X6015000Y-5115000D02*
X6285000Y-5385000D01*
X6285000Y-5115000D02*
X6015000Y-5385000D01*
D12*
X283928Y-6068214D02*
X283928Y-5768214D01*
X355357Y-5768214D01*
X398214Y-5782500D01*
X426786Y-5811071D01*
X441071Y-5839643D01*
X455357Y-5896786D01*
X455357Y-5939643D01*
X441071Y-5996786D01*
X426786Y-6025357D01*
X398214Y-6053929D01*
X355357Y-6068214D01*
X283928Y-6068214D01*
X583928Y-6068214D02*
X583928Y-5868214D01*
X583928Y-5925357D02*
X598214Y-5896786D01*
X612500Y-5882500D01*
X641071Y-5868214D01*
X669643Y-5868214D01*
X769643Y-6068214D02*
X769643Y-5868214D01*
X769643Y-5768214D02*
X755357Y-5782500D01*
X769643Y-5796786D01*
X783928Y-5782500D01*
X769643Y-5768214D01*
X769643Y-5796786D01*
X955357Y-6068214D02*
X926786Y-6053929D01*
X912500Y-6025357D01*
X912500Y-5768214D01*
X1112500Y-6068214D02*
X1083928Y-6053929D01*
X1069643Y-6025357D01*
X1069643Y-5768214D01*
X1455357Y-6068214D02*
X1455357Y-5768214D01*
X1555357Y-5982500D01*
X1655357Y-5768214D01*
X1655357Y-6068214D01*
X1926786Y-6068214D02*
X1926786Y-5911071D01*
X1912500Y-5882500D01*
X1883928Y-5868214D01*
X1826786Y-5868214D01*
X1798214Y-5882500D01*
X1926786Y-6053929D02*
X1898214Y-6068214D01*
X1826786Y-6068214D01*
X1798214Y-6053929D01*
X1783928Y-6025357D01*
X1783928Y-5996786D01*
X1798214Y-5968214D01*
X1826786Y-5953929D01*
X1898214Y-5953929D01*
X1926786Y-5939643D01*
X2069643Y-5868214D02*
X2069643Y-6168214D01*
X2069643Y-5882500D02*
X2098214Y-5868214D01*
X2155357Y-5868214D01*
X2183928Y-5882500D01*
X2198214Y-5896786D01*
X2212500Y-5925357D01*
X2212500Y-6011071D01*
X2198214Y-6039643D01*
X2183928Y-6053929D01*
X2155357Y-6068214D01*
X2098214Y-6068214D01*
X2069643Y-6053929D01*
X2341071Y-6039643D02*
X2355357Y-6053929D01*
X2341071Y-6068214D01*
X2326786Y-6053929D01*
X2341071Y-6039643D01*
X2341071Y-6068214D01*
X2341071Y-5882500D02*
X2355357Y-5896786D01*
X2341071Y-5911071D01*
X2326786Y-5896786D01*
X2341071Y-5882500D01*
X2341071Y-5911071D01*
X-272500Y-6427500D02*
X-2500Y-6697500D01*
X-2500Y-6427500D02*
X-272500Y-6697500D01*
X269643Y-6426786D02*
X283928Y-6412500D01*
X312500Y-6398214D01*
X383928Y-6398214D01*
X412500Y-6412500D01*
X426786Y-6426786D01*
X441071Y-6455357D01*
X441071Y-6483929D01*
X426786Y-6526786D01*
X255357Y-6698214D01*
X441071Y-6698214D01*
X569643Y-6669643D02*
X583928Y-6683929D01*
X569643Y-6698214D01*
X555357Y-6683929D01*
X569643Y-6669643D01*
X569643Y-6698214D01*
X683928Y-6398214D02*
X883928Y-6398214D01*
X755357Y-6698214D01*
X1055357Y-6398214D02*
X1083928Y-6398214D01*
X1112500Y-6412500D01*
X1126786Y-6426786D01*
X1141071Y-6455357D01*
X1155357Y-6512500D01*
X1155357Y-6583929D01*
X1141071Y-6641071D01*
X1126786Y-6669643D01*
X1112500Y-6683929D01*
X1083928Y-6698214D01*
X1055357Y-6698214D01*
X1026786Y-6683929D01*
X1012500Y-6669643D01*
X998214Y-6641071D01*
X983928Y-6583929D01*
X983928Y-6512500D01*
X998214Y-6455357D01*
X1012500Y-6426786D01*
X1026786Y-6412500D01*
X1055357Y-6398214D01*
X1341071Y-6398214D02*
X1369643Y-6398214D01*
X1398214Y-6412500D01*
X1412500Y-6426786D01*
X1426786Y-6455357D01*
X1441071Y-6512500D01*
X1441071Y-6583929D01*
X1426786Y-6641071D01*
X1412500Y-6669643D01*
X1398214Y-6683929D01*
X1369643Y-6698214D01*
X1341071Y-6698214D01*
X1312500Y-6683929D01*
X1298214Y-6669643D01*
X1283928Y-6641071D01*
X1269643Y-6583929D01*
X1269643Y-6512500D01*
X1283928Y-6455357D01*
X1298214Y-6426786D01*
X1312500Y-6412500D01*
X1341071Y-6398214D01*
X1569643Y-6698214D02*
X1569643Y-6498214D01*
X1569643Y-6526786D02*
X1583928Y-6512500D01*
X1612500Y-6498214D01*
X1655357Y-6498214D01*
X1683928Y-6512500D01*
X1698214Y-6541071D01*
X1698214Y-6698214D01*
X1698214Y-6541071D02*
X1712500Y-6512500D01*
X1741071Y-6498214D01*
X1783928Y-6498214D01*
X1812500Y-6512500D01*
X1826786Y-6541071D01*
X1826786Y-6698214D01*
X1969643Y-6698214D02*
X1969643Y-6498214D01*
X1969643Y-6526786D02*
X1983928Y-6512500D01*
X2012500Y-6498214D01*
X2055357Y-6498214D01*
X2083928Y-6512500D01*
X2098214Y-6541071D01*
X2098214Y-6698214D01*
X2098214Y-6541071D02*
X2112500Y-6512500D01*
X2141071Y-6498214D01*
X2183928Y-6498214D01*
X2212500Y-6512500D01*
X2226786Y-6541071D01*
X2226786Y-6698214D01*
X2812500Y-6383929D02*
X2555357Y-6769643D01*
X3198214Y-6398214D02*
X3226786Y-6398214D01*
X3255357Y-6412500D01*
X3269643Y-6426786D01*
X3283928Y-6455357D01*
X3298214Y-6512500D01*
X3298214Y-6583929D01*
X3283928Y-6641071D01*
X3269643Y-6669643D01*
X3255357Y-6683929D01*
X3226786Y-6698214D01*
X3198214Y-6698214D01*
X3169643Y-6683929D01*
X3155357Y-6669643D01*
X3141071Y-6641071D01*
X3126786Y-6583929D01*
X3126786Y-6512500D01*
X3141071Y-6455357D01*
X3155357Y-6426786D01*
X3169643Y-6412500D01*
X3198214Y-6398214D01*
X3426786Y-6669643D02*
X3441071Y-6683929D01*
X3426786Y-6698214D01*
X3412500Y-6683929D01*
X3426786Y-6669643D01*
X3426786Y-6698214D01*
X3726786Y-6698214D02*
X3555357Y-6698214D01*
X3641071Y-6698214D02*
X3641071Y-6398214D01*
X3612500Y-6441071D01*
X3583928Y-6469643D01*
X3555357Y-6483929D01*
X3912500Y-6398214D02*
X3941071Y-6398214D01*
X3969643Y-6412500D01*
X3983928Y-6426786D01*
X3998214Y-6455357D01*
X4012500Y-6512500D01*
X4012500Y-6583929D01*
X3998214Y-6641071D01*
X3983928Y-6669643D01*
X3969643Y-6683929D01*
X3941071Y-6698214D01*
X3912500Y-6698214D01*
X3883928Y-6683929D01*
X3869643Y-6669643D01*
X3855357Y-6641071D01*
X3841071Y-6583929D01*
X3841071Y-6512500D01*
X3855357Y-6455357D01*
X3869643Y-6426786D01*
X3883928Y-6412500D01*
X3912500Y-6398214D01*
X4269643Y-6398214D02*
X4212500Y-6398214D01*
X4183928Y-6412500D01*
X4169643Y-6426786D01*
X4141071Y-6469643D01*
X4126786Y-6526786D01*
X4126786Y-6641071D01*
X4141071Y-6669643D01*
X4155357Y-6683929D01*
X4183928Y-6698214D01*
X4241071Y-6698214D01*
X4269643Y-6683929D01*
X4283928Y-6669643D01*
X4298214Y-6641071D01*
X4298214Y-6569643D01*
X4283928Y-6541071D01*
X4269643Y-6526786D01*
X4241071Y-6512500D01*
X4183928Y-6512500D01*
X4155357Y-6526786D01*
X4141071Y-6541071D01*
X4126786Y-6569643D01*
X4398214Y-6398214D02*
X4583928Y-6398214D01*
X4483928Y-6512500D01*
X4526786Y-6512500D01*
X4555357Y-6526786D01*
X4569643Y-6541071D01*
X4583928Y-6569643D01*
X4583928Y-6641071D01*
X4569643Y-6669643D01*
X4555357Y-6683929D01*
X4526786Y-6698214D01*
X4441071Y-6698214D01*
X4412500Y-6683929D01*
X4398214Y-6669643D01*
X4698214Y-6398214D02*
X4698214Y-6455357D01*
X4812500Y-6398214D02*
X4812500Y-6455357D01*
X5255357Y-6812500D02*
X5241071Y-6798214D01*
X5212500Y-6755357D01*
X5198214Y-6726786D01*
X5183928Y-6683929D01*
X5169643Y-6612500D01*
X5169643Y-6555357D01*
X5183928Y-6483929D01*
X5198214Y-6441071D01*
X5212500Y-6412500D01*
X5241071Y-6369643D01*
X5255357Y-6355357D01*
X5498214Y-6498214D02*
X5498214Y-6698214D01*
X5426786Y-6383929D02*
X5355357Y-6598214D01*
X5541071Y-6598214D01*
X5883928Y-6698214D02*
X5883928Y-6398214D01*
X6012500Y-6698214D02*
X6012500Y-6541071D01*
X5998214Y-6512500D01*
X5969643Y-6498214D01*
X5926786Y-6498214D01*
X5898214Y-6512500D01*
X5883928Y-6526786D01*
X6198214Y-6698214D02*
X6169643Y-6683929D01*
X6155357Y-6669643D01*
X6141071Y-6641071D01*
X6141071Y-6555357D01*
X6155357Y-6526786D01*
X6169643Y-6512500D01*
X6198214Y-6498214D01*
X6241071Y-6498214D01*
X6269643Y-6512500D01*
X6283928Y-6526786D01*
X6298214Y-6555357D01*
X6298214Y-6641071D01*
X6283928Y-6669643D01*
X6269643Y-6683929D01*
X6241071Y-6698214D01*
X6198214Y-6698214D01*
X6469643Y-6698214D02*
X6441071Y-6683929D01*
X6426786Y-6655357D01*
X6426786Y-6398214D01*
X6698214Y-6683929D02*
X6669643Y-6698214D01*
X6612500Y-6698214D01*
X6583928Y-6683929D01*
X6569643Y-6655357D01*
X6569643Y-6541071D01*
X6583928Y-6512500D01*
X6612500Y-6498214D01*
X6669643Y-6498214D01*
X6698214Y-6512500D01*
X6712500Y-6541071D01*
X6712500Y-6569643D01*
X6569643Y-6598214D01*
X6826786Y-6683929D02*
X6855357Y-6698214D01*
X6912500Y-6698214D01*
X6941071Y-6683929D01*
X6955357Y-6655357D01*
X6955357Y-6641071D01*
X6941071Y-6612500D01*
X6912500Y-6598214D01*
X6869643Y-6598214D01*
X6841071Y-6583929D01*
X6826786Y-6555357D01*
X6826786Y-6541071D01*
X6841071Y-6512500D01*
X6869643Y-6498214D01*
X6912500Y-6498214D01*
X6941071Y-6512500D01*
X7055357Y-6812500D02*
X7069643Y-6798214D01*
X7098214Y-6755357D01*
X7112500Y-6726786D01*
X7126786Y-6683929D01*
X7141071Y-6612500D01*
X7141071Y-6555357D01*
X7126786Y-6483929D01*
X7112500Y-6441071D01*
X7098214Y-6412500D01*
X7069643Y-6369643D01*
X7055357Y-6355357D01*
X7598214Y-6812500D02*
X7583928Y-6798214D01*
X7555357Y-6755357D01*
X7541071Y-6726786D01*
X7526786Y-6683929D01*
X7512500Y-6612500D01*
X7512500Y-6555357D01*
X7526786Y-6483929D01*
X7541071Y-6441071D01*
X7555357Y-6412500D01*
X7583928Y-6369643D01*
X7598214Y-6355357D01*
X7712500Y-6498214D02*
X7712500Y-6698214D01*
X7712500Y-6526786D02*
X7726786Y-6512500D01*
X7755357Y-6498214D01*
X7798214Y-6498214D01*
X7826786Y-6512500D01*
X7841071Y-6541071D01*
X7841071Y-6698214D01*
X8026786Y-6698214D02*
X7998214Y-6683929D01*
X7983928Y-6669643D01*
X7969643Y-6641071D01*
X7969643Y-6555357D01*
X7983928Y-6526786D01*
X7998214Y-6512500D01*
X8026786Y-6498214D01*
X8069643Y-6498214D01*
X8098214Y-6512500D01*
X8112500Y-6526786D01*
X8126786Y-6555357D01*
X8126786Y-6641071D01*
X8112500Y-6669643D01*
X8098214Y-6683929D01*
X8069643Y-6698214D01*
X8026786Y-6698214D01*
X8212500Y-6498214D02*
X8326786Y-6498214D01*
X8255357Y-6398214D02*
X8255357Y-6655357D01*
X8269643Y-6683929D01*
X8298214Y-6698214D01*
X8326786Y-6698214D01*
X8655357Y-6498214D02*
X8655357Y-6798214D01*
X8655357Y-6512500D02*
X8683928Y-6498214D01*
X8741071Y-6498214D01*
X8769643Y-6512500D01*
X8783928Y-6526786D01*
X8798214Y-6555357D01*
X8798214Y-6641071D01*
X8783928Y-6669643D01*
X8769643Y-6683929D01*
X8741071Y-6698214D01*
X8683928Y-6698214D01*
X8655357Y-6683929D01*
X8969643Y-6698214D02*
X8941071Y-6683929D01*
X8926786Y-6655357D01*
X8926786Y-6398214D01*
X9212500Y-6698214D02*
X9212500Y-6541071D01*
X9198214Y-6512500D01*
X9169643Y-6498214D01*
X9112500Y-6498214D01*
X9083928Y-6512500D01*
X9212500Y-6683929D02*
X9183928Y-6698214D01*
X9112500Y-6698214D01*
X9083928Y-6683929D01*
X9069643Y-6655357D01*
X9069643Y-6626786D01*
X9083928Y-6598214D01*
X9112500Y-6583929D01*
X9183928Y-6583929D01*
X9212500Y-6569643D01*
X9312500Y-6498214D02*
X9426786Y-6498214D01*
X9355357Y-6398214D02*
X9355357Y-6655357D01*
X9369643Y-6683929D01*
X9398214Y-6698214D01*
X9426786Y-6698214D01*
X9641071Y-6683929D02*
X9612500Y-6698214D01*
X9555357Y-6698214D01*
X9526786Y-6683929D01*
X9512500Y-6655357D01*
X9512500Y-6541071D01*
X9526786Y-6512500D01*
X9555357Y-6498214D01*
X9612500Y-6498214D01*
X9641071Y-6512500D01*
X9655357Y-6541071D01*
X9655357Y-6569643D01*
X9512500Y-6598214D01*
X9912500Y-6698214D02*
X9912500Y-6398214D01*
X9912500Y-6683929D02*
X9883928Y-6698214D01*
X9826786Y-6698214D01*
X9798214Y-6683929D01*
X9783928Y-6669643D01*
X9769643Y-6641071D01*
X9769643Y-6555357D01*
X9783928Y-6526786D01*
X9798214Y-6512500D01*
X9826786Y-6498214D01*
X9883928Y-6498214D01*
X9912500Y-6512500D01*
X10026786Y-6812500D02*
X10041071Y-6798214D01*
X10069643Y-6755357D01*
X10083928Y-6726786D01*
X10098214Y-6683929D01*
X10112500Y-6612500D01*
X10112500Y-6555357D01*
X10098214Y-6483929D01*
X10083928Y-6441071D01*
X10069643Y-6412500D01*
X10041071Y-6369643D01*
X10026786Y-6355357D01*
M02*
