%TF.GenerationSoftware,KiCad,Pcbnew,(5.1.10)-1*%
%TF.CreationDate,2021-11-09T08:39:52+01:00*%
%TF.ProjectId,rfid_reader,72666964-5f72-4656-9164-65722e6b6963,rev?*%
%TF.SameCoordinates,Original*%
%TF.FileFunction,Copper,L2,Bot*%
%TF.FilePolarity,Positive*%
%FSLAX46Y46*%
G04 Gerber Fmt 4.6, Leading zero omitted, Abs format (unit mm)*
G04 Created by KiCad (PCBNEW (5.1.10)-1) date 2021-11-09 08:39:52*
%MOMM*%
%LPD*%
G01*
G04 APERTURE LIST*
%TA.AperFunction,ComponentPad*%
%ADD10R,2.000000X2.000000*%
%TD*%
%TA.AperFunction,ComponentPad*%
%ADD11C,2.000000*%
%TD*%
%TA.AperFunction,ComponentPad*%
%ADD12R,1.800000X1.800000*%
%TD*%
%TA.AperFunction,ComponentPad*%
%ADD13C,1.800000*%
%TD*%
%TA.AperFunction,ComponentPad*%
%ADD14R,1.700000X1.700000*%
%TD*%
%TA.AperFunction,ComponentPad*%
%ADD15O,1.700000X1.700000*%
%TD*%
%TA.AperFunction,ViaPad*%
%ADD16C,0.800000*%
%TD*%
%TA.AperFunction,Conductor*%
%ADD17C,0.500000*%
%TD*%
%TA.AperFunction,Conductor*%
%ADD18C,0.254000*%
%TD*%
%TA.AperFunction,Conductor*%
%ADD19C,0.100000*%
%TD*%
G04 APERTURE END LIST*
D10*
%TO.P,BZ1,1*%
%TO.N,GPIO23*%
X33000000Y-47000000D03*
D11*
%TO.P,BZ1,2*%
%TO.N,Ground*%
X25400000Y-47000000D03*
%TD*%
D12*
%TO.P,D1,1*%
%TO.N,Ground*%
X26000000Y-20000000D03*
D13*
%TO.P,D1,2*%
%TO.N,GPIO27*%
X28540000Y-20000000D03*
%TD*%
%TO.P,D2,2*%
%TO.N,GPIO26*%
X28540000Y-27000000D03*
D12*
%TO.P,D2,1*%
%TO.N,Ground*%
X26000000Y-27000000D03*
%TD*%
D14*
%TO.P,J1,1*%
%TO.N,3.3V*%
X8500000Y-5500000D03*
D15*
%TO.P,J1,2*%
%TO.N,GPIO2(SDA)*%
X8500000Y-2960000D03*
%TO.P,J1,3*%
%TO.N,GPIO3(SCL)*%
X11040000Y-5500000D03*
%TO.P,J1,4*%
%TO.N,GPIO4(GPCLK0)*%
X11040000Y-2960000D03*
%TO.P,J1,5*%
%TO.N,Ground*%
X13580000Y-5500000D03*
%TO.P,J1,6*%
%TO.N,GPIO17*%
X13580000Y-2960000D03*
%TO.P,J1,7*%
%TO.N,GPIO27*%
X16120000Y-5500000D03*
%TO.P,J1,8*%
%TO.N,GPIO22*%
X16120000Y-2960000D03*
%TO.P,J1,9*%
%TO.N,3.3V*%
X18660000Y-5500000D03*
%TO.P,J1,10*%
%TO.N,GPIO10(MOSI)*%
X18660000Y-2960000D03*
%TO.P,J1,11*%
%TO.N,GPIO9(MISO)*%
X21200000Y-5500000D03*
%TO.P,J1,12*%
%TO.N,GPIO11(SCLK)*%
X21200000Y-2960000D03*
%TO.P,J1,13*%
%TO.N,Ground*%
X23740000Y-5500000D03*
%TO.P,J1,14*%
%TO.N,GPIO0(ID_SD)*%
X23740000Y-2960000D03*
%TO.P,J1,15*%
%TO.N,GPIO5*%
X26280000Y-5500000D03*
%TO.P,J1,16*%
%TO.N,GPIO6*%
X26280000Y-2960000D03*
%TO.P,J1,17*%
%TO.N,GPIO13(PWM1)*%
X28820000Y-5500000D03*
%TO.P,J1,18*%
%TO.N,GPIO19(PCM_FS)*%
X28820000Y-2960000D03*
%TO.P,J1,19*%
%TO.N,GPIO26*%
X31360000Y-5500000D03*
%TO.P,J1,20*%
%TO.N,Ground*%
X31360000Y-2960000D03*
%TO.P,J1,21*%
%TO.N,5V*%
X33900000Y-5500000D03*
%TO.P,J1,22*%
X33900000Y-2960000D03*
%TO.P,J1,23*%
%TO.N,Ground*%
X36440000Y-5500000D03*
%TO.P,J1,24*%
%TO.N,GPIO14(TXD)*%
X36440000Y-2960000D03*
%TO.P,J1,25*%
%TO.N,GPIO15(RXD)*%
X38980000Y-5500000D03*
%TO.P,J1,26*%
%TO.N,GPIO18(PCM_CLK)*%
X38980000Y-2960000D03*
%TO.P,J1,27*%
%TO.N,Ground*%
X41520000Y-5500000D03*
%TO.P,J1,28*%
%TO.N,GPIO23*%
X41520000Y-2960000D03*
%TO.P,J1,29*%
%TO.N,GPIO24*%
X44060000Y-5500000D03*
%TO.P,J1,30*%
%TO.N,Ground*%
X44060000Y-2960000D03*
%TO.P,J1,31*%
%TO.N,GPIO25*%
X46600000Y-5500000D03*
%TO.P,J1,32*%
%TO.N,GPIO8(CE0)*%
X46600000Y-2960000D03*
%TO.P,J1,33*%
%TO.N,GPIO7(CE1)*%
X49140000Y-5500000D03*
%TO.P,J1,34*%
%TO.N,GPIO1(ID_SC)*%
X49140000Y-2960000D03*
%TO.P,J1,35*%
%TO.N,Ground*%
X51680000Y-5500000D03*
%TO.P,J1,36*%
%TO.N,GPIO12(PWM0)*%
X51680000Y-2960000D03*
%TO.P,J1,37*%
%TO.N,Ground*%
X54220000Y-5500000D03*
%TO.P,J1,38*%
%TO.N,GPIO16*%
X54220000Y-2960000D03*
%TO.P,J1,39*%
%TO.N,GPIO20(PCM_DIN)*%
X56760000Y-5500000D03*
%TO.P,J1,40*%
%TO.N,GPIO21(PCM_DOUT)*%
X56760000Y-2960000D03*
%TD*%
D14*
%TO.P,J2,1*%
%TO.N,3.3V*%
X42920000Y-13500000D03*
D15*
%TO.P,J2,2*%
%TO.N,Ground*%
X45460000Y-13500000D03*
%TO.P,J2,3*%
%TO.N,GPIO5*%
X48000000Y-13500000D03*
%TO.P,J2,4*%
%TO.N,GPIO3(SCL)*%
X50540000Y-13500000D03*
%TD*%
%TO.P,J3,7*%
%TO.N,GPIO8(CE0)*%
X18000000Y-20760000D03*
%TO.P,J3,6*%
%TO.N,GPIO11(SCLK)*%
X18000000Y-23300000D03*
%TO.P,J3,5*%
%TO.N,GPIO10(MOSI)*%
X18000000Y-25840000D03*
%TO.P,J3,4*%
%TO.N,GPIO9(MISO)*%
X18000000Y-28380000D03*
%TO.P,J3,3*%
%TO.N,Ground*%
X18000000Y-30920000D03*
%TO.P,J3,2*%
%TO.N,GPIO25*%
X18000000Y-33460000D03*
D14*
%TO.P,J3,1*%
%TO.N,3.3V*%
X18000000Y-36000000D03*
%TD*%
D11*
%TO.P,SW1,2*%
%TO.N,Net-(SW1-Pad2)*%
X39500000Y-47500000D03*
%TO.P,SW1,1*%
%TO.N,Ground*%
X39500000Y-43000000D03*
%TO.P,SW1,2*%
%TO.N,Net-(SW1-Pad2)*%
X46000000Y-47500000D03*
%TO.P,SW1,1*%
%TO.N,Ground*%
X46000000Y-43000000D03*
%TD*%
%TO.P,SW2,1*%
%TO.N,Ground*%
X58500000Y-43000000D03*
%TO.P,SW2,2*%
%TO.N,Net-(SW2-Pad2)*%
X58500000Y-47500000D03*
%TO.P,SW2,1*%
%TO.N,Ground*%
X52000000Y-43000000D03*
%TO.P,SW2,2*%
%TO.N,Net-(SW2-Pad2)*%
X52000000Y-47500000D03*
%TD*%
D16*
%TO.N,3.3V*%
X27000000Y-37000000D03*
X27000000Y-37000000D03*
X43000000Y-21000000D03*
%TO.N,GPIO5*%
X29500000Y-15500000D03*
X29500000Y-15500000D03*
%TD*%
D17*
%TO.N,3.3V*%
X27000000Y-37000000D02*
X43000000Y-21000000D01*
X43000000Y-21000000D02*
X43000000Y-21000000D01*
%TO.N,GPIO3(SCL)*%
X12404999Y-2395999D02*
X13300998Y-1500000D01*
X12404999Y-4135001D02*
X12404999Y-2395999D01*
X11040000Y-5500000D02*
X12404999Y-4135001D01*
X50504999Y-13464999D02*
X50540000Y-13500000D01*
X50504999Y-2585997D02*
X50504999Y-13464999D01*
X49419002Y-1500000D02*
X50504999Y-2585997D01*
X13300998Y-1500000D02*
X49419002Y-1500000D01*
%TO.N,GPIO10(MOSI)*%
X17295001Y-4324999D02*
X17295001Y-11704999D01*
X18660000Y-2960000D02*
X17295001Y-4324999D01*
X17295001Y-11704999D02*
X12000000Y-17000000D01*
X12000000Y-17000000D02*
X12000000Y-23500000D01*
X14340000Y-25840000D02*
X18000000Y-25840000D01*
X12000000Y-23500000D02*
X14340000Y-25840000D01*
%TO.N,GPIO11(SCLK)*%
X16300000Y-23300000D02*
X18000000Y-23300000D01*
X14500000Y-21500000D02*
X16300000Y-23300000D01*
X14500000Y-19500000D02*
X14500000Y-21500000D01*
X19835001Y-14164999D02*
X14500000Y-19500000D01*
X19835001Y-4324999D02*
X19835001Y-14164999D01*
X21200000Y-2960000D02*
X19835001Y-4324999D01*
%TO.N,GPIO5*%
X46000000Y-15500000D02*
X48000000Y-13500000D01*
X29500000Y-15500000D02*
X46000000Y-15500000D01*
%TO.N,GPIO8(CE0)*%
X21740000Y-20760000D02*
X18000000Y-20760000D01*
X22500000Y-20000000D02*
X21740000Y-20760000D01*
X22500000Y-11000000D02*
X22500000Y-20000000D01*
X43000000Y-9000000D02*
X24500000Y-9000000D01*
X45235001Y-6764999D02*
X43000000Y-9000000D01*
X45235001Y-4324999D02*
X45235001Y-6764999D01*
X24500000Y-9000000D02*
X22500000Y-11000000D01*
X46600000Y-2960000D02*
X45235001Y-4324999D01*
%TD*%
D18*
%TO.N,Ground*%
X7015000Y-2813740D02*
X7015000Y-3106260D01*
X7072068Y-3393158D01*
X7184010Y-3663411D01*
X7346525Y-3906632D01*
X7478380Y-4038487D01*
X7405820Y-4060498D01*
X7295506Y-4119463D01*
X7198815Y-4198815D01*
X7119463Y-4295506D01*
X7060498Y-4405820D01*
X7024188Y-4525518D01*
X7011928Y-4650000D01*
X7011928Y-6350000D01*
X7024188Y-6474482D01*
X7060498Y-6594180D01*
X7119463Y-6704494D01*
X7198815Y-6801185D01*
X7295506Y-6880537D01*
X7405820Y-6939502D01*
X7525518Y-6975812D01*
X7650000Y-6988072D01*
X9350000Y-6988072D01*
X9474482Y-6975812D01*
X9594180Y-6939502D01*
X9704494Y-6880537D01*
X9801185Y-6801185D01*
X9880537Y-6704494D01*
X9939502Y-6594180D01*
X9961513Y-6521620D01*
X10093368Y-6653475D01*
X10336589Y-6815990D01*
X10606842Y-6927932D01*
X10893740Y-6985000D01*
X11186260Y-6985000D01*
X11473158Y-6927932D01*
X11743411Y-6815990D01*
X11986632Y-6653475D01*
X12193475Y-6446632D01*
X12315195Y-6264466D01*
X12384822Y-6381355D01*
X12579731Y-6597588D01*
X12813080Y-6771641D01*
X13075901Y-6896825D01*
X13223110Y-6941476D01*
X13453000Y-6820155D01*
X13453000Y-5627000D01*
X13433000Y-5627000D01*
X13433000Y-5373000D01*
X13453000Y-5373000D01*
X13453000Y-5353000D01*
X13707000Y-5353000D01*
X13707000Y-5373000D01*
X13727000Y-5373000D01*
X13727000Y-5627000D01*
X13707000Y-5627000D01*
X13707000Y-6820155D01*
X13936890Y-6941476D01*
X14084099Y-6896825D01*
X14346920Y-6771641D01*
X14580269Y-6597588D01*
X14775178Y-6381355D01*
X14844805Y-6264466D01*
X14966525Y-6446632D01*
X15173368Y-6653475D01*
X15416589Y-6815990D01*
X15686842Y-6927932D01*
X15973740Y-6985000D01*
X16266260Y-6985000D01*
X16410001Y-6956408D01*
X16410002Y-11338419D01*
X11404956Y-16343466D01*
X11371183Y-16371183D01*
X11260589Y-16505942D01*
X11178411Y-16659688D01*
X11127805Y-16826511D01*
X11115000Y-16956524D01*
X11115000Y-16956531D01*
X11110719Y-17000000D01*
X11115000Y-17043469D01*
X11115001Y-23456521D01*
X11110719Y-23500000D01*
X11127805Y-23673490D01*
X11178412Y-23840313D01*
X11260590Y-23994059D01*
X11343468Y-24095046D01*
X11343471Y-24095049D01*
X11371184Y-24128817D01*
X11404951Y-24156529D01*
X13683470Y-26435049D01*
X13711183Y-26468817D01*
X13744951Y-26496530D01*
X13744953Y-26496532D01*
X13802075Y-26543411D01*
X13845941Y-26579411D01*
X13999687Y-26661589D01*
X14166510Y-26712195D01*
X14296523Y-26725000D01*
X14296531Y-26725000D01*
X14340000Y-26729281D01*
X14383469Y-26725000D01*
X16805344Y-26725000D01*
X16846525Y-26786632D01*
X17053368Y-26993475D01*
X17227760Y-27110000D01*
X17053368Y-27226525D01*
X16846525Y-27433368D01*
X16684010Y-27676589D01*
X16572068Y-27946842D01*
X16515000Y-28233740D01*
X16515000Y-28526260D01*
X16572068Y-28813158D01*
X16684010Y-29083411D01*
X16846525Y-29326632D01*
X17053368Y-29533475D01*
X17235534Y-29655195D01*
X17118645Y-29724822D01*
X16902412Y-29919731D01*
X16728359Y-30153080D01*
X16603175Y-30415901D01*
X16558524Y-30563110D01*
X16679845Y-30793000D01*
X17873000Y-30793000D01*
X17873000Y-30773000D01*
X18127000Y-30773000D01*
X18127000Y-30793000D01*
X19320155Y-30793000D01*
X19441476Y-30563110D01*
X19396825Y-30415901D01*
X19271641Y-30153080D01*
X19097588Y-29919731D01*
X18881355Y-29724822D01*
X18764466Y-29655195D01*
X18946632Y-29533475D01*
X19153475Y-29326632D01*
X19315990Y-29083411D01*
X19427932Y-28813158D01*
X19485000Y-28526260D01*
X19485000Y-28233740D01*
X19427932Y-27946842D01*
X19408530Y-27900000D01*
X24461928Y-27900000D01*
X24474188Y-28024482D01*
X24510498Y-28144180D01*
X24569463Y-28254494D01*
X24648815Y-28351185D01*
X24745506Y-28430537D01*
X24855820Y-28489502D01*
X24975518Y-28525812D01*
X25100000Y-28538072D01*
X25714250Y-28535000D01*
X25873000Y-28376250D01*
X25873000Y-27127000D01*
X24623750Y-27127000D01*
X24465000Y-27285750D01*
X24461928Y-27900000D01*
X19408530Y-27900000D01*
X19315990Y-27676589D01*
X19153475Y-27433368D01*
X18946632Y-27226525D01*
X18772240Y-27110000D01*
X18946632Y-26993475D01*
X19153475Y-26786632D01*
X19315990Y-26543411D01*
X19427932Y-26273158D01*
X19462375Y-26100000D01*
X24461928Y-26100000D01*
X24465000Y-26714250D01*
X24623750Y-26873000D01*
X25873000Y-26873000D01*
X25873000Y-25623750D01*
X26127000Y-25623750D01*
X26127000Y-26873000D01*
X26147000Y-26873000D01*
X26147000Y-27127000D01*
X26127000Y-27127000D01*
X26127000Y-28376250D01*
X26285750Y-28535000D01*
X26900000Y-28538072D01*
X27024482Y-28525812D01*
X27144180Y-28489502D01*
X27254494Y-28430537D01*
X27351185Y-28351185D01*
X27430537Y-28254494D01*
X27489502Y-28144180D01*
X27495056Y-28125873D01*
X27561495Y-28192312D01*
X27812905Y-28360299D01*
X28092257Y-28476011D01*
X28388816Y-28535000D01*
X28691184Y-28535000D01*
X28987743Y-28476011D01*
X29267095Y-28360299D01*
X29518505Y-28192312D01*
X29732312Y-27978505D01*
X29900299Y-27727095D01*
X30016011Y-27447743D01*
X30075000Y-27151184D01*
X30075000Y-26848816D01*
X30016011Y-26552257D01*
X29900299Y-26272905D01*
X29732312Y-26021495D01*
X29518505Y-25807688D01*
X29267095Y-25639701D01*
X28987743Y-25523989D01*
X28691184Y-25465000D01*
X28388816Y-25465000D01*
X28092257Y-25523989D01*
X27812905Y-25639701D01*
X27561495Y-25807688D01*
X27495056Y-25874127D01*
X27489502Y-25855820D01*
X27430537Y-25745506D01*
X27351185Y-25648815D01*
X27254494Y-25569463D01*
X27144180Y-25510498D01*
X27024482Y-25474188D01*
X26900000Y-25461928D01*
X26285750Y-25465000D01*
X26127000Y-25623750D01*
X25873000Y-25623750D01*
X25714250Y-25465000D01*
X25100000Y-25461928D01*
X24975518Y-25474188D01*
X24855820Y-25510498D01*
X24745506Y-25569463D01*
X24648815Y-25648815D01*
X24569463Y-25745506D01*
X24510498Y-25855820D01*
X24474188Y-25975518D01*
X24461928Y-26100000D01*
X19462375Y-26100000D01*
X19485000Y-25986260D01*
X19485000Y-25693740D01*
X19427932Y-25406842D01*
X19315990Y-25136589D01*
X19153475Y-24893368D01*
X18946632Y-24686525D01*
X18772240Y-24570000D01*
X18946632Y-24453475D01*
X19153475Y-24246632D01*
X19315990Y-24003411D01*
X19427932Y-23733158D01*
X19485000Y-23446260D01*
X19485000Y-23153740D01*
X19427932Y-22866842D01*
X19315990Y-22596589D01*
X19153475Y-22353368D01*
X18946632Y-22146525D01*
X18772240Y-22030000D01*
X18946632Y-21913475D01*
X19153475Y-21706632D01*
X19194656Y-21645000D01*
X21696531Y-21645000D01*
X21740000Y-21649281D01*
X21783469Y-21645000D01*
X21783477Y-21645000D01*
X21913490Y-21632195D01*
X22080313Y-21581589D01*
X22234059Y-21499411D01*
X22368817Y-21388817D01*
X22396534Y-21355044D01*
X22851578Y-20900000D01*
X24461928Y-20900000D01*
X24474188Y-21024482D01*
X24510498Y-21144180D01*
X24569463Y-21254494D01*
X24648815Y-21351185D01*
X24745506Y-21430537D01*
X24855820Y-21489502D01*
X24975518Y-21525812D01*
X25100000Y-21538072D01*
X25714250Y-21535000D01*
X25873000Y-21376250D01*
X25873000Y-20127000D01*
X24623750Y-20127000D01*
X24465000Y-20285750D01*
X24461928Y-20900000D01*
X22851578Y-20900000D01*
X23095049Y-20656530D01*
X23128817Y-20628817D01*
X23239411Y-20494059D01*
X23321589Y-20340313D01*
X23372195Y-20173490D01*
X23385000Y-20043477D01*
X23385000Y-20043467D01*
X23389281Y-20000001D01*
X23385000Y-19956535D01*
X23385000Y-19100000D01*
X24461928Y-19100000D01*
X24465000Y-19714250D01*
X24623750Y-19873000D01*
X25873000Y-19873000D01*
X25873000Y-18623750D01*
X26127000Y-18623750D01*
X26127000Y-19873000D01*
X26147000Y-19873000D01*
X26147000Y-20127000D01*
X26127000Y-20127000D01*
X26127000Y-21376250D01*
X26285750Y-21535000D01*
X26900000Y-21538072D01*
X27024482Y-21525812D01*
X27144180Y-21489502D01*
X27254494Y-21430537D01*
X27351185Y-21351185D01*
X27430537Y-21254494D01*
X27489502Y-21144180D01*
X27495056Y-21125873D01*
X27561495Y-21192312D01*
X27812905Y-21360299D01*
X28092257Y-21476011D01*
X28388816Y-21535000D01*
X28691184Y-21535000D01*
X28987743Y-21476011D01*
X29267095Y-21360299D01*
X29518505Y-21192312D01*
X29732312Y-20978505D01*
X29900299Y-20727095D01*
X30016011Y-20447743D01*
X30075000Y-20151184D01*
X30075000Y-19848816D01*
X30016011Y-19552257D01*
X29900299Y-19272905D01*
X29732312Y-19021495D01*
X29518505Y-18807688D01*
X29267095Y-18639701D01*
X28987743Y-18523989D01*
X28691184Y-18465000D01*
X28388816Y-18465000D01*
X28092257Y-18523989D01*
X27812905Y-18639701D01*
X27561495Y-18807688D01*
X27495056Y-18874127D01*
X27489502Y-18855820D01*
X27430537Y-18745506D01*
X27351185Y-18648815D01*
X27254494Y-18569463D01*
X27144180Y-18510498D01*
X27024482Y-18474188D01*
X26900000Y-18461928D01*
X26285750Y-18465000D01*
X26127000Y-18623750D01*
X25873000Y-18623750D01*
X25714250Y-18465000D01*
X25100000Y-18461928D01*
X24975518Y-18474188D01*
X24855820Y-18510498D01*
X24745506Y-18569463D01*
X24648815Y-18648815D01*
X24569463Y-18745506D01*
X24510498Y-18855820D01*
X24474188Y-18975518D01*
X24461928Y-19100000D01*
X23385000Y-19100000D01*
X23385000Y-11366578D01*
X24866579Y-9885000D01*
X42956531Y-9885000D01*
X43000000Y-9889281D01*
X43043469Y-9885000D01*
X43043477Y-9885000D01*
X43173490Y-9872195D01*
X43340313Y-9821589D01*
X43494059Y-9739411D01*
X43628817Y-9628817D01*
X43656534Y-9595044D01*
X45830050Y-7421529D01*
X45863818Y-7393816D01*
X45974412Y-7259058D01*
X46056590Y-7105312D01*
X46107196Y-6938489D01*
X46110533Y-6904608D01*
X46166842Y-6927932D01*
X46453740Y-6985000D01*
X46746260Y-6985000D01*
X47033158Y-6927932D01*
X47303411Y-6815990D01*
X47546632Y-6653475D01*
X47753475Y-6446632D01*
X47870000Y-6272240D01*
X47986525Y-6446632D01*
X48193368Y-6653475D01*
X48436589Y-6815990D01*
X48706842Y-6927932D01*
X48993740Y-6985000D01*
X49286260Y-6985000D01*
X49573158Y-6927932D01*
X49619999Y-6908530D01*
X49620000Y-12328730D01*
X49593368Y-12346525D01*
X49386525Y-12553368D01*
X49270000Y-12727760D01*
X49153475Y-12553368D01*
X48946632Y-12346525D01*
X48703411Y-12184010D01*
X48433158Y-12072068D01*
X48146260Y-12015000D01*
X47853740Y-12015000D01*
X47566842Y-12072068D01*
X47296589Y-12184010D01*
X47053368Y-12346525D01*
X46846525Y-12553368D01*
X46724805Y-12735534D01*
X46655178Y-12618645D01*
X46460269Y-12402412D01*
X46226920Y-12228359D01*
X45964099Y-12103175D01*
X45816890Y-12058524D01*
X45587000Y-12179845D01*
X45587000Y-13373000D01*
X45607000Y-13373000D01*
X45607000Y-13627000D01*
X45587000Y-13627000D01*
X45587000Y-13647000D01*
X45333000Y-13647000D01*
X45333000Y-13627000D01*
X45313000Y-13627000D01*
X45313000Y-13373000D01*
X45333000Y-13373000D01*
X45333000Y-12179845D01*
X45103110Y-12058524D01*
X44955901Y-12103175D01*
X44693080Y-12228359D01*
X44459731Y-12402412D01*
X44383966Y-12486466D01*
X44359502Y-12405820D01*
X44300537Y-12295506D01*
X44221185Y-12198815D01*
X44124494Y-12119463D01*
X44014180Y-12060498D01*
X43894482Y-12024188D01*
X43770000Y-12011928D01*
X42070000Y-12011928D01*
X41945518Y-12024188D01*
X41825820Y-12060498D01*
X41715506Y-12119463D01*
X41618815Y-12198815D01*
X41539463Y-12295506D01*
X41480498Y-12405820D01*
X41444188Y-12525518D01*
X41431928Y-12650000D01*
X41431928Y-14350000D01*
X41444188Y-14474482D01*
X41480498Y-14594180D01*
X41491627Y-14615000D01*
X30038454Y-14615000D01*
X29990256Y-14582795D01*
X29801898Y-14504774D01*
X29601939Y-14465000D01*
X29398061Y-14465000D01*
X29198102Y-14504774D01*
X29009744Y-14582795D01*
X28840226Y-14696063D01*
X28696063Y-14840226D01*
X28582795Y-15009744D01*
X28504774Y-15198102D01*
X28465000Y-15398061D01*
X28465000Y-15601939D01*
X28504774Y-15801898D01*
X28582795Y-15990256D01*
X28696063Y-16159774D01*
X28840226Y-16303937D01*
X29009744Y-16417205D01*
X29198102Y-16495226D01*
X29398061Y-16535000D01*
X29601939Y-16535000D01*
X29801898Y-16495226D01*
X29990256Y-16417205D01*
X30038454Y-16385000D01*
X45956531Y-16385000D01*
X46000000Y-16389281D01*
X46043469Y-16385000D01*
X46043477Y-16385000D01*
X46173490Y-16372195D01*
X46340313Y-16321589D01*
X46494059Y-16239411D01*
X46628817Y-16128817D01*
X46656534Y-16095044D01*
X47781040Y-14970539D01*
X47853740Y-14985000D01*
X48146260Y-14985000D01*
X48433158Y-14927932D01*
X48703411Y-14815990D01*
X48946632Y-14653475D01*
X49153475Y-14446632D01*
X49270000Y-14272240D01*
X49386525Y-14446632D01*
X49593368Y-14653475D01*
X49836589Y-14815990D01*
X50106842Y-14927932D01*
X50393740Y-14985000D01*
X50686260Y-14985000D01*
X50973158Y-14927932D01*
X51243411Y-14815990D01*
X51486632Y-14653475D01*
X51693475Y-14446632D01*
X51855990Y-14203411D01*
X51967932Y-13933158D01*
X52025000Y-13646260D01*
X52025000Y-13353740D01*
X51967932Y-13066842D01*
X51855990Y-12796589D01*
X51693475Y-12553368D01*
X51486632Y-12346525D01*
X51389999Y-12281957D01*
X51389999Y-6906176D01*
X51553000Y-6820155D01*
X51553000Y-5627000D01*
X51807000Y-5627000D01*
X51807000Y-6820155D01*
X52036890Y-6941476D01*
X52184099Y-6896825D01*
X52446920Y-6771641D01*
X52680269Y-6597588D01*
X52875178Y-6381355D01*
X52950000Y-6255745D01*
X53024822Y-6381355D01*
X53219731Y-6597588D01*
X53453080Y-6771641D01*
X53715901Y-6896825D01*
X53863110Y-6941476D01*
X54093000Y-6820155D01*
X54093000Y-5627000D01*
X51807000Y-5627000D01*
X51553000Y-5627000D01*
X51533000Y-5627000D01*
X51533000Y-5373000D01*
X51553000Y-5373000D01*
X51553000Y-5353000D01*
X51807000Y-5353000D01*
X51807000Y-5373000D01*
X54093000Y-5373000D01*
X54093000Y-5353000D01*
X54347000Y-5353000D01*
X54347000Y-5373000D01*
X54367000Y-5373000D01*
X54367000Y-5627000D01*
X54347000Y-5627000D01*
X54347000Y-6820155D01*
X54576890Y-6941476D01*
X54724099Y-6896825D01*
X54986920Y-6771641D01*
X55220269Y-6597588D01*
X55415178Y-6381355D01*
X55484805Y-6264466D01*
X55606525Y-6446632D01*
X55813368Y-6653475D01*
X56056589Y-6815990D01*
X56326842Y-6927932D01*
X56613740Y-6985000D01*
X56906260Y-6985000D01*
X57193158Y-6927932D01*
X57463411Y-6815990D01*
X57706632Y-6653475D01*
X57913475Y-6446632D01*
X58075990Y-6203411D01*
X58187932Y-5933158D01*
X58245000Y-5646260D01*
X58245000Y-5353740D01*
X58187932Y-5066842D01*
X58075990Y-4796589D01*
X57913475Y-4553368D01*
X57706632Y-4346525D01*
X57532240Y-4230000D01*
X57706632Y-4113475D01*
X57913475Y-3906632D01*
X58075990Y-3663411D01*
X58187932Y-3393158D01*
X58245000Y-3106260D01*
X58245000Y-2813740D01*
X58207855Y-2627000D01*
X59713059Y-2627000D01*
X59591282Y-2920997D01*
X59515000Y-3304495D01*
X59515000Y-3695505D01*
X59591282Y-4079003D01*
X59740915Y-4440250D01*
X59958149Y-4765364D01*
X60234636Y-5041851D01*
X60559750Y-5259085D01*
X60920997Y-5408718D01*
X61304495Y-5485000D01*
X61373000Y-5485000D01*
X61373000Y-50515000D01*
X61304495Y-50515000D01*
X60920997Y-50591282D01*
X60559750Y-50740915D01*
X60234636Y-50958149D01*
X59958149Y-51234636D01*
X59740915Y-51559750D01*
X59591282Y-51920997D01*
X59515000Y-52304495D01*
X59515000Y-52695505D01*
X59550306Y-52873000D01*
X5449694Y-52873000D01*
X5485000Y-52695505D01*
X5485000Y-52304495D01*
X5408718Y-51920997D01*
X5259085Y-51559750D01*
X5041851Y-51234636D01*
X4765364Y-50958149D01*
X4440250Y-50740915D01*
X4079003Y-50591282D01*
X3695505Y-50515000D01*
X3627000Y-50515000D01*
X3627000Y-48135413D01*
X24444192Y-48135413D01*
X24539956Y-48399814D01*
X24829571Y-48540704D01*
X25141108Y-48622384D01*
X25462595Y-48641718D01*
X25781675Y-48597961D01*
X26086088Y-48492795D01*
X26260044Y-48399814D01*
X26355808Y-48135413D01*
X25400000Y-47179605D01*
X24444192Y-48135413D01*
X3627000Y-48135413D01*
X3627000Y-47062595D01*
X23758282Y-47062595D01*
X23802039Y-47381675D01*
X23907205Y-47686088D01*
X24000186Y-47860044D01*
X24264587Y-47955808D01*
X25220395Y-47000000D01*
X25579605Y-47000000D01*
X26535413Y-47955808D01*
X26799814Y-47860044D01*
X26940704Y-47570429D01*
X27022384Y-47258892D01*
X27041718Y-46937405D01*
X26997961Y-46618325D01*
X26892795Y-46313912D01*
X26799814Y-46139956D01*
X26535413Y-46044192D01*
X25579605Y-47000000D01*
X25220395Y-47000000D01*
X24264587Y-46044192D01*
X24000186Y-46139956D01*
X23859296Y-46429571D01*
X23777616Y-46741108D01*
X23758282Y-47062595D01*
X3627000Y-47062595D01*
X3627000Y-45864587D01*
X24444192Y-45864587D01*
X25400000Y-46820395D01*
X26220395Y-46000000D01*
X31361928Y-46000000D01*
X31361928Y-48000000D01*
X31374188Y-48124482D01*
X31410498Y-48244180D01*
X31469463Y-48354494D01*
X31548815Y-48451185D01*
X31645506Y-48530537D01*
X31755820Y-48589502D01*
X31875518Y-48625812D01*
X32000000Y-48638072D01*
X34000000Y-48638072D01*
X34124482Y-48625812D01*
X34244180Y-48589502D01*
X34354494Y-48530537D01*
X34451185Y-48451185D01*
X34530537Y-48354494D01*
X34589502Y-48244180D01*
X34625812Y-48124482D01*
X34638072Y-48000000D01*
X34638072Y-47338967D01*
X37865000Y-47338967D01*
X37865000Y-47661033D01*
X37927832Y-47976912D01*
X38051082Y-48274463D01*
X38230013Y-48542252D01*
X38457748Y-48769987D01*
X38725537Y-48948918D01*
X39023088Y-49072168D01*
X39338967Y-49135000D01*
X39661033Y-49135000D01*
X39976912Y-49072168D01*
X40274463Y-48948918D01*
X40542252Y-48769987D01*
X40769987Y-48542252D01*
X40948918Y-48274463D01*
X41072168Y-47976912D01*
X41135000Y-47661033D01*
X41135000Y-47338967D01*
X44365000Y-47338967D01*
X44365000Y-47661033D01*
X44427832Y-47976912D01*
X44551082Y-48274463D01*
X44730013Y-48542252D01*
X44957748Y-48769987D01*
X45225537Y-48948918D01*
X45523088Y-49072168D01*
X45838967Y-49135000D01*
X46161033Y-49135000D01*
X46476912Y-49072168D01*
X46774463Y-48948918D01*
X47042252Y-48769987D01*
X47269987Y-48542252D01*
X47448918Y-48274463D01*
X47572168Y-47976912D01*
X47635000Y-47661033D01*
X47635000Y-47338967D01*
X50365000Y-47338967D01*
X50365000Y-47661033D01*
X50427832Y-47976912D01*
X50551082Y-48274463D01*
X50730013Y-48542252D01*
X50957748Y-48769987D01*
X51225537Y-48948918D01*
X51523088Y-49072168D01*
X51838967Y-49135000D01*
X52161033Y-49135000D01*
X52476912Y-49072168D01*
X52774463Y-48948918D01*
X53042252Y-48769987D01*
X53269987Y-48542252D01*
X53448918Y-48274463D01*
X53572168Y-47976912D01*
X53635000Y-47661033D01*
X53635000Y-47338967D01*
X56865000Y-47338967D01*
X56865000Y-47661033D01*
X56927832Y-47976912D01*
X57051082Y-48274463D01*
X57230013Y-48542252D01*
X57457748Y-48769987D01*
X57725537Y-48948918D01*
X58023088Y-49072168D01*
X58338967Y-49135000D01*
X58661033Y-49135000D01*
X58976912Y-49072168D01*
X59274463Y-48948918D01*
X59542252Y-48769987D01*
X59769987Y-48542252D01*
X59948918Y-48274463D01*
X60072168Y-47976912D01*
X60135000Y-47661033D01*
X60135000Y-47338967D01*
X60072168Y-47023088D01*
X59948918Y-46725537D01*
X59769987Y-46457748D01*
X59542252Y-46230013D01*
X59274463Y-46051082D01*
X58976912Y-45927832D01*
X58661033Y-45865000D01*
X58338967Y-45865000D01*
X58023088Y-45927832D01*
X57725537Y-46051082D01*
X57457748Y-46230013D01*
X57230013Y-46457748D01*
X57051082Y-46725537D01*
X56927832Y-47023088D01*
X56865000Y-47338967D01*
X53635000Y-47338967D01*
X53572168Y-47023088D01*
X53448918Y-46725537D01*
X53269987Y-46457748D01*
X53042252Y-46230013D01*
X52774463Y-46051082D01*
X52476912Y-45927832D01*
X52161033Y-45865000D01*
X51838967Y-45865000D01*
X51523088Y-45927832D01*
X51225537Y-46051082D01*
X50957748Y-46230013D01*
X50730013Y-46457748D01*
X50551082Y-46725537D01*
X50427832Y-47023088D01*
X50365000Y-47338967D01*
X47635000Y-47338967D01*
X47572168Y-47023088D01*
X47448918Y-46725537D01*
X47269987Y-46457748D01*
X47042252Y-46230013D01*
X46774463Y-46051082D01*
X46476912Y-45927832D01*
X46161033Y-45865000D01*
X45838967Y-45865000D01*
X45523088Y-45927832D01*
X45225537Y-46051082D01*
X44957748Y-46230013D01*
X44730013Y-46457748D01*
X44551082Y-46725537D01*
X44427832Y-47023088D01*
X44365000Y-47338967D01*
X41135000Y-47338967D01*
X41072168Y-47023088D01*
X40948918Y-46725537D01*
X40769987Y-46457748D01*
X40542252Y-46230013D01*
X40274463Y-46051082D01*
X39976912Y-45927832D01*
X39661033Y-45865000D01*
X39338967Y-45865000D01*
X39023088Y-45927832D01*
X38725537Y-46051082D01*
X38457748Y-46230013D01*
X38230013Y-46457748D01*
X38051082Y-46725537D01*
X37927832Y-47023088D01*
X37865000Y-47338967D01*
X34638072Y-47338967D01*
X34638072Y-46000000D01*
X34625812Y-45875518D01*
X34589502Y-45755820D01*
X34530537Y-45645506D01*
X34451185Y-45548815D01*
X34354494Y-45469463D01*
X34244180Y-45410498D01*
X34124482Y-45374188D01*
X34000000Y-45361928D01*
X32000000Y-45361928D01*
X31875518Y-45374188D01*
X31755820Y-45410498D01*
X31645506Y-45469463D01*
X31548815Y-45548815D01*
X31469463Y-45645506D01*
X31410498Y-45755820D01*
X31374188Y-45875518D01*
X31361928Y-46000000D01*
X26220395Y-46000000D01*
X26355808Y-45864587D01*
X26260044Y-45600186D01*
X25970429Y-45459296D01*
X25658892Y-45377616D01*
X25337405Y-45358282D01*
X25018325Y-45402039D01*
X24713912Y-45507205D01*
X24539956Y-45600186D01*
X24444192Y-45864587D01*
X3627000Y-45864587D01*
X3627000Y-44135413D01*
X38544192Y-44135413D01*
X38639956Y-44399814D01*
X38929571Y-44540704D01*
X39241108Y-44622384D01*
X39562595Y-44641718D01*
X39881675Y-44597961D01*
X40186088Y-44492795D01*
X40360044Y-44399814D01*
X40455808Y-44135413D01*
X45044192Y-44135413D01*
X45139956Y-44399814D01*
X45429571Y-44540704D01*
X45741108Y-44622384D01*
X46062595Y-44641718D01*
X46381675Y-44597961D01*
X46686088Y-44492795D01*
X46860044Y-44399814D01*
X46955808Y-44135413D01*
X51044192Y-44135413D01*
X51139956Y-44399814D01*
X51429571Y-44540704D01*
X51741108Y-44622384D01*
X52062595Y-44641718D01*
X52381675Y-44597961D01*
X52686088Y-44492795D01*
X52860044Y-44399814D01*
X52955808Y-44135413D01*
X57544192Y-44135413D01*
X57639956Y-44399814D01*
X57929571Y-44540704D01*
X58241108Y-44622384D01*
X58562595Y-44641718D01*
X58881675Y-44597961D01*
X59186088Y-44492795D01*
X59360044Y-44399814D01*
X59455808Y-44135413D01*
X58500000Y-43179605D01*
X57544192Y-44135413D01*
X52955808Y-44135413D01*
X52000000Y-43179605D01*
X51044192Y-44135413D01*
X46955808Y-44135413D01*
X46000000Y-43179605D01*
X45044192Y-44135413D01*
X40455808Y-44135413D01*
X39500000Y-43179605D01*
X38544192Y-44135413D01*
X3627000Y-44135413D01*
X3627000Y-43062595D01*
X37858282Y-43062595D01*
X37902039Y-43381675D01*
X38007205Y-43686088D01*
X38100186Y-43860044D01*
X38364587Y-43955808D01*
X39320395Y-43000000D01*
X39679605Y-43000000D01*
X40635413Y-43955808D01*
X40899814Y-43860044D01*
X41040704Y-43570429D01*
X41122384Y-43258892D01*
X41134189Y-43062595D01*
X44358282Y-43062595D01*
X44402039Y-43381675D01*
X44507205Y-43686088D01*
X44600186Y-43860044D01*
X44864587Y-43955808D01*
X45820395Y-43000000D01*
X46179605Y-43000000D01*
X47135413Y-43955808D01*
X47399814Y-43860044D01*
X47540704Y-43570429D01*
X47622384Y-43258892D01*
X47634189Y-43062595D01*
X50358282Y-43062595D01*
X50402039Y-43381675D01*
X50507205Y-43686088D01*
X50600186Y-43860044D01*
X50864587Y-43955808D01*
X51820395Y-43000000D01*
X52179605Y-43000000D01*
X53135413Y-43955808D01*
X53399814Y-43860044D01*
X53540704Y-43570429D01*
X53622384Y-43258892D01*
X53634189Y-43062595D01*
X56858282Y-43062595D01*
X56902039Y-43381675D01*
X57007205Y-43686088D01*
X57100186Y-43860044D01*
X57364587Y-43955808D01*
X58320395Y-43000000D01*
X58679605Y-43000000D01*
X59635413Y-43955808D01*
X59899814Y-43860044D01*
X60040704Y-43570429D01*
X60122384Y-43258892D01*
X60141718Y-42937405D01*
X60097961Y-42618325D01*
X59992795Y-42313912D01*
X59899814Y-42139956D01*
X59635413Y-42044192D01*
X58679605Y-43000000D01*
X58320395Y-43000000D01*
X57364587Y-42044192D01*
X57100186Y-42139956D01*
X56959296Y-42429571D01*
X56877616Y-42741108D01*
X56858282Y-43062595D01*
X53634189Y-43062595D01*
X53641718Y-42937405D01*
X53597961Y-42618325D01*
X53492795Y-42313912D01*
X53399814Y-42139956D01*
X53135413Y-42044192D01*
X52179605Y-43000000D01*
X51820395Y-43000000D01*
X50864587Y-42044192D01*
X50600186Y-42139956D01*
X50459296Y-42429571D01*
X50377616Y-42741108D01*
X50358282Y-43062595D01*
X47634189Y-43062595D01*
X47641718Y-42937405D01*
X47597961Y-42618325D01*
X47492795Y-42313912D01*
X47399814Y-42139956D01*
X47135413Y-42044192D01*
X46179605Y-43000000D01*
X45820395Y-43000000D01*
X44864587Y-42044192D01*
X44600186Y-42139956D01*
X44459296Y-42429571D01*
X44377616Y-42741108D01*
X44358282Y-43062595D01*
X41134189Y-43062595D01*
X41141718Y-42937405D01*
X41097961Y-42618325D01*
X40992795Y-42313912D01*
X40899814Y-42139956D01*
X40635413Y-42044192D01*
X39679605Y-43000000D01*
X39320395Y-43000000D01*
X38364587Y-42044192D01*
X38100186Y-42139956D01*
X37959296Y-42429571D01*
X37877616Y-42741108D01*
X37858282Y-43062595D01*
X3627000Y-43062595D01*
X3627000Y-41864587D01*
X38544192Y-41864587D01*
X39500000Y-42820395D01*
X40455808Y-41864587D01*
X45044192Y-41864587D01*
X46000000Y-42820395D01*
X46955808Y-41864587D01*
X51044192Y-41864587D01*
X52000000Y-42820395D01*
X52955808Y-41864587D01*
X57544192Y-41864587D01*
X58500000Y-42820395D01*
X59455808Y-41864587D01*
X59360044Y-41600186D01*
X59070429Y-41459296D01*
X58758892Y-41377616D01*
X58437405Y-41358282D01*
X58118325Y-41402039D01*
X57813912Y-41507205D01*
X57639956Y-41600186D01*
X57544192Y-41864587D01*
X52955808Y-41864587D01*
X52860044Y-41600186D01*
X52570429Y-41459296D01*
X52258892Y-41377616D01*
X51937405Y-41358282D01*
X51618325Y-41402039D01*
X51313912Y-41507205D01*
X51139956Y-41600186D01*
X51044192Y-41864587D01*
X46955808Y-41864587D01*
X46860044Y-41600186D01*
X46570429Y-41459296D01*
X46258892Y-41377616D01*
X45937405Y-41358282D01*
X45618325Y-41402039D01*
X45313912Y-41507205D01*
X45139956Y-41600186D01*
X45044192Y-41864587D01*
X40455808Y-41864587D01*
X40360044Y-41600186D01*
X40070429Y-41459296D01*
X39758892Y-41377616D01*
X39437405Y-41358282D01*
X39118325Y-41402039D01*
X38813912Y-41507205D01*
X38639956Y-41600186D01*
X38544192Y-41864587D01*
X3627000Y-41864587D01*
X3627000Y-35150000D01*
X16511928Y-35150000D01*
X16511928Y-36850000D01*
X16524188Y-36974482D01*
X16560498Y-37094180D01*
X16619463Y-37204494D01*
X16698815Y-37301185D01*
X16795506Y-37380537D01*
X16905820Y-37439502D01*
X17025518Y-37475812D01*
X17150000Y-37488072D01*
X18850000Y-37488072D01*
X18974482Y-37475812D01*
X19094180Y-37439502D01*
X19204494Y-37380537D01*
X19301185Y-37301185D01*
X19380537Y-37204494D01*
X19439502Y-37094180D01*
X19475812Y-36974482D01*
X19483338Y-36898061D01*
X25965000Y-36898061D01*
X25965000Y-37101939D01*
X26004774Y-37301898D01*
X26082795Y-37490256D01*
X26196063Y-37659774D01*
X26340226Y-37803937D01*
X26509744Y-37917205D01*
X26698102Y-37995226D01*
X26898061Y-38035000D01*
X27101939Y-38035000D01*
X27301898Y-37995226D01*
X27490256Y-37917205D01*
X27659774Y-37803937D01*
X27803937Y-37659774D01*
X27917205Y-37490256D01*
X27995226Y-37301898D01*
X28006535Y-37245043D01*
X43245044Y-22006535D01*
X43301898Y-21995226D01*
X43490256Y-21917205D01*
X43659774Y-21803937D01*
X43803937Y-21659774D01*
X43917205Y-21490256D01*
X43995226Y-21301898D01*
X44035000Y-21101939D01*
X44035000Y-20898061D01*
X43995226Y-20698102D01*
X43917205Y-20509744D01*
X43803937Y-20340226D01*
X43659774Y-20196063D01*
X43490256Y-20082795D01*
X43301898Y-20004774D01*
X43101939Y-19965000D01*
X42898061Y-19965000D01*
X42698102Y-20004774D01*
X42509744Y-20082795D01*
X42340226Y-20196063D01*
X42196063Y-20340226D01*
X42082795Y-20509744D01*
X42004774Y-20698102D01*
X41993465Y-20754956D01*
X26754957Y-35993465D01*
X26698102Y-36004774D01*
X26509744Y-36082795D01*
X26340226Y-36196063D01*
X26196063Y-36340226D01*
X26082795Y-36509744D01*
X26004774Y-36698102D01*
X25965000Y-36898061D01*
X19483338Y-36898061D01*
X19488072Y-36850000D01*
X19488072Y-35150000D01*
X19475812Y-35025518D01*
X19439502Y-34905820D01*
X19380537Y-34795506D01*
X19301185Y-34698815D01*
X19204494Y-34619463D01*
X19094180Y-34560498D01*
X19021620Y-34538487D01*
X19153475Y-34406632D01*
X19315990Y-34163411D01*
X19427932Y-33893158D01*
X19485000Y-33606260D01*
X19485000Y-33313740D01*
X19427932Y-33026842D01*
X19315990Y-32756589D01*
X19153475Y-32513368D01*
X18946632Y-32306525D01*
X18764466Y-32184805D01*
X18881355Y-32115178D01*
X19097588Y-31920269D01*
X19271641Y-31686920D01*
X19396825Y-31424099D01*
X19441476Y-31276890D01*
X19320155Y-31047000D01*
X18127000Y-31047000D01*
X18127000Y-31067000D01*
X17873000Y-31067000D01*
X17873000Y-31047000D01*
X16679845Y-31047000D01*
X16558524Y-31276890D01*
X16603175Y-31424099D01*
X16728359Y-31686920D01*
X16902412Y-31920269D01*
X17118645Y-32115178D01*
X17235534Y-32184805D01*
X17053368Y-32306525D01*
X16846525Y-32513368D01*
X16684010Y-32756589D01*
X16572068Y-33026842D01*
X16515000Y-33313740D01*
X16515000Y-33606260D01*
X16572068Y-33893158D01*
X16684010Y-34163411D01*
X16846525Y-34406632D01*
X16978380Y-34538487D01*
X16905820Y-34560498D01*
X16795506Y-34619463D01*
X16698815Y-34698815D01*
X16619463Y-34795506D01*
X16560498Y-34905820D01*
X16524188Y-35025518D01*
X16511928Y-35150000D01*
X3627000Y-35150000D01*
X3627000Y-5485000D01*
X3695505Y-5485000D01*
X4079003Y-5408718D01*
X4440250Y-5259085D01*
X4765364Y-5041851D01*
X5041851Y-4765364D01*
X5259085Y-4440250D01*
X5408718Y-4079003D01*
X5485000Y-3695505D01*
X5485000Y-3304495D01*
X5408718Y-2920997D01*
X5286941Y-2627000D01*
X7052145Y-2627000D01*
X7015000Y-2813740D01*
%TA.AperFunction,Conductor*%
D19*
G36*
X7015000Y-2813740D02*
G01*
X7015000Y-3106260D01*
X7072068Y-3393158D01*
X7184010Y-3663411D01*
X7346525Y-3906632D01*
X7478380Y-4038487D01*
X7405820Y-4060498D01*
X7295506Y-4119463D01*
X7198815Y-4198815D01*
X7119463Y-4295506D01*
X7060498Y-4405820D01*
X7024188Y-4525518D01*
X7011928Y-4650000D01*
X7011928Y-6350000D01*
X7024188Y-6474482D01*
X7060498Y-6594180D01*
X7119463Y-6704494D01*
X7198815Y-6801185D01*
X7295506Y-6880537D01*
X7405820Y-6939502D01*
X7525518Y-6975812D01*
X7650000Y-6988072D01*
X9350000Y-6988072D01*
X9474482Y-6975812D01*
X9594180Y-6939502D01*
X9704494Y-6880537D01*
X9801185Y-6801185D01*
X9880537Y-6704494D01*
X9939502Y-6594180D01*
X9961513Y-6521620D01*
X10093368Y-6653475D01*
X10336589Y-6815990D01*
X10606842Y-6927932D01*
X10893740Y-6985000D01*
X11186260Y-6985000D01*
X11473158Y-6927932D01*
X11743411Y-6815990D01*
X11986632Y-6653475D01*
X12193475Y-6446632D01*
X12315195Y-6264466D01*
X12384822Y-6381355D01*
X12579731Y-6597588D01*
X12813080Y-6771641D01*
X13075901Y-6896825D01*
X13223110Y-6941476D01*
X13453000Y-6820155D01*
X13453000Y-5627000D01*
X13433000Y-5627000D01*
X13433000Y-5373000D01*
X13453000Y-5373000D01*
X13453000Y-5353000D01*
X13707000Y-5353000D01*
X13707000Y-5373000D01*
X13727000Y-5373000D01*
X13727000Y-5627000D01*
X13707000Y-5627000D01*
X13707000Y-6820155D01*
X13936890Y-6941476D01*
X14084099Y-6896825D01*
X14346920Y-6771641D01*
X14580269Y-6597588D01*
X14775178Y-6381355D01*
X14844805Y-6264466D01*
X14966525Y-6446632D01*
X15173368Y-6653475D01*
X15416589Y-6815990D01*
X15686842Y-6927932D01*
X15973740Y-6985000D01*
X16266260Y-6985000D01*
X16410001Y-6956408D01*
X16410002Y-11338419D01*
X11404956Y-16343466D01*
X11371183Y-16371183D01*
X11260589Y-16505942D01*
X11178411Y-16659688D01*
X11127805Y-16826511D01*
X11115000Y-16956524D01*
X11115000Y-16956531D01*
X11110719Y-17000000D01*
X11115000Y-17043469D01*
X11115001Y-23456521D01*
X11110719Y-23500000D01*
X11127805Y-23673490D01*
X11178412Y-23840313D01*
X11260590Y-23994059D01*
X11343468Y-24095046D01*
X11343471Y-24095049D01*
X11371184Y-24128817D01*
X11404951Y-24156529D01*
X13683470Y-26435049D01*
X13711183Y-26468817D01*
X13744951Y-26496530D01*
X13744953Y-26496532D01*
X13802075Y-26543411D01*
X13845941Y-26579411D01*
X13999687Y-26661589D01*
X14166510Y-26712195D01*
X14296523Y-26725000D01*
X14296531Y-26725000D01*
X14340000Y-26729281D01*
X14383469Y-26725000D01*
X16805344Y-26725000D01*
X16846525Y-26786632D01*
X17053368Y-26993475D01*
X17227760Y-27110000D01*
X17053368Y-27226525D01*
X16846525Y-27433368D01*
X16684010Y-27676589D01*
X16572068Y-27946842D01*
X16515000Y-28233740D01*
X16515000Y-28526260D01*
X16572068Y-28813158D01*
X16684010Y-29083411D01*
X16846525Y-29326632D01*
X17053368Y-29533475D01*
X17235534Y-29655195D01*
X17118645Y-29724822D01*
X16902412Y-29919731D01*
X16728359Y-30153080D01*
X16603175Y-30415901D01*
X16558524Y-30563110D01*
X16679845Y-30793000D01*
X17873000Y-30793000D01*
X17873000Y-30773000D01*
X18127000Y-30773000D01*
X18127000Y-30793000D01*
X19320155Y-30793000D01*
X19441476Y-30563110D01*
X19396825Y-30415901D01*
X19271641Y-30153080D01*
X19097588Y-29919731D01*
X18881355Y-29724822D01*
X18764466Y-29655195D01*
X18946632Y-29533475D01*
X19153475Y-29326632D01*
X19315990Y-29083411D01*
X19427932Y-28813158D01*
X19485000Y-28526260D01*
X19485000Y-28233740D01*
X19427932Y-27946842D01*
X19408530Y-27900000D01*
X24461928Y-27900000D01*
X24474188Y-28024482D01*
X24510498Y-28144180D01*
X24569463Y-28254494D01*
X24648815Y-28351185D01*
X24745506Y-28430537D01*
X24855820Y-28489502D01*
X24975518Y-28525812D01*
X25100000Y-28538072D01*
X25714250Y-28535000D01*
X25873000Y-28376250D01*
X25873000Y-27127000D01*
X24623750Y-27127000D01*
X24465000Y-27285750D01*
X24461928Y-27900000D01*
X19408530Y-27900000D01*
X19315990Y-27676589D01*
X19153475Y-27433368D01*
X18946632Y-27226525D01*
X18772240Y-27110000D01*
X18946632Y-26993475D01*
X19153475Y-26786632D01*
X19315990Y-26543411D01*
X19427932Y-26273158D01*
X19462375Y-26100000D01*
X24461928Y-26100000D01*
X24465000Y-26714250D01*
X24623750Y-26873000D01*
X25873000Y-26873000D01*
X25873000Y-25623750D01*
X26127000Y-25623750D01*
X26127000Y-26873000D01*
X26147000Y-26873000D01*
X26147000Y-27127000D01*
X26127000Y-27127000D01*
X26127000Y-28376250D01*
X26285750Y-28535000D01*
X26900000Y-28538072D01*
X27024482Y-28525812D01*
X27144180Y-28489502D01*
X27254494Y-28430537D01*
X27351185Y-28351185D01*
X27430537Y-28254494D01*
X27489502Y-28144180D01*
X27495056Y-28125873D01*
X27561495Y-28192312D01*
X27812905Y-28360299D01*
X28092257Y-28476011D01*
X28388816Y-28535000D01*
X28691184Y-28535000D01*
X28987743Y-28476011D01*
X29267095Y-28360299D01*
X29518505Y-28192312D01*
X29732312Y-27978505D01*
X29900299Y-27727095D01*
X30016011Y-27447743D01*
X30075000Y-27151184D01*
X30075000Y-26848816D01*
X30016011Y-26552257D01*
X29900299Y-26272905D01*
X29732312Y-26021495D01*
X29518505Y-25807688D01*
X29267095Y-25639701D01*
X28987743Y-25523989D01*
X28691184Y-25465000D01*
X28388816Y-25465000D01*
X28092257Y-25523989D01*
X27812905Y-25639701D01*
X27561495Y-25807688D01*
X27495056Y-25874127D01*
X27489502Y-25855820D01*
X27430537Y-25745506D01*
X27351185Y-25648815D01*
X27254494Y-25569463D01*
X27144180Y-25510498D01*
X27024482Y-25474188D01*
X26900000Y-25461928D01*
X26285750Y-25465000D01*
X26127000Y-25623750D01*
X25873000Y-25623750D01*
X25714250Y-25465000D01*
X25100000Y-25461928D01*
X24975518Y-25474188D01*
X24855820Y-25510498D01*
X24745506Y-25569463D01*
X24648815Y-25648815D01*
X24569463Y-25745506D01*
X24510498Y-25855820D01*
X24474188Y-25975518D01*
X24461928Y-26100000D01*
X19462375Y-26100000D01*
X19485000Y-25986260D01*
X19485000Y-25693740D01*
X19427932Y-25406842D01*
X19315990Y-25136589D01*
X19153475Y-24893368D01*
X18946632Y-24686525D01*
X18772240Y-24570000D01*
X18946632Y-24453475D01*
X19153475Y-24246632D01*
X19315990Y-24003411D01*
X19427932Y-23733158D01*
X19485000Y-23446260D01*
X19485000Y-23153740D01*
X19427932Y-22866842D01*
X19315990Y-22596589D01*
X19153475Y-22353368D01*
X18946632Y-22146525D01*
X18772240Y-22030000D01*
X18946632Y-21913475D01*
X19153475Y-21706632D01*
X19194656Y-21645000D01*
X21696531Y-21645000D01*
X21740000Y-21649281D01*
X21783469Y-21645000D01*
X21783477Y-21645000D01*
X21913490Y-21632195D01*
X22080313Y-21581589D01*
X22234059Y-21499411D01*
X22368817Y-21388817D01*
X22396534Y-21355044D01*
X22851578Y-20900000D01*
X24461928Y-20900000D01*
X24474188Y-21024482D01*
X24510498Y-21144180D01*
X24569463Y-21254494D01*
X24648815Y-21351185D01*
X24745506Y-21430537D01*
X24855820Y-21489502D01*
X24975518Y-21525812D01*
X25100000Y-21538072D01*
X25714250Y-21535000D01*
X25873000Y-21376250D01*
X25873000Y-20127000D01*
X24623750Y-20127000D01*
X24465000Y-20285750D01*
X24461928Y-20900000D01*
X22851578Y-20900000D01*
X23095049Y-20656530D01*
X23128817Y-20628817D01*
X23239411Y-20494059D01*
X23321589Y-20340313D01*
X23372195Y-20173490D01*
X23385000Y-20043477D01*
X23385000Y-20043467D01*
X23389281Y-20000001D01*
X23385000Y-19956535D01*
X23385000Y-19100000D01*
X24461928Y-19100000D01*
X24465000Y-19714250D01*
X24623750Y-19873000D01*
X25873000Y-19873000D01*
X25873000Y-18623750D01*
X26127000Y-18623750D01*
X26127000Y-19873000D01*
X26147000Y-19873000D01*
X26147000Y-20127000D01*
X26127000Y-20127000D01*
X26127000Y-21376250D01*
X26285750Y-21535000D01*
X26900000Y-21538072D01*
X27024482Y-21525812D01*
X27144180Y-21489502D01*
X27254494Y-21430537D01*
X27351185Y-21351185D01*
X27430537Y-21254494D01*
X27489502Y-21144180D01*
X27495056Y-21125873D01*
X27561495Y-21192312D01*
X27812905Y-21360299D01*
X28092257Y-21476011D01*
X28388816Y-21535000D01*
X28691184Y-21535000D01*
X28987743Y-21476011D01*
X29267095Y-21360299D01*
X29518505Y-21192312D01*
X29732312Y-20978505D01*
X29900299Y-20727095D01*
X30016011Y-20447743D01*
X30075000Y-20151184D01*
X30075000Y-19848816D01*
X30016011Y-19552257D01*
X29900299Y-19272905D01*
X29732312Y-19021495D01*
X29518505Y-18807688D01*
X29267095Y-18639701D01*
X28987743Y-18523989D01*
X28691184Y-18465000D01*
X28388816Y-18465000D01*
X28092257Y-18523989D01*
X27812905Y-18639701D01*
X27561495Y-18807688D01*
X27495056Y-18874127D01*
X27489502Y-18855820D01*
X27430537Y-18745506D01*
X27351185Y-18648815D01*
X27254494Y-18569463D01*
X27144180Y-18510498D01*
X27024482Y-18474188D01*
X26900000Y-18461928D01*
X26285750Y-18465000D01*
X26127000Y-18623750D01*
X25873000Y-18623750D01*
X25714250Y-18465000D01*
X25100000Y-18461928D01*
X24975518Y-18474188D01*
X24855820Y-18510498D01*
X24745506Y-18569463D01*
X24648815Y-18648815D01*
X24569463Y-18745506D01*
X24510498Y-18855820D01*
X24474188Y-18975518D01*
X24461928Y-19100000D01*
X23385000Y-19100000D01*
X23385000Y-11366578D01*
X24866579Y-9885000D01*
X42956531Y-9885000D01*
X43000000Y-9889281D01*
X43043469Y-9885000D01*
X43043477Y-9885000D01*
X43173490Y-9872195D01*
X43340313Y-9821589D01*
X43494059Y-9739411D01*
X43628817Y-9628817D01*
X43656534Y-9595044D01*
X45830050Y-7421529D01*
X45863818Y-7393816D01*
X45974412Y-7259058D01*
X46056590Y-7105312D01*
X46107196Y-6938489D01*
X46110533Y-6904608D01*
X46166842Y-6927932D01*
X46453740Y-6985000D01*
X46746260Y-6985000D01*
X47033158Y-6927932D01*
X47303411Y-6815990D01*
X47546632Y-6653475D01*
X47753475Y-6446632D01*
X47870000Y-6272240D01*
X47986525Y-6446632D01*
X48193368Y-6653475D01*
X48436589Y-6815990D01*
X48706842Y-6927932D01*
X48993740Y-6985000D01*
X49286260Y-6985000D01*
X49573158Y-6927932D01*
X49619999Y-6908530D01*
X49620000Y-12328730D01*
X49593368Y-12346525D01*
X49386525Y-12553368D01*
X49270000Y-12727760D01*
X49153475Y-12553368D01*
X48946632Y-12346525D01*
X48703411Y-12184010D01*
X48433158Y-12072068D01*
X48146260Y-12015000D01*
X47853740Y-12015000D01*
X47566842Y-12072068D01*
X47296589Y-12184010D01*
X47053368Y-12346525D01*
X46846525Y-12553368D01*
X46724805Y-12735534D01*
X46655178Y-12618645D01*
X46460269Y-12402412D01*
X46226920Y-12228359D01*
X45964099Y-12103175D01*
X45816890Y-12058524D01*
X45587000Y-12179845D01*
X45587000Y-13373000D01*
X45607000Y-13373000D01*
X45607000Y-13627000D01*
X45587000Y-13627000D01*
X45587000Y-13647000D01*
X45333000Y-13647000D01*
X45333000Y-13627000D01*
X45313000Y-13627000D01*
X45313000Y-13373000D01*
X45333000Y-13373000D01*
X45333000Y-12179845D01*
X45103110Y-12058524D01*
X44955901Y-12103175D01*
X44693080Y-12228359D01*
X44459731Y-12402412D01*
X44383966Y-12486466D01*
X44359502Y-12405820D01*
X44300537Y-12295506D01*
X44221185Y-12198815D01*
X44124494Y-12119463D01*
X44014180Y-12060498D01*
X43894482Y-12024188D01*
X43770000Y-12011928D01*
X42070000Y-12011928D01*
X41945518Y-12024188D01*
X41825820Y-12060498D01*
X41715506Y-12119463D01*
X41618815Y-12198815D01*
X41539463Y-12295506D01*
X41480498Y-12405820D01*
X41444188Y-12525518D01*
X41431928Y-12650000D01*
X41431928Y-14350000D01*
X41444188Y-14474482D01*
X41480498Y-14594180D01*
X41491627Y-14615000D01*
X30038454Y-14615000D01*
X29990256Y-14582795D01*
X29801898Y-14504774D01*
X29601939Y-14465000D01*
X29398061Y-14465000D01*
X29198102Y-14504774D01*
X29009744Y-14582795D01*
X28840226Y-14696063D01*
X28696063Y-14840226D01*
X28582795Y-15009744D01*
X28504774Y-15198102D01*
X28465000Y-15398061D01*
X28465000Y-15601939D01*
X28504774Y-15801898D01*
X28582795Y-15990256D01*
X28696063Y-16159774D01*
X28840226Y-16303937D01*
X29009744Y-16417205D01*
X29198102Y-16495226D01*
X29398061Y-16535000D01*
X29601939Y-16535000D01*
X29801898Y-16495226D01*
X29990256Y-16417205D01*
X30038454Y-16385000D01*
X45956531Y-16385000D01*
X46000000Y-16389281D01*
X46043469Y-16385000D01*
X46043477Y-16385000D01*
X46173490Y-16372195D01*
X46340313Y-16321589D01*
X46494059Y-16239411D01*
X46628817Y-16128817D01*
X46656534Y-16095044D01*
X47781040Y-14970539D01*
X47853740Y-14985000D01*
X48146260Y-14985000D01*
X48433158Y-14927932D01*
X48703411Y-14815990D01*
X48946632Y-14653475D01*
X49153475Y-14446632D01*
X49270000Y-14272240D01*
X49386525Y-14446632D01*
X49593368Y-14653475D01*
X49836589Y-14815990D01*
X50106842Y-14927932D01*
X50393740Y-14985000D01*
X50686260Y-14985000D01*
X50973158Y-14927932D01*
X51243411Y-14815990D01*
X51486632Y-14653475D01*
X51693475Y-14446632D01*
X51855990Y-14203411D01*
X51967932Y-13933158D01*
X52025000Y-13646260D01*
X52025000Y-13353740D01*
X51967932Y-13066842D01*
X51855990Y-12796589D01*
X51693475Y-12553368D01*
X51486632Y-12346525D01*
X51389999Y-12281957D01*
X51389999Y-6906176D01*
X51553000Y-6820155D01*
X51553000Y-5627000D01*
X51807000Y-5627000D01*
X51807000Y-6820155D01*
X52036890Y-6941476D01*
X52184099Y-6896825D01*
X52446920Y-6771641D01*
X52680269Y-6597588D01*
X52875178Y-6381355D01*
X52950000Y-6255745D01*
X53024822Y-6381355D01*
X53219731Y-6597588D01*
X53453080Y-6771641D01*
X53715901Y-6896825D01*
X53863110Y-6941476D01*
X54093000Y-6820155D01*
X54093000Y-5627000D01*
X51807000Y-5627000D01*
X51553000Y-5627000D01*
X51533000Y-5627000D01*
X51533000Y-5373000D01*
X51553000Y-5373000D01*
X51553000Y-5353000D01*
X51807000Y-5353000D01*
X51807000Y-5373000D01*
X54093000Y-5373000D01*
X54093000Y-5353000D01*
X54347000Y-5353000D01*
X54347000Y-5373000D01*
X54367000Y-5373000D01*
X54367000Y-5627000D01*
X54347000Y-5627000D01*
X54347000Y-6820155D01*
X54576890Y-6941476D01*
X54724099Y-6896825D01*
X54986920Y-6771641D01*
X55220269Y-6597588D01*
X55415178Y-6381355D01*
X55484805Y-6264466D01*
X55606525Y-6446632D01*
X55813368Y-6653475D01*
X56056589Y-6815990D01*
X56326842Y-6927932D01*
X56613740Y-6985000D01*
X56906260Y-6985000D01*
X57193158Y-6927932D01*
X57463411Y-6815990D01*
X57706632Y-6653475D01*
X57913475Y-6446632D01*
X58075990Y-6203411D01*
X58187932Y-5933158D01*
X58245000Y-5646260D01*
X58245000Y-5353740D01*
X58187932Y-5066842D01*
X58075990Y-4796589D01*
X57913475Y-4553368D01*
X57706632Y-4346525D01*
X57532240Y-4230000D01*
X57706632Y-4113475D01*
X57913475Y-3906632D01*
X58075990Y-3663411D01*
X58187932Y-3393158D01*
X58245000Y-3106260D01*
X58245000Y-2813740D01*
X58207855Y-2627000D01*
X59713059Y-2627000D01*
X59591282Y-2920997D01*
X59515000Y-3304495D01*
X59515000Y-3695505D01*
X59591282Y-4079003D01*
X59740915Y-4440250D01*
X59958149Y-4765364D01*
X60234636Y-5041851D01*
X60559750Y-5259085D01*
X60920997Y-5408718D01*
X61304495Y-5485000D01*
X61373000Y-5485000D01*
X61373000Y-50515000D01*
X61304495Y-50515000D01*
X60920997Y-50591282D01*
X60559750Y-50740915D01*
X60234636Y-50958149D01*
X59958149Y-51234636D01*
X59740915Y-51559750D01*
X59591282Y-51920997D01*
X59515000Y-52304495D01*
X59515000Y-52695505D01*
X59550306Y-52873000D01*
X5449694Y-52873000D01*
X5485000Y-52695505D01*
X5485000Y-52304495D01*
X5408718Y-51920997D01*
X5259085Y-51559750D01*
X5041851Y-51234636D01*
X4765364Y-50958149D01*
X4440250Y-50740915D01*
X4079003Y-50591282D01*
X3695505Y-50515000D01*
X3627000Y-50515000D01*
X3627000Y-48135413D01*
X24444192Y-48135413D01*
X24539956Y-48399814D01*
X24829571Y-48540704D01*
X25141108Y-48622384D01*
X25462595Y-48641718D01*
X25781675Y-48597961D01*
X26086088Y-48492795D01*
X26260044Y-48399814D01*
X26355808Y-48135413D01*
X25400000Y-47179605D01*
X24444192Y-48135413D01*
X3627000Y-48135413D01*
X3627000Y-47062595D01*
X23758282Y-47062595D01*
X23802039Y-47381675D01*
X23907205Y-47686088D01*
X24000186Y-47860044D01*
X24264587Y-47955808D01*
X25220395Y-47000000D01*
X25579605Y-47000000D01*
X26535413Y-47955808D01*
X26799814Y-47860044D01*
X26940704Y-47570429D01*
X27022384Y-47258892D01*
X27041718Y-46937405D01*
X26997961Y-46618325D01*
X26892795Y-46313912D01*
X26799814Y-46139956D01*
X26535413Y-46044192D01*
X25579605Y-47000000D01*
X25220395Y-47000000D01*
X24264587Y-46044192D01*
X24000186Y-46139956D01*
X23859296Y-46429571D01*
X23777616Y-46741108D01*
X23758282Y-47062595D01*
X3627000Y-47062595D01*
X3627000Y-45864587D01*
X24444192Y-45864587D01*
X25400000Y-46820395D01*
X26220395Y-46000000D01*
X31361928Y-46000000D01*
X31361928Y-48000000D01*
X31374188Y-48124482D01*
X31410498Y-48244180D01*
X31469463Y-48354494D01*
X31548815Y-48451185D01*
X31645506Y-48530537D01*
X31755820Y-48589502D01*
X31875518Y-48625812D01*
X32000000Y-48638072D01*
X34000000Y-48638072D01*
X34124482Y-48625812D01*
X34244180Y-48589502D01*
X34354494Y-48530537D01*
X34451185Y-48451185D01*
X34530537Y-48354494D01*
X34589502Y-48244180D01*
X34625812Y-48124482D01*
X34638072Y-48000000D01*
X34638072Y-47338967D01*
X37865000Y-47338967D01*
X37865000Y-47661033D01*
X37927832Y-47976912D01*
X38051082Y-48274463D01*
X38230013Y-48542252D01*
X38457748Y-48769987D01*
X38725537Y-48948918D01*
X39023088Y-49072168D01*
X39338967Y-49135000D01*
X39661033Y-49135000D01*
X39976912Y-49072168D01*
X40274463Y-48948918D01*
X40542252Y-48769987D01*
X40769987Y-48542252D01*
X40948918Y-48274463D01*
X41072168Y-47976912D01*
X41135000Y-47661033D01*
X41135000Y-47338967D01*
X44365000Y-47338967D01*
X44365000Y-47661033D01*
X44427832Y-47976912D01*
X44551082Y-48274463D01*
X44730013Y-48542252D01*
X44957748Y-48769987D01*
X45225537Y-48948918D01*
X45523088Y-49072168D01*
X45838967Y-49135000D01*
X46161033Y-49135000D01*
X46476912Y-49072168D01*
X46774463Y-48948918D01*
X47042252Y-48769987D01*
X47269987Y-48542252D01*
X47448918Y-48274463D01*
X47572168Y-47976912D01*
X47635000Y-47661033D01*
X47635000Y-47338967D01*
X50365000Y-47338967D01*
X50365000Y-47661033D01*
X50427832Y-47976912D01*
X50551082Y-48274463D01*
X50730013Y-48542252D01*
X50957748Y-48769987D01*
X51225537Y-48948918D01*
X51523088Y-49072168D01*
X51838967Y-49135000D01*
X52161033Y-49135000D01*
X52476912Y-49072168D01*
X52774463Y-48948918D01*
X53042252Y-48769987D01*
X53269987Y-48542252D01*
X53448918Y-48274463D01*
X53572168Y-47976912D01*
X53635000Y-47661033D01*
X53635000Y-47338967D01*
X56865000Y-47338967D01*
X56865000Y-47661033D01*
X56927832Y-47976912D01*
X57051082Y-48274463D01*
X57230013Y-48542252D01*
X57457748Y-48769987D01*
X57725537Y-48948918D01*
X58023088Y-49072168D01*
X58338967Y-49135000D01*
X58661033Y-49135000D01*
X58976912Y-49072168D01*
X59274463Y-48948918D01*
X59542252Y-48769987D01*
X59769987Y-48542252D01*
X59948918Y-48274463D01*
X60072168Y-47976912D01*
X60135000Y-47661033D01*
X60135000Y-47338967D01*
X60072168Y-47023088D01*
X59948918Y-46725537D01*
X59769987Y-46457748D01*
X59542252Y-46230013D01*
X59274463Y-46051082D01*
X58976912Y-45927832D01*
X58661033Y-45865000D01*
X58338967Y-45865000D01*
X58023088Y-45927832D01*
X57725537Y-46051082D01*
X57457748Y-46230013D01*
X57230013Y-46457748D01*
X57051082Y-46725537D01*
X56927832Y-47023088D01*
X56865000Y-47338967D01*
X53635000Y-47338967D01*
X53572168Y-47023088D01*
X53448918Y-46725537D01*
X53269987Y-46457748D01*
X53042252Y-46230013D01*
X52774463Y-46051082D01*
X52476912Y-45927832D01*
X52161033Y-45865000D01*
X51838967Y-45865000D01*
X51523088Y-45927832D01*
X51225537Y-46051082D01*
X50957748Y-46230013D01*
X50730013Y-46457748D01*
X50551082Y-46725537D01*
X50427832Y-47023088D01*
X50365000Y-47338967D01*
X47635000Y-47338967D01*
X47572168Y-47023088D01*
X47448918Y-46725537D01*
X47269987Y-46457748D01*
X47042252Y-46230013D01*
X46774463Y-46051082D01*
X46476912Y-45927832D01*
X46161033Y-45865000D01*
X45838967Y-45865000D01*
X45523088Y-45927832D01*
X45225537Y-46051082D01*
X44957748Y-46230013D01*
X44730013Y-46457748D01*
X44551082Y-46725537D01*
X44427832Y-47023088D01*
X44365000Y-47338967D01*
X41135000Y-47338967D01*
X41072168Y-47023088D01*
X40948918Y-46725537D01*
X40769987Y-46457748D01*
X40542252Y-46230013D01*
X40274463Y-46051082D01*
X39976912Y-45927832D01*
X39661033Y-45865000D01*
X39338967Y-45865000D01*
X39023088Y-45927832D01*
X38725537Y-46051082D01*
X38457748Y-46230013D01*
X38230013Y-46457748D01*
X38051082Y-46725537D01*
X37927832Y-47023088D01*
X37865000Y-47338967D01*
X34638072Y-47338967D01*
X34638072Y-46000000D01*
X34625812Y-45875518D01*
X34589502Y-45755820D01*
X34530537Y-45645506D01*
X34451185Y-45548815D01*
X34354494Y-45469463D01*
X34244180Y-45410498D01*
X34124482Y-45374188D01*
X34000000Y-45361928D01*
X32000000Y-45361928D01*
X31875518Y-45374188D01*
X31755820Y-45410498D01*
X31645506Y-45469463D01*
X31548815Y-45548815D01*
X31469463Y-45645506D01*
X31410498Y-45755820D01*
X31374188Y-45875518D01*
X31361928Y-46000000D01*
X26220395Y-46000000D01*
X26355808Y-45864587D01*
X26260044Y-45600186D01*
X25970429Y-45459296D01*
X25658892Y-45377616D01*
X25337405Y-45358282D01*
X25018325Y-45402039D01*
X24713912Y-45507205D01*
X24539956Y-45600186D01*
X24444192Y-45864587D01*
X3627000Y-45864587D01*
X3627000Y-44135413D01*
X38544192Y-44135413D01*
X38639956Y-44399814D01*
X38929571Y-44540704D01*
X39241108Y-44622384D01*
X39562595Y-44641718D01*
X39881675Y-44597961D01*
X40186088Y-44492795D01*
X40360044Y-44399814D01*
X40455808Y-44135413D01*
X45044192Y-44135413D01*
X45139956Y-44399814D01*
X45429571Y-44540704D01*
X45741108Y-44622384D01*
X46062595Y-44641718D01*
X46381675Y-44597961D01*
X46686088Y-44492795D01*
X46860044Y-44399814D01*
X46955808Y-44135413D01*
X51044192Y-44135413D01*
X51139956Y-44399814D01*
X51429571Y-44540704D01*
X51741108Y-44622384D01*
X52062595Y-44641718D01*
X52381675Y-44597961D01*
X52686088Y-44492795D01*
X52860044Y-44399814D01*
X52955808Y-44135413D01*
X57544192Y-44135413D01*
X57639956Y-44399814D01*
X57929571Y-44540704D01*
X58241108Y-44622384D01*
X58562595Y-44641718D01*
X58881675Y-44597961D01*
X59186088Y-44492795D01*
X59360044Y-44399814D01*
X59455808Y-44135413D01*
X58500000Y-43179605D01*
X57544192Y-44135413D01*
X52955808Y-44135413D01*
X52000000Y-43179605D01*
X51044192Y-44135413D01*
X46955808Y-44135413D01*
X46000000Y-43179605D01*
X45044192Y-44135413D01*
X40455808Y-44135413D01*
X39500000Y-43179605D01*
X38544192Y-44135413D01*
X3627000Y-44135413D01*
X3627000Y-43062595D01*
X37858282Y-43062595D01*
X37902039Y-43381675D01*
X38007205Y-43686088D01*
X38100186Y-43860044D01*
X38364587Y-43955808D01*
X39320395Y-43000000D01*
X39679605Y-43000000D01*
X40635413Y-43955808D01*
X40899814Y-43860044D01*
X41040704Y-43570429D01*
X41122384Y-43258892D01*
X41134189Y-43062595D01*
X44358282Y-43062595D01*
X44402039Y-43381675D01*
X44507205Y-43686088D01*
X44600186Y-43860044D01*
X44864587Y-43955808D01*
X45820395Y-43000000D01*
X46179605Y-43000000D01*
X47135413Y-43955808D01*
X47399814Y-43860044D01*
X47540704Y-43570429D01*
X47622384Y-43258892D01*
X47634189Y-43062595D01*
X50358282Y-43062595D01*
X50402039Y-43381675D01*
X50507205Y-43686088D01*
X50600186Y-43860044D01*
X50864587Y-43955808D01*
X51820395Y-43000000D01*
X52179605Y-43000000D01*
X53135413Y-43955808D01*
X53399814Y-43860044D01*
X53540704Y-43570429D01*
X53622384Y-43258892D01*
X53634189Y-43062595D01*
X56858282Y-43062595D01*
X56902039Y-43381675D01*
X57007205Y-43686088D01*
X57100186Y-43860044D01*
X57364587Y-43955808D01*
X58320395Y-43000000D01*
X58679605Y-43000000D01*
X59635413Y-43955808D01*
X59899814Y-43860044D01*
X60040704Y-43570429D01*
X60122384Y-43258892D01*
X60141718Y-42937405D01*
X60097961Y-42618325D01*
X59992795Y-42313912D01*
X59899814Y-42139956D01*
X59635413Y-42044192D01*
X58679605Y-43000000D01*
X58320395Y-43000000D01*
X57364587Y-42044192D01*
X57100186Y-42139956D01*
X56959296Y-42429571D01*
X56877616Y-42741108D01*
X56858282Y-43062595D01*
X53634189Y-43062595D01*
X53641718Y-42937405D01*
X53597961Y-42618325D01*
X53492795Y-42313912D01*
X53399814Y-42139956D01*
X53135413Y-42044192D01*
X52179605Y-43000000D01*
X51820395Y-43000000D01*
X50864587Y-42044192D01*
X50600186Y-42139956D01*
X50459296Y-42429571D01*
X50377616Y-42741108D01*
X50358282Y-43062595D01*
X47634189Y-43062595D01*
X47641718Y-42937405D01*
X47597961Y-42618325D01*
X47492795Y-42313912D01*
X47399814Y-42139956D01*
X47135413Y-42044192D01*
X46179605Y-43000000D01*
X45820395Y-43000000D01*
X44864587Y-42044192D01*
X44600186Y-42139956D01*
X44459296Y-42429571D01*
X44377616Y-42741108D01*
X44358282Y-43062595D01*
X41134189Y-43062595D01*
X41141718Y-42937405D01*
X41097961Y-42618325D01*
X40992795Y-42313912D01*
X40899814Y-42139956D01*
X40635413Y-42044192D01*
X39679605Y-43000000D01*
X39320395Y-43000000D01*
X38364587Y-42044192D01*
X38100186Y-42139956D01*
X37959296Y-42429571D01*
X37877616Y-42741108D01*
X37858282Y-43062595D01*
X3627000Y-43062595D01*
X3627000Y-41864587D01*
X38544192Y-41864587D01*
X39500000Y-42820395D01*
X40455808Y-41864587D01*
X45044192Y-41864587D01*
X46000000Y-42820395D01*
X46955808Y-41864587D01*
X51044192Y-41864587D01*
X52000000Y-42820395D01*
X52955808Y-41864587D01*
X57544192Y-41864587D01*
X58500000Y-42820395D01*
X59455808Y-41864587D01*
X59360044Y-41600186D01*
X59070429Y-41459296D01*
X58758892Y-41377616D01*
X58437405Y-41358282D01*
X58118325Y-41402039D01*
X57813912Y-41507205D01*
X57639956Y-41600186D01*
X57544192Y-41864587D01*
X52955808Y-41864587D01*
X52860044Y-41600186D01*
X52570429Y-41459296D01*
X52258892Y-41377616D01*
X51937405Y-41358282D01*
X51618325Y-41402039D01*
X51313912Y-41507205D01*
X51139956Y-41600186D01*
X51044192Y-41864587D01*
X46955808Y-41864587D01*
X46860044Y-41600186D01*
X46570429Y-41459296D01*
X46258892Y-41377616D01*
X45937405Y-41358282D01*
X45618325Y-41402039D01*
X45313912Y-41507205D01*
X45139956Y-41600186D01*
X45044192Y-41864587D01*
X40455808Y-41864587D01*
X40360044Y-41600186D01*
X40070429Y-41459296D01*
X39758892Y-41377616D01*
X39437405Y-41358282D01*
X39118325Y-41402039D01*
X38813912Y-41507205D01*
X38639956Y-41600186D01*
X38544192Y-41864587D01*
X3627000Y-41864587D01*
X3627000Y-35150000D01*
X16511928Y-35150000D01*
X16511928Y-36850000D01*
X16524188Y-36974482D01*
X16560498Y-37094180D01*
X16619463Y-37204494D01*
X16698815Y-37301185D01*
X16795506Y-37380537D01*
X16905820Y-37439502D01*
X17025518Y-37475812D01*
X17150000Y-37488072D01*
X18850000Y-37488072D01*
X18974482Y-37475812D01*
X19094180Y-37439502D01*
X19204494Y-37380537D01*
X19301185Y-37301185D01*
X19380537Y-37204494D01*
X19439502Y-37094180D01*
X19475812Y-36974482D01*
X19483338Y-36898061D01*
X25965000Y-36898061D01*
X25965000Y-37101939D01*
X26004774Y-37301898D01*
X26082795Y-37490256D01*
X26196063Y-37659774D01*
X26340226Y-37803937D01*
X26509744Y-37917205D01*
X26698102Y-37995226D01*
X26898061Y-38035000D01*
X27101939Y-38035000D01*
X27301898Y-37995226D01*
X27490256Y-37917205D01*
X27659774Y-37803937D01*
X27803937Y-37659774D01*
X27917205Y-37490256D01*
X27995226Y-37301898D01*
X28006535Y-37245043D01*
X43245044Y-22006535D01*
X43301898Y-21995226D01*
X43490256Y-21917205D01*
X43659774Y-21803937D01*
X43803937Y-21659774D01*
X43917205Y-21490256D01*
X43995226Y-21301898D01*
X44035000Y-21101939D01*
X44035000Y-20898061D01*
X43995226Y-20698102D01*
X43917205Y-20509744D01*
X43803937Y-20340226D01*
X43659774Y-20196063D01*
X43490256Y-20082795D01*
X43301898Y-20004774D01*
X43101939Y-19965000D01*
X42898061Y-19965000D01*
X42698102Y-20004774D01*
X42509744Y-20082795D01*
X42340226Y-20196063D01*
X42196063Y-20340226D01*
X42082795Y-20509744D01*
X42004774Y-20698102D01*
X41993465Y-20754956D01*
X26754957Y-35993465D01*
X26698102Y-36004774D01*
X26509744Y-36082795D01*
X26340226Y-36196063D01*
X26196063Y-36340226D01*
X26082795Y-36509744D01*
X26004774Y-36698102D01*
X25965000Y-36898061D01*
X19483338Y-36898061D01*
X19488072Y-36850000D01*
X19488072Y-35150000D01*
X19475812Y-35025518D01*
X19439502Y-34905820D01*
X19380537Y-34795506D01*
X19301185Y-34698815D01*
X19204494Y-34619463D01*
X19094180Y-34560498D01*
X19021620Y-34538487D01*
X19153475Y-34406632D01*
X19315990Y-34163411D01*
X19427932Y-33893158D01*
X19485000Y-33606260D01*
X19485000Y-33313740D01*
X19427932Y-33026842D01*
X19315990Y-32756589D01*
X19153475Y-32513368D01*
X18946632Y-32306525D01*
X18764466Y-32184805D01*
X18881355Y-32115178D01*
X19097588Y-31920269D01*
X19271641Y-31686920D01*
X19396825Y-31424099D01*
X19441476Y-31276890D01*
X19320155Y-31047000D01*
X18127000Y-31047000D01*
X18127000Y-31067000D01*
X17873000Y-31067000D01*
X17873000Y-31047000D01*
X16679845Y-31047000D01*
X16558524Y-31276890D01*
X16603175Y-31424099D01*
X16728359Y-31686920D01*
X16902412Y-31920269D01*
X17118645Y-32115178D01*
X17235534Y-32184805D01*
X17053368Y-32306525D01*
X16846525Y-32513368D01*
X16684010Y-32756589D01*
X16572068Y-33026842D01*
X16515000Y-33313740D01*
X16515000Y-33606260D01*
X16572068Y-33893158D01*
X16684010Y-34163411D01*
X16846525Y-34406632D01*
X16978380Y-34538487D01*
X16905820Y-34560498D01*
X16795506Y-34619463D01*
X16698815Y-34698815D01*
X16619463Y-34795506D01*
X16560498Y-34905820D01*
X16524188Y-35025518D01*
X16511928Y-35150000D01*
X3627000Y-35150000D01*
X3627000Y-5485000D01*
X3695505Y-5485000D01*
X4079003Y-5408718D01*
X4440250Y-5259085D01*
X4765364Y-5041851D01*
X5041851Y-4765364D01*
X5259085Y-4440250D01*
X5408718Y-4079003D01*
X5485000Y-3695505D01*
X5485000Y-3304495D01*
X5408718Y-2920997D01*
X5286941Y-2627000D01*
X7052145Y-2627000D01*
X7015000Y-2813740D01*
G37*
%TD.AperFunction*%
D18*
X23867000Y-5373000D02*
X23887000Y-5373000D01*
X23887000Y-5627000D01*
X23867000Y-5627000D01*
X23867000Y-6820155D01*
X24096890Y-6941476D01*
X24244099Y-6896825D01*
X24506920Y-6771641D01*
X24740269Y-6597588D01*
X24935178Y-6381355D01*
X25004805Y-6264466D01*
X25126525Y-6446632D01*
X25333368Y-6653475D01*
X25576589Y-6815990D01*
X25846842Y-6927932D01*
X26133740Y-6985000D01*
X26426260Y-6985000D01*
X26713158Y-6927932D01*
X26983411Y-6815990D01*
X27226632Y-6653475D01*
X27433475Y-6446632D01*
X27550000Y-6272240D01*
X27666525Y-6446632D01*
X27873368Y-6653475D01*
X28116589Y-6815990D01*
X28386842Y-6927932D01*
X28673740Y-6985000D01*
X28966260Y-6985000D01*
X29253158Y-6927932D01*
X29523411Y-6815990D01*
X29766632Y-6653475D01*
X29973475Y-6446632D01*
X30090000Y-6272240D01*
X30206525Y-6446632D01*
X30413368Y-6653475D01*
X30656589Y-6815990D01*
X30926842Y-6927932D01*
X31213740Y-6985000D01*
X31506260Y-6985000D01*
X31793158Y-6927932D01*
X32063411Y-6815990D01*
X32306632Y-6653475D01*
X32513475Y-6446632D01*
X32630000Y-6272240D01*
X32746525Y-6446632D01*
X32953368Y-6653475D01*
X33196589Y-6815990D01*
X33466842Y-6927932D01*
X33753740Y-6985000D01*
X34046260Y-6985000D01*
X34333158Y-6927932D01*
X34603411Y-6815990D01*
X34846632Y-6653475D01*
X35053475Y-6446632D01*
X35175195Y-6264466D01*
X35244822Y-6381355D01*
X35439731Y-6597588D01*
X35673080Y-6771641D01*
X35935901Y-6896825D01*
X36083110Y-6941476D01*
X36313000Y-6820155D01*
X36313000Y-5627000D01*
X36293000Y-5627000D01*
X36293000Y-5373000D01*
X36313000Y-5373000D01*
X36313000Y-5353000D01*
X36567000Y-5353000D01*
X36567000Y-5373000D01*
X36587000Y-5373000D01*
X36587000Y-5627000D01*
X36567000Y-5627000D01*
X36567000Y-6820155D01*
X36796890Y-6941476D01*
X36944099Y-6896825D01*
X37206920Y-6771641D01*
X37440269Y-6597588D01*
X37635178Y-6381355D01*
X37704805Y-6264466D01*
X37826525Y-6446632D01*
X38033368Y-6653475D01*
X38276589Y-6815990D01*
X38546842Y-6927932D01*
X38833740Y-6985000D01*
X39126260Y-6985000D01*
X39413158Y-6927932D01*
X39683411Y-6815990D01*
X39926632Y-6653475D01*
X40133475Y-6446632D01*
X40255195Y-6264466D01*
X40324822Y-6381355D01*
X40519731Y-6597588D01*
X40753080Y-6771641D01*
X41015901Y-6896825D01*
X41163110Y-6941476D01*
X41393000Y-6820155D01*
X41393000Y-5627000D01*
X41373000Y-5627000D01*
X41373000Y-5373000D01*
X41393000Y-5373000D01*
X41393000Y-5353000D01*
X41647000Y-5353000D01*
X41647000Y-5373000D01*
X41667000Y-5373000D01*
X41667000Y-5627000D01*
X41647000Y-5627000D01*
X41647000Y-6820155D01*
X41876890Y-6941476D01*
X42024099Y-6896825D01*
X42286920Y-6771641D01*
X42520269Y-6597588D01*
X42715178Y-6381355D01*
X42784805Y-6264466D01*
X42906525Y-6446632D01*
X43113368Y-6653475D01*
X43356589Y-6815990D01*
X43626842Y-6927932D01*
X43788361Y-6960060D01*
X42633422Y-8115000D01*
X24543465Y-8115000D01*
X24499999Y-8110719D01*
X24456533Y-8115000D01*
X24456523Y-8115000D01*
X24326510Y-8127805D01*
X24159687Y-8178411D01*
X24005941Y-8260589D01*
X24005939Y-8260590D01*
X24005940Y-8260590D01*
X23904953Y-8343468D01*
X23904951Y-8343470D01*
X23871183Y-8371183D01*
X23843470Y-8404951D01*
X21904956Y-10343466D01*
X21871183Y-10371183D01*
X21760589Y-10505942D01*
X21678411Y-10659688D01*
X21627805Y-10826511D01*
X21615000Y-10956524D01*
X21615000Y-10956531D01*
X21610719Y-11000000D01*
X21615000Y-11043469D01*
X21615001Y-19633420D01*
X21373422Y-19875000D01*
X19194656Y-19875000D01*
X19153475Y-19813368D01*
X18946632Y-19606525D01*
X18703411Y-19444010D01*
X18433158Y-19332068D01*
X18146260Y-19275000D01*
X17853740Y-19275000D01*
X17566842Y-19332068D01*
X17296589Y-19444010D01*
X17053368Y-19606525D01*
X16846525Y-19813368D01*
X16684010Y-20056589D01*
X16572068Y-20326842D01*
X16515000Y-20613740D01*
X16515000Y-20906260D01*
X16572068Y-21193158D01*
X16684010Y-21463411D01*
X16846525Y-21706632D01*
X17053368Y-21913475D01*
X17227760Y-22030000D01*
X17053368Y-22146525D01*
X16846525Y-22353368D01*
X16805344Y-22415000D01*
X16666579Y-22415000D01*
X15385000Y-21133422D01*
X15385000Y-19866578D01*
X20430050Y-14821529D01*
X20463818Y-14793816D01*
X20537124Y-14704494D01*
X20574412Y-14659058D01*
X20607268Y-14597588D01*
X20656590Y-14505312D01*
X20707196Y-14338489D01*
X20720001Y-14208476D01*
X20720001Y-14208468D01*
X20724282Y-14164999D01*
X20720001Y-14121530D01*
X20720001Y-6908530D01*
X20766842Y-6927932D01*
X21053740Y-6985000D01*
X21346260Y-6985000D01*
X21633158Y-6927932D01*
X21903411Y-6815990D01*
X22146632Y-6653475D01*
X22353475Y-6446632D01*
X22475195Y-6264466D01*
X22544822Y-6381355D01*
X22739731Y-6597588D01*
X22973080Y-6771641D01*
X23235901Y-6896825D01*
X23383110Y-6941476D01*
X23613000Y-6820155D01*
X23613000Y-5627000D01*
X23593000Y-5627000D01*
X23593000Y-5373000D01*
X23613000Y-5373000D01*
X23613000Y-5353000D01*
X23867000Y-5353000D01*
X23867000Y-5373000D01*
%TA.AperFunction,Conductor*%
D19*
G36*
X23867000Y-5373000D02*
G01*
X23887000Y-5373000D01*
X23887000Y-5627000D01*
X23867000Y-5627000D01*
X23867000Y-6820155D01*
X24096890Y-6941476D01*
X24244099Y-6896825D01*
X24506920Y-6771641D01*
X24740269Y-6597588D01*
X24935178Y-6381355D01*
X25004805Y-6264466D01*
X25126525Y-6446632D01*
X25333368Y-6653475D01*
X25576589Y-6815990D01*
X25846842Y-6927932D01*
X26133740Y-6985000D01*
X26426260Y-6985000D01*
X26713158Y-6927932D01*
X26983411Y-6815990D01*
X27226632Y-6653475D01*
X27433475Y-6446632D01*
X27550000Y-6272240D01*
X27666525Y-6446632D01*
X27873368Y-6653475D01*
X28116589Y-6815990D01*
X28386842Y-6927932D01*
X28673740Y-6985000D01*
X28966260Y-6985000D01*
X29253158Y-6927932D01*
X29523411Y-6815990D01*
X29766632Y-6653475D01*
X29973475Y-6446632D01*
X30090000Y-6272240D01*
X30206525Y-6446632D01*
X30413368Y-6653475D01*
X30656589Y-6815990D01*
X30926842Y-6927932D01*
X31213740Y-6985000D01*
X31506260Y-6985000D01*
X31793158Y-6927932D01*
X32063411Y-6815990D01*
X32306632Y-6653475D01*
X32513475Y-6446632D01*
X32630000Y-6272240D01*
X32746525Y-6446632D01*
X32953368Y-6653475D01*
X33196589Y-6815990D01*
X33466842Y-6927932D01*
X33753740Y-6985000D01*
X34046260Y-6985000D01*
X34333158Y-6927932D01*
X34603411Y-6815990D01*
X34846632Y-6653475D01*
X35053475Y-6446632D01*
X35175195Y-6264466D01*
X35244822Y-6381355D01*
X35439731Y-6597588D01*
X35673080Y-6771641D01*
X35935901Y-6896825D01*
X36083110Y-6941476D01*
X36313000Y-6820155D01*
X36313000Y-5627000D01*
X36293000Y-5627000D01*
X36293000Y-5373000D01*
X36313000Y-5373000D01*
X36313000Y-5353000D01*
X36567000Y-5353000D01*
X36567000Y-5373000D01*
X36587000Y-5373000D01*
X36587000Y-5627000D01*
X36567000Y-5627000D01*
X36567000Y-6820155D01*
X36796890Y-6941476D01*
X36944099Y-6896825D01*
X37206920Y-6771641D01*
X37440269Y-6597588D01*
X37635178Y-6381355D01*
X37704805Y-6264466D01*
X37826525Y-6446632D01*
X38033368Y-6653475D01*
X38276589Y-6815990D01*
X38546842Y-6927932D01*
X38833740Y-6985000D01*
X39126260Y-6985000D01*
X39413158Y-6927932D01*
X39683411Y-6815990D01*
X39926632Y-6653475D01*
X40133475Y-6446632D01*
X40255195Y-6264466D01*
X40324822Y-6381355D01*
X40519731Y-6597588D01*
X40753080Y-6771641D01*
X41015901Y-6896825D01*
X41163110Y-6941476D01*
X41393000Y-6820155D01*
X41393000Y-5627000D01*
X41373000Y-5627000D01*
X41373000Y-5373000D01*
X41393000Y-5373000D01*
X41393000Y-5353000D01*
X41647000Y-5353000D01*
X41647000Y-5373000D01*
X41667000Y-5373000D01*
X41667000Y-5627000D01*
X41647000Y-5627000D01*
X41647000Y-6820155D01*
X41876890Y-6941476D01*
X42024099Y-6896825D01*
X42286920Y-6771641D01*
X42520269Y-6597588D01*
X42715178Y-6381355D01*
X42784805Y-6264466D01*
X42906525Y-6446632D01*
X43113368Y-6653475D01*
X43356589Y-6815990D01*
X43626842Y-6927932D01*
X43788361Y-6960060D01*
X42633422Y-8115000D01*
X24543465Y-8115000D01*
X24499999Y-8110719D01*
X24456533Y-8115000D01*
X24456523Y-8115000D01*
X24326510Y-8127805D01*
X24159687Y-8178411D01*
X24005941Y-8260589D01*
X24005939Y-8260590D01*
X24005940Y-8260590D01*
X23904953Y-8343468D01*
X23904951Y-8343470D01*
X23871183Y-8371183D01*
X23843470Y-8404951D01*
X21904956Y-10343466D01*
X21871183Y-10371183D01*
X21760589Y-10505942D01*
X21678411Y-10659688D01*
X21627805Y-10826511D01*
X21615000Y-10956524D01*
X21615000Y-10956531D01*
X21610719Y-11000000D01*
X21615000Y-11043469D01*
X21615001Y-19633420D01*
X21373422Y-19875000D01*
X19194656Y-19875000D01*
X19153475Y-19813368D01*
X18946632Y-19606525D01*
X18703411Y-19444010D01*
X18433158Y-19332068D01*
X18146260Y-19275000D01*
X17853740Y-19275000D01*
X17566842Y-19332068D01*
X17296589Y-19444010D01*
X17053368Y-19606525D01*
X16846525Y-19813368D01*
X16684010Y-20056589D01*
X16572068Y-20326842D01*
X16515000Y-20613740D01*
X16515000Y-20906260D01*
X16572068Y-21193158D01*
X16684010Y-21463411D01*
X16846525Y-21706632D01*
X17053368Y-21913475D01*
X17227760Y-22030000D01*
X17053368Y-22146525D01*
X16846525Y-22353368D01*
X16805344Y-22415000D01*
X16666579Y-22415000D01*
X15385000Y-21133422D01*
X15385000Y-19866578D01*
X20430050Y-14821529D01*
X20463818Y-14793816D01*
X20537124Y-14704494D01*
X20574412Y-14659058D01*
X20607268Y-14597588D01*
X20656590Y-14505312D01*
X20707196Y-14338489D01*
X20720001Y-14208476D01*
X20720001Y-14208468D01*
X20724282Y-14164999D01*
X20720001Y-14121530D01*
X20720001Y-6908530D01*
X20766842Y-6927932D01*
X21053740Y-6985000D01*
X21346260Y-6985000D01*
X21633158Y-6927932D01*
X21903411Y-6815990D01*
X22146632Y-6653475D01*
X22353475Y-6446632D01*
X22475195Y-6264466D01*
X22544822Y-6381355D01*
X22739731Y-6597588D01*
X22973080Y-6771641D01*
X23235901Y-6896825D01*
X23383110Y-6941476D01*
X23613000Y-6820155D01*
X23613000Y-5627000D01*
X23593000Y-5627000D01*
X23593000Y-5373000D01*
X23613000Y-5373000D01*
X23613000Y-5353000D01*
X23867000Y-5353000D01*
X23867000Y-5373000D01*
G37*
%TD.AperFunction*%
D18*
X44187000Y-2833000D02*
X44207000Y-2833000D01*
X44207000Y-3087000D01*
X44187000Y-3087000D01*
X44187000Y-3107000D01*
X43933000Y-3107000D01*
X43933000Y-3087000D01*
X43913000Y-3087000D01*
X43913000Y-2833000D01*
X43933000Y-2833000D01*
X43933000Y-2813000D01*
X44187000Y-2813000D01*
X44187000Y-2833000D01*
%TA.AperFunction,Conductor*%
D19*
G36*
X44187000Y-2833000D02*
G01*
X44207000Y-2833000D01*
X44207000Y-3087000D01*
X44187000Y-3087000D01*
X44187000Y-3107000D01*
X43933000Y-3107000D01*
X43933000Y-3087000D01*
X43913000Y-3087000D01*
X43913000Y-2833000D01*
X43933000Y-2833000D01*
X43933000Y-2813000D01*
X44187000Y-2813000D01*
X44187000Y-2833000D01*
G37*
%TD.AperFunction*%
D18*
X31487000Y-2833000D02*
X31507000Y-2833000D01*
X31507000Y-3087000D01*
X31487000Y-3087000D01*
X31487000Y-3107000D01*
X31233000Y-3107000D01*
X31233000Y-3087000D01*
X31213000Y-3087000D01*
X31213000Y-2833000D01*
X31233000Y-2833000D01*
X31233000Y-2813000D01*
X31487000Y-2813000D01*
X31487000Y-2833000D01*
%TA.AperFunction,Conductor*%
D19*
G36*
X31487000Y-2833000D02*
G01*
X31507000Y-2833000D01*
X31507000Y-3087000D01*
X31487000Y-3087000D01*
X31487000Y-3107000D01*
X31233000Y-3107000D01*
X31233000Y-3087000D01*
X31213000Y-3087000D01*
X31213000Y-2833000D01*
X31233000Y-2833000D01*
X31233000Y-2813000D01*
X31487000Y-2813000D01*
X31487000Y-2833000D01*
G37*
%TD.AperFunction*%
%TD*%
M02*
