%TF.GenerationSoftware,KiCad,Pcbnew,(5.1.10)-1*%
%TF.CreationDate,2021-11-09T08:39:52+01:00*%
%TF.ProjectId,rfid_reader,72666964-5f72-4656-9164-65722e6b6963,rev?*%
%TF.SameCoordinates,Original*%
%TF.FileFunction,Soldermask,Top*%
%TF.FilePolarity,Negative*%
%FSLAX46Y46*%
G04 Gerber Fmt 4.6, Leading zero omitted, Abs format (unit mm)*
G04 Created by KiCad (PCBNEW (5.1.10)-1) date 2021-11-09 08:39:52*
%MOMM*%
%LPD*%
G01*
G04 APERTURE LIST*
%ADD10C,2.700000*%
%ADD11R,2.000000X2.000000*%
%ADD12C,2.000000*%
%ADD13R,1.800000X1.800000*%
%ADD14C,1.800000*%
%ADD15R,1.700000X1.700000*%
%ADD16O,1.700000X1.700000*%
G04 APERTURE END LIST*
D10*
%TO.C,REF\u002A\u002A*%
X61500000Y-52500000D03*
%TD*%
%TO.C,REF\u002A\u002A*%
X3500000Y-52500000D03*
%TD*%
%TO.C,REF\u002A\u002A*%
X61500000Y-3500000D03*
%TD*%
%TO.C,REF\u002A\u002A*%
X3500000Y-3500000D03*
%TD*%
D11*
%TO.C,BZ1*%
X33000000Y-47000000D03*
D12*
X25400000Y-47000000D03*
%TD*%
D13*
%TO.C,D1*%
X26000000Y-20000000D03*
D14*
X28540000Y-20000000D03*
%TD*%
%TO.C,D2*%
X28540000Y-27000000D03*
D13*
X26000000Y-27000000D03*
%TD*%
D15*
%TO.C,J1*%
X8500000Y-5500000D03*
D16*
X8500000Y-2960000D03*
X11040000Y-5500000D03*
X11040000Y-2960000D03*
X13580000Y-5500000D03*
X13580000Y-2960000D03*
X16120000Y-5500000D03*
X16120000Y-2960000D03*
X18660000Y-5500000D03*
X18660000Y-2960000D03*
X21200000Y-5500000D03*
X21200000Y-2960000D03*
X23740000Y-5500000D03*
X23740000Y-2960000D03*
X26280000Y-5500000D03*
X26280000Y-2960000D03*
X28820000Y-5500000D03*
X28820000Y-2960000D03*
X31360000Y-5500000D03*
X31360000Y-2960000D03*
X33900000Y-5500000D03*
X33900000Y-2960000D03*
X36440000Y-5500000D03*
X36440000Y-2960000D03*
X38980000Y-5500000D03*
X38980000Y-2960000D03*
X41520000Y-5500000D03*
X41520000Y-2960000D03*
X44060000Y-5500000D03*
X44060000Y-2960000D03*
X46600000Y-5500000D03*
X46600000Y-2960000D03*
X49140000Y-5500000D03*
X49140000Y-2960000D03*
X51680000Y-5500000D03*
X51680000Y-2960000D03*
X54220000Y-5500000D03*
X54220000Y-2960000D03*
X56760000Y-5500000D03*
X56760000Y-2960000D03*
%TD*%
D15*
%TO.C,J2*%
X42920000Y-13500000D03*
D16*
X45460000Y-13500000D03*
X48000000Y-13500000D03*
X50540000Y-13500000D03*
%TD*%
%TO.C,J3*%
X18000000Y-20760000D03*
X18000000Y-23300000D03*
X18000000Y-25840000D03*
X18000000Y-28380000D03*
X18000000Y-30920000D03*
X18000000Y-33460000D03*
D15*
X18000000Y-36000000D03*
%TD*%
D12*
%TO.C,SW1*%
X39500000Y-47500000D03*
X39500000Y-43000000D03*
X46000000Y-47500000D03*
X46000000Y-43000000D03*
%TD*%
%TO.C,SW2*%
X58500000Y-43000000D03*
X58500000Y-47500000D03*
X52000000Y-43000000D03*
X52000000Y-47500000D03*
%TD*%
M02*
