%TF.GenerationSoftware,KiCad,Pcbnew,(5.1.10)-1*%
%TF.CreationDate,2021-11-09T08:39:52+01:00*%
%TF.ProjectId,rfid_reader,72666964-5f72-4656-9164-65722e6b6963,rev?*%
%TF.SameCoordinates,Original*%
%TF.FileFunction,Profile,NP*%
%FSLAX46Y46*%
G04 Gerber Fmt 4.6, Leading zero omitted, Abs format (unit mm)*
G04 Created by KiCad (PCBNEW (5.1.10)-1) date 2021-11-09 08:39:52*
%MOMM*%
%LPD*%
G01*
G04 APERTURE LIST*
%TA.AperFunction,Profile*%
%ADD10C,0.050000*%
%TD*%
G04 APERTURE END LIST*
D10*
X0Y-3500000D02*
G75*
G02*
X3500000Y0I3500000J0D01*
G01*
X3500000Y-56000000D02*
G75*
G02*
X0Y-52500000I0J3500000D01*
G01*
X65000000Y-52500000D02*
G75*
G02*
X61500000Y-56000000I-3500000J0D01*
G01*
X61500000Y0D02*
G75*
G02*
X65000000Y-3500000I0J-3500000D01*
G01*
X61500000Y0D02*
X3500000Y0D01*
X65000000Y-52500000D02*
X65000000Y-3500000D01*
X3500000Y-56000000D02*
X61500000Y-56000000D01*
X0Y-3500000D02*
X0Y-52500000D01*
M02*
