(kicad_pcb (version 20171130) (host pcbnew "(5.1.10)-1")

  (general
    (thickness 1.6)
    (drawings 14)
    (tracks 102)
    (zones 0)
    (modules 12)
    (nets 33)
  )

  (page A4)
  (layers
    (0 F.Cu signal)
    (31 B.Cu signal)
    (32 B.Adhes user)
    (33 F.Adhes user)
    (34 B.Paste user)
    (35 F.Paste user)
    (36 B.SilkS user)
    (37 F.SilkS user)
    (38 B.Mask user)
    (39 F.Mask user)
    (40 Dwgs.User user)
    (41 Cmts.User user)
    (42 Eco1.User user)
    (43 Eco2.User user)
    (44 Edge.Cuts user)
    (45 Margin user)
    (46 B.CrtYd user)
    (47 F.CrtYd user)
    (48 B.Fab user)
    (49 F.Fab user)
  )

  (setup
    (last_trace_width 0.25)
    (user_trace_width 0.5)
    (trace_clearance 0.2)
    (zone_clearance 0.508)
    (zone_45_only no)
    (trace_min 0.2)
    (via_size 0.8)
    (via_drill 0.4)
    (via_min_size 0.4)
    (via_min_drill 0.3)
    (user_via 0.8 0.4)
    (uvia_size 0.3)
    (uvia_drill 0.1)
    (uvias_allowed no)
    (uvia_min_size 0.2)
    (uvia_min_drill 0.1)
    (edge_width 0.05)
    (segment_width 0.2)
    (pcb_text_width 0.3)
    (pcb_text_size 1.5 1.5)
    (mod_edge_width 0.12)
    (mod_text_size 1 1)
    (mod_text_width 0.15)
    (pad_size 2 2)
    (pad_drill 1.1)
    (pad_to_mask_clearance 0)
    (aux_axis_origin 0 0)
    (visible_elements 7EFFFFFF)
    (pcbplotparams
      (layerselection 0x010fc_ffffffff)
      (usegerberextensions true)
      (usegerberattributes false)
      (usegerberadvancedattributes false)
      (creategerberjobfile false)
      (excludeedgelayer true)
      (linewidth 0.250000)
      (plotframeref false)
      (viasonmask false)
      (mode 1)
      (useauxorigin false)
      (hpglpennumber 1)
      (hpglpenspeed 20)
      (hpglpendiameter 15.000000)
      (psnegative false)
      (psa4output false)
      (plotreference true)
      (plotvalue false)
      (plotinvisibletext false)
      (padsonsilk false)
      (subtractmaskfromsilk true)
      (outputformat 1)
      (mirror false)
      (drillshape 0)
      (scaleselection 1)
      (outputdirectory "export_files_v3/"))
  )

  (net 0 "")
  (net 1 GPIO23)
  (net 2 Ground)
  (net 3 GPIO27)
  (net 4 GPIO26)
  (net 5 3.3V)
  (net 6 "GPIO2(SDA)")
  (net 7 "GPIO3(SCL)")
  (net 8 "GPIO10(MOSI)")
  (net 9 "GPIO9(MISO)")
  (net 10 "GPIO11(SCLK)")
  (net 11 GPIO6)
  (net 12 5V)
  (net 13 GPIO25)
  (net 14 "GPIO8(CE0)")
  (net 15 GPIO16)
  (net 16 "Net-(J1-Pad7)")
  (net 17 "Net-(J1-Pad8)")
  (net 18 "Net-(J1-Pad10)")
  (net 19 "Net-(J1-Pad11)")
  (net 20 "Net-(J1-Pad12)")
  (net 21 "Net-(J1-Pad15)")
  (net 22 "Net-(J1-Pad18)")
  (net 23 "Net-(J1-Pad26)")
  (net 24 "Net-(J1-Pad27)")
  (net 25 "Net-(J1-Pad28)")
  (net 26 "Net-(J1-Pad29)")
  (net 27 "Net-(J1-Pad32)")
  (net 28 "Net-(J1-Pad33)")
  (net 29 "Net-(J1-Pad35)")
  (net 30 "Net-(J1-Pad38)")
  (net 31 "Net-(J1-Pad40)")
  (net 32 "Net-(J3-Pad4)")

  (net_class Default "This is the default net class."
    (clearance 0.2)
    (trace_width 0.25)
    (via_dia 0.8)
    (via_drill 0.4)
    (uvia_dia 0.3)
    (uvia_drill 0.1)
    (add_net 3.3V)
    (add_net 5V)
    (add_net "GPIO10(MOSI)")
    (add_net "GPIO11(SCLK)")
    (add_net GPIO16)
    (add_net "GPIO2(SDA)")
    (add_net GPIO23)
    (add_net GPIO25)
    (add_net GPIO26)
    (add_net GPIO27)
    (add_net "GPIO3(SCL)")
    (add_net GPIO6)
    (add_net "GPIO8(CE0)")
    (add_net "GPIO9(MISO)")
    (add_net Ground)
    (add_net "Net-(J1-Pad10)")
    (add_net "Net-(J1-Pad11)")
    (add_net "Net-(J1-Pad12)")
    (add_net "Net-(J1-Pad15)")
    (add_net "Net-(J1-Pad18)")
    (add_net "Net-(J1-Pad26)")
    (add_net "Net-(J1-Pad27)")
    (add_net "Net-(J1-Pad28)")
    (add_net "Net-(J1-Pad29)")
    (add_net "Net-(J1-Pad32)")
    (add_net "Net-(J1-Pad33)")
    (add_net "Net-(J1-Pad35)")
    (add_net "Net-(J1-Pad38)")
    (add_net "Net-(J1-Pad40)")
    (add_net "Net-(J1-Pad7)")
    (add_net "Net-(J1-Pad8)")
    (add_net "Net-(J3-Pad4)")
  )

  (module Buzzer_Beeper:Buzzer_12x9.5RM7.6 (layer F.Cu) (tedit 5A030281) (tstamp 618996B6)
    (at 33 47 180)
    (descr "Generic Buzzer, D12mm height 9.5mm with RM7.6mm")
    (tags buzzer)
    (path /618947DC)
    (fp_text reference BZ1 (at 3.8 -7.2) (layer F.SilkS)
      (effects (font (size 1 1) (thickness 0.15)))
    )
    (fp_text value Buzzer (at 3.8 7.4) (layer F.Fab)
      (effects (font (size 1 1) (thickness 0.15)))
    )
    (fp_circle (center 3.8 0) (end 9.9 0) (layer F.SilkS) (width 0.12))
    (fp_circle (center 3.8 0) (end 4.8 0) (layer F.Fab) (width 0.1))
    (fp_circle (center 3.8 0) (end 9.8 0) (layer F.Fab) (width 0.1))
    (fp_circle (center 3.8 0) (end 10.05 0) (layer F.CrtYd) (width 0.05))
    (fp_text user + (at -0.01 -2.54) (layer F.Fab)
      (effects (font (size 1 1) (thickness 0.15)))
    )
    (fp_text user + (at -0.01 -2.54) (layer F.SilkS)
      (effects (font (size 1 1) (thickness 0.15)))
    )
    (fp_text user %R (at 3.8 -4) (layer F.Fab)
      (effects (font (size 1 1) (thickness 0.15)))
    )
    (pad 1 thru_hole rect (at 0 0 180) (size 2 2) (drill 1) (layers *.Cu *.Mask)
      (net 1 GPIO23))
    (pad 2 thru_hole circle (at 7.6 0 180) (size 2 2) (drill 1) (layers *.Cu *.Mask)
      (net 2 Ground))
    (model ${KISYS3DMOD}/Buzzer_Beeper.3dshapes/Buzzer_12x9.5RM7.6.wrl
      (at (xyz 0 0 0))
      (scale (xyz 1 1 1))
      (rotate (xyz 0 0 0))
    )
  )

  (module Connector_PinHeader_2.54mm:PinHeader_2x20_P2.54mm_Vertical (layer F.Cu) (tedit 59FED5CC) (tstamp 619FB386)
    (at 8.5 5.5 90)
    (descr "Through hole straight pin header, 2x20, 2.54mm pitch, double rows")
    (tags "Through hole pin header THT 2x20 2.54mm double row")
    (path /619F8512)
    (fp_text reference J1 (at 1.27 -2.33 90) (layer F.SilkS)
      (effects (font (size 1 1) (thickness 0.15)))
    )
    (fp_text value Conn_02x20_Odd_Even (at 1.27 50.59 90) (layer F.Fab)
      (effects (font (size 1 1) (thickness 0.15)))
    )
    (fp_line (start 0 -1.27) (end 3.81 -1.27) (layer F.Fab) (width 0.1))
    (fp_line (start 3.81 -1.27) (end 3.81 49.53) (layer F.Fab) (width 0.1))
    (fp_line (start 3.81 49.53) (end -1.27 49.53) (layer F.Fab) (width 0.1))
    (fp_line (start -1.27 49.53) (end -1.27 0) (layer F.Fab) (width 0.1))
    (fp_line (start -1.27 0) (end 0 -1.27) (layer F.Fab) (width 0.1))
    (fp_line (start -1.33 49.59) (end 3.87 49.59) (layer F.SilkS) (width 0.12))
    (fp_line (start -1.33 1.27) (end -1.33 49.59) (layer F.SilkS) (width 0.12))
    (fp_line (start 3.87 -1.33) (end 3.87 49.59) (layer F.SilkS) (width 0.12))
    (fp_line (start -1.33 1.27) (end 1.27 1.27) (layer F.SilkS) (width 0.12))
    (fp_line (start 1.27 1.27) (end 1.27 -1.33) (layer F.SilkS) (width 0.12))
    (fp_line (start 1.27 -1.33) (end 3.87 -1.33) (layer F.SilkS) (width 0.12))
    (fp_line (start -1.33 0) (end -1.33 -1.33) (layer F.SilkS) (width 0.12))
    (fp_line (start -1.33 -1.33) (end 0 -1.33) (layer F.SilkS) (width 0.12))
    (fp_line (start -1.8 -1.8) (end -1.8 50.05) (layer F.CrtYd) (width 0.05))
    (fp_line (start -1.8 50.05) (end 4.35 50.05) (layer F.CrtYd) (width 0.05))
    (fp_line (start 4.35 50.05) (end 4.35 -1.8) (layer F.CrtYd) (width 0.05))
    (fp_line (start 4.35 -1.8) (end -1.8 -1.8) (layer F.CrtYd) (width 0.05))
    (fp_text user %R (at 1.27 24.13) (layer F.Fab)
      (effects (font (size 1 1) (thickness 0.15)))
    )
    (pad 1 thru_hole rect (at 0 0 90) (size 1.7 1.7) (drill 1) (layers *.Cu *.Mask)
      (net 5 3.3V))
    (pad 2 thru_hole oval (at 2.54 0 90) (size 1.7 1.7) (drill 1) (layers *.Cu *.Mask)
      (net 12 5V))
    (pad 3 thru_hole oval (at 0 2.54 90) (size 1.7 1.7) (drill 1) (layers *.Cu *.Mask)
      (net 6 "GPIO2(SDA)"))
    (pad 4 thru_hole oval (at 2.54 2.54 90) (size 1.7 1.7) (drill 1) (layers *.Cu *.Mask)
      (net 12 5V))
    (pad 5 thru_hole oval (at 0 5.08 90) (size 1.7 1.7) (drill 1) (layers *.Cu *.Mask)
      (net 7 "GPIO3(SCL)"))
    (pad 6 thru_hole oval (at 2.54 5.08 90) (size 1.7 1.7) (drill 1) (layers *.Cu *.Mask)
      (net 2 Ground))
    (pad 7 thru_hole oval (at 0 7.62 90) (size 1.7 1.7) (drill 1) (layers *.Cu *.Mask)
      (net 16 "Net-(J1-Pad7)"))
    (pad 8 thru_hole oval (at 2.54 7.62 90) (size 1.7 1.7) (drill 1) (layers *.Cu *.Mask)
      (net 17 "Net-(J1-Pad8)"))
    (pad 9 thru_hole oval (at 0 10.16 90) (size 1.7 1.7) (drill 1) (layers *.Cu *.Mask)
      (net 2 Ground))
    (pad 10 thru_hole oval (at 2.54 10.16 90) (size 1.7 1.7) (drill 1) (layers *.Cu *.Mask)
      (net 18 "Net-(J1-Pad10)"))
    (pad 11 thru_hole oval (at 0 12.7 90) (size 1.7 1.7) (drill 1) (layers *.Cu *.Mask)
      (net 19 "Net-(J1-Pad11)"))
    (pad 12 thru_hole oval (at 2.54 12.7 90) (size 1.7 1.7) (drill 1) (layers *.Cu *.Mask)
      (net 20 "Net-(J1-Pad12)"))
    (pad 13 thru_hole oval (at 0 15.24 90) (size 1.7 1.7) (drill 1) (layers *.Cu *.Mask)
      (net 3 GPIO27))
    (pad 14 thru_hole oval (at 2.54 15.24 90) (size 1.7 1.7) (drill 1) (layers *.Cu *.Mask)
      (net 2 Ground))
    (pad 15 thru_hole oval (at 0 17.78 90) (size 1.7 1.7) (drill 1) (layers *.Cu *.Mask)
      (net 21 "Net-(J1-Pad15)"))
    (pad 16 thru_hole oval (at 2.54 17.78 90) (size 1.7 1.7) (drill 1) (layers *.Cu *.Mask)
      (net 1 GPIO23))
    (pad 17 thru_hole oval (at 0 20.32 90) (size 1.7 1.7) (drill 1) (layers *.Cu *.Mask)
      (net 5 3.3V))
    (pad 18 thru_hole oval (at 2.54 20.32 90) (size 1.7 1.7) (drill 1) (layers *.Cu *.Mask)
      (net 22 "Net-(J1-Pad18)"))
    (pad 19 thru_hole oval (at 0 22.86 90) (size 1.7 1.7) (drill 1) (layers *.Cu *.Mask)
      (net 8 "GPIO10(MOSI)"))
    (pad 20 thru_hole oval (at 2.54 22.86 90) (size 1.7 1.7) (drill 1) (layers *.Cu *.Mask)
      (net 2 Ground))
    (pad 21 thru_hole oval (at 0 25.4 90) (size 1.7 1.7) (drill 1) (layers *.Cu *.Mask)
      (net 9 "GPIO9(MISO)"))
    (pad 22 thru_hole oval (at 2.54 25.4 90) (size 1.7 1.7) (drill 1) (layers *.Cu *.Mask)
      (net 13 GPIO25))
    (pad 23 thru_hole oval (at 0 27.94 90) (size 1.7 1.7) (drill 1) (layers *.Cu *.Mask)
      (net 10 "GPIO11(SCLK)"))
    (pad 24 thru_hole oval (at 2.54 27.94 90) (size 1.7 1.7) (drill 1) (layers *.Cu *.Mask)
      (net 14 "GPIO8(CE0)"))
    (pad 25 thru_hole oval (at 0 30.48 90) (size 1.7 1.7) (drill 1) (layers *.Cu *.Mask)
      (net 2 Ground))
    (pad 26 thru_hole oval (at 2.54 30.48 90) (size 1.7 1.7) (drill 1) (layers *.Cu *.Mask)
      (net 23 "Net-(J1-Pad26)"))
    (pad 27 thru_hole oval (at 0 33.02 90) (size 1.7 1.7) (drill 1) (layers *.Cu *.Mask)
      (net 24 "Net-(J1-Pad27)"))
    (pad 28 thru_hole oval (at 2.54 33.02 90) (size 1.7 1.7) (drill 1) (layers *.Cu *.Mask)
      (net 25 "Net-(J1-Pad28)"))
    (pad 29 thru_hole oval (at 0 35.56 90) (size 1.7 1.7) (drill 1) (layers *.Cu *.Mask)
      (net 26 "Net-(J1-Pad29)"))
    (pad 30 thru_hole oval (at 2.54 35.56 90) (size 1.7 1.7) (drill 1) (layers *.Cu *.Mask)
      (net 2 Ground))
    (pad 31 thru_hole oval (at 0 38.1 90) (size 1.7 1.7) (drill 1) (layers *.Cu *.Mask)
      (net 11 GPIO6))
    (pad 32 thru_hole oval (at 2.54 38.1 90) (size 1.7 1.7) (drill 1) (layers *.Cu *.Mask)
      (net 27 "Net-(J1-Pad32)"))
    (pad 33 thru_hole oval (at 0 40.64 90) (size 1.7 1.7) (drill 1) (layers *.Cu *.Mask)
      (net 28 "Net-(J1-Pad33)"))
    (pad 34 thru_hole oval (at 2.54 40.64 90) (size 1.7 1.7) (drill 1) (layers *.Cu *.Mask)
      (net 2 Ground))
    (pad 35 thru_hole oval (at 0 43.18 90) (size 1.7 1.7) (drill 1) (layers *.Cu *.Mask)
      (net 29 "Net-(J1-Pad35)"))
    (pad 36 thru_hole oval (at 2.54 43.18 90) (size 1.7 1.7) (drill 1) (layers *.Cu *.Mask)
      (net 15 GPIO16))
    (pad 37 thru_hole oval (at 0 45.72 90) (size 1.7 1.7) (drill 1) (layers *.Cu *.Mask)
      (net 4 GPIO26))
    (pad 38 thru_hole oval (at 2.54 45.72 90) (size 1.7 1.7) (drill 1) (layers *.Cu *.Mask)
      (net 30 "Net-(J1-Pad38)"))
    (pad 39 thru_hole oval (at 0 48.26 90) (size 1.7 1.7) (drill 1) (layers *.Cu *.Mask)
      (net 2 Ground))
    (pad 40 thru_hole oval (at 2.54 48.26 90) (size 1.7 1.7) (drill 1) (layers *.Cu *.Mask)
      (net 31 "Net-(J1-Pad40)"))
    (model ${KISYS3DMOD}/Connector_PinHeader_2.54mm.3dshapes/PinHeader_2x20_P2.54mm_Vertical.wrl
      (at (xyz 0 0 0))
      (scale (xyz 1 1 1))
      (rotate (xyz 0 0 0))
    )
  )

  (module MountingHole:MountingHole_2.7mm_M2.5_ISO7380 (layer F.Cu) (tedit 56D1B4CB) (tstamp 618993CE)
    (at 61.5 52.5)
    (descr "Mounting Hole 2.7mm, no annular, M2.5, ISO7380")
    (tags "mounting hole 2.7mm no annular m2.5 iso7380")
    (attr virtual)
    (fp_text reference REF** (at 0 -3.25) (layer F.SilkS)
      (effects (font (size 1 1) (thickness 0.15)))
    )
    (fp_text value MountingHole_2.7mm_M2.5_ISO7380 (at 0 3.25) (layer F.Fab)
      (effects (font (size 1 1) (thickness 0.15)))
    )
    (fp_circle (center 0 0) (end 2.25 0) (layer Cmts.User) (width 0.15))
    (fp_circle (center 0 0) (end 2.5 0) (layer F.CrtYd) (width 0.05))
    (fp_text user %R (at 0.3 0) (layer F.Fab)
      (effects (font (size 1 1) (thickness 0.15)))
    )
    (pad 1 np_thru_hole circle (at 0 0) (size 2.7 2.7) (drill 2.7) (layers *.Cu *.Mask))
  )

  (module MountingHole:MountingHole_2.7mm_M2.5_ISO7380 (layer F.Cu) (tedit 56D1B4CB) (tstamp 618993CE)
    (at 3.5 52.5)
    (descr "Mounting Hole 2.7mm, no annular, M2.5, ISO7380")
    (tags "mounting hole 2.7mm no annular m2.5 iso7380")
    (attr virtual)
    (fp_text reference REF** (at 0 -3.25) (layer F.SilkS)
      (effects (font (size 1 1) (thickness 0.15)))
    )
    (fp_text value MountingHole_2.7mm_M2.5_ISO7380 (at 0 3.25) (layer F.Fab)
      (effects (font (size 1 1) (thickness 0.15)))
    )
    (fp_circle (center 0 0) (end 2.25 0) (layer Cmts.User) (width 0.15))
    (fp_circle (center 0 0) (end 2.5 0) (layer F.CrtYd) (width 0.05))
    (fp_text user %R (at 0.3 0) (layer F.Fab)
      (effects (font (size 1 1) (thickness 0.15)))
    )
    (pad 1 np_thru_hole circle (at 0 0) (size 2.7 2.7) (drill 2.7) (layers *.Cu *.Mask))
  )

  (module MountingHole:MountingHole_2.7mm_M2.5_ISO7380 (layer F.Cu) (tedit 56D1B4CB) (tstamp 618993CE)
    (at 61.5 3.5)
    (descr "Mounting Hole 2.7mm, no annular, M2.5, ISO7380")
    (tags "mounting hole 2.7mm no annular m2.5 iso7380")
    (attr virtual)
    (fp_text reference REF** (at 0 -3.25) (layer F.SilkS)
      (effects (font (size 1 1) (thickness 0.15)))
    )
    (fp_text value MountingHole_2.7mm_M2.5_ISO7380 (at 0 3.25) (layer F.Fab)
      (effects (font (size 1 1) (thickness 0.15)))
    )
    (fp_circle (center 0 0) (end 2.25 0) (layer Cmts.User) (width 0.15))
    (fp_circle (center 0 0) (end 2.5 0) (layer F.CrtYd) (width 0.05))
    (fp_text user %R (at 0.3 0) (layer F.Fab)
      (effects (font (size 1 1) (thickness 0.15)))
    )
    (pad 1 np_thru_hole circle (at 0 0) (size 2.7 2.7) (drill 2.7) (layers *.Cu *.Mask))
  )

  (module MountingHole:MountingHole_2.7mm_M2.5_ISO7380 (layer F.Cu) (tedit 56D1B4CB) (tstamp 618993CD)
    (at 3.5 3.5)
    (descr "Mounting Hole 2.7mm, no annular, M2.5, ISO7380")
    (tags "mounting hole 2.7mm no annular m2.5 iso7380")
    (attr virtual)
    (fp_text reference REF** (at 0 -3.25) (layer F.SilkS)
      (effects (font (size 1 1) (thickness 0.15)))
    )
    (fp_text value MountingHole_2.7mm_M2.5_ISO7380 (at 0 3.25) (layer F.Fab)
      (effects (font (size 1 1) (thickness 0.15)))
    )
    (fp_circle (center 0 0) (end 2.25 0) (layer Cmts.User) (width 0.15))
    (fp_circle (center 0 0) (end 2.5 0) (layer F.CrtYd) (width 0.05))
    (fp_text user %R (at 0.3 0) (layer F.Fab)
      (effects (font (size 1 1) (thickness 0.15)))
    )
    (pad 1 np_thru_hole circle (at 0 0) (size 2.7 2.7) (drill 2.7) (layers *.Cu *.Mask))
  )

  (module LED_THT:LED_D1.8mm_W3.3mm_H2.4mm (layer F.Cu) (tedit 5880A862) (tstamp 618996CF)
    (at 26 20)
    (descr "LED, Round,  Rectangular size 3.3x2.4mm^2 diameter 1.8mm, 2 pins")
    (tags "LED Round  Rectangular size 3.3x2.4mm^2 diameter 1.8mm 2 pins")
    (path /61894F7D)
    (fp_text reference D1 (at 1.27 -2.26) (layer F.SilkS)
      (effects (font (size 1 1) (thickness 0.15)))
    )
    (fp_text value LED (at 1.27 2.26) (layer F.Fab)
      (effects (font (size 1 1) (thickness 0.15)))
    )
    (fp_line (start 3.7 -1.55) (end -1.15 -1.55) (layer F.CrtYd) (width 0.05))
    (fp_line (start 3.7 1.55) (end 3.7 -1.55) (layer F.CrtYd) (width 0.05))
    (fp_line (start -1.15 1.55) (end 3.7 1.55) (layer F.CrtYd) (width 0.05))
    (fp_line (start -1.15 -1.55) (end -1.15 1.55) (layer F.CrtYd) (width 0.05))
    (fp_line (start -0.2 1.08) (end -0.2 1.26) (layer F.SilkS) (width 0.12))
    (fp_line (start -0.2 -1.26) (end -0.2 -1.08) (layer F.SilkS) (width 0.12))
    (fp_line (start -0.32 1.08) (end -0.32 1.26) (layer F.SilkS) (width 0.12))
    (fp_line (start -0.32 -1.26) (end -0.32 -1.08) (layer F.SilkS) (width 0.12))
    (fp_line (start 2.98 1.095) (end 2.98 1.26) (layer F.SilkS) (width 0.12))
    (fp_line (start 2.98 -1.26) (end 2.98 -1.095) (layer F.SilkS) (width 0.12))
    (fp_line (start -0.44 1.08) (end -0.44 1.26) (layer F.SilkS) (width 0.12))
    (fp_line (start -0.44 -1.26) (end -0.44 -1.08) (layer F.SilkS) (width 0.12))
    (fp_line (start -0.44 1.26) (end 2.98 1.26) (layer F.SilkS) (width 0.12))
    (fp_line (start -0.44 -1.26) (end 2.98 -1.26) (layer F.SilkS) (width 0.12))
    (fp_line (start 2.92 -1.2) (end -0.38 -1.2) (layer F.Fab) (width 0.1))
    (fp_line (start 2.92 1.2) (end 2.92 -1.2) (layer F.Fab) (width 0.1))
    (fp_line (start -0.38 1.2) (end 2.92 1.2) (layer F.Fab) (width 0.1))
    (fp_line (start -0.38 -1.2) (end -0.38 1.2) (layer F.Fab) (width 0.1))
    (fp_circle (center 1.27 0) (end 2.17 0) (layer F.Fab) (width 0.1))
    (pad 1 thru_hole rect (at 0 0) (size 1.8 1.8) (drill 0.9) (layers *.Cu *.Mask)
      (net 2 Ground))
    (pad 2 thru_hole circle (at 2.54 0) (size 1.8 1.8) (drill 0.9) (layers *.Cu *.Mask)
      (net 3 GPIO27))
    (model ${KISYS3DMOD}/LED_THT.3dshapes/LED_D1.8mm_W3.3mm_H2.4mm.wrl
      (at (xyz 0 0 0))
      (scale (xyz 1 1 1))
      (rotate (xyz 0 0 0))
    )
  )

  (module LED_THT:LED_D1.8mm_W3.3mm_H2.4mm (layer F.Cu) (tedit 5880A862) (tstamp 618996E8)
    (at 26 27)
    (descr "LED, Round,  Rectangular size 3.3x2.4mm^2 diameter 1.8mm, 2 pins")
    (tags "LED Round  Rectangular size 3.3x2.4mm^2 diameter 1.8mm 2 pins")
    (path /61895C6D)
    (fp_text reference D2 (at 1.27 -2.26) (layer F.SilkS)
      (effects (font (size 1 1) (thickness 0.15)))
    )
    (fp_text value LED (at 1.27 2.26) (layer F.Fab)
      (effects (font (size 1 1) (thickness 0.15)))
    )
    (fp_circle (center 1.27 0) (end 2.17 0) (layer F.Fab) (width 0.1))
    (fp_line (start -0.38 -1.2) (end -0.38 1.2) (layer F.Fab) (width 0.1))
    (fp_line (start -0.38 1.2) (end 2.92 1.2) (layer F.Fab) (width 0.1))
    (fp_line (start 2.92 1.2) (end 2.92 -1.2) (layer F.Fab) (width 0.1))
    (fp_line (start 2.92 -1.2) (end -0.38 -1.2) (layer F.Fab) (width 0.1))
    (fp_line (start -0.44 -1.26) (end 2.98 -1.26) (layer F.SilkS) (width 0.12))
    (fp_line (start -0.44 1.26) (end 2.98 1.26) (layer F.SilkS) (width 0.12))
    (fp_line (start -0.44 -1.26) (end -0.44 -1.08) (layer F.SilkS) (width 0.12))
    (fp_line (start -0.44 1.08) (end -0.44 1.26) (layer F.SilkS) (width 0.12))
    (fp_line (start 2.98 -1.26) (end 2.98 -1.095) (layer F.SilkS) (width 0.12))
    (fp_line (start 2.98 1.095) (end 2.98 1.26) (layer F.SilkS) (width 0.12))
    (fp_line (start -0.32 -1.26) (end -0.32 -1.08) (layer F.SilkS) (width 0.12))
    (fp_line (start -0.32 1.08) (end -0.32 1.26) (layer F.SilkS) (width 0.12))
    (fp_line (start -0.2 -1.26) (end -0.2 -1.08) (layer F.SilkS) (width 0.12))
    (fp_line (start -0.2 1.08) (end -0.2 1.26) (layer F.SilkS) (width 0.12))
    (fp_line (start -1.15 -1.55) (end -1.15 1.55) (layer F.CrtYd) (width 0.05))
    (fp_line (start -1.15 1.55) (end 3.7 1.55) (layer F.CrtYd) (width 0.05))
    (fp_line (start 3.7 1.55) (end 3.7 -1.55) (layer F.CrtYd) (width 0.05))
    (fp_line (start 3.7 -1.55) (end -1.15 -1.55) (layer F.CrtYd) (width 0.05))
    (pad 2 thru_hole circle (at 2.54 0) (size 1.8 1.8) (drill 0.9) (layers *.Cu *.Mask)
      (net 4 GPIO26))
    (pad 1 thru_hole rect (at 0 0) (size 1.8 1.8) (drill 0.9) (layers *.Cu *.Mask)
      (net 2 Ground))
    (model ${KISYS3DMOD}/LED_THT.3dshapes/LED_D1.8mm_W3.3mm_H2.4mm.wrl
      (at (xyz 0 0 0))
      (scale (xyz 1 1 1))
      (rotate (xyz 0 0 0))
    )
  )

  (module Connector_PinHeader_2.54mm:PinHeader_1x04_P2.54mm_Vertical (layer F.Cu) (tedit 61ACE968) (tstamp 6189973E)
    (at 42.92 13.5 90)
    (descr "Through hole straight pin header, 1x04, 2.54mm pitch, single row")
    (tags "Through hole pin header THT 1x04 2.54mm single row")
    (path /61892F00)
    (fp_text reference J2 (at 0 -2.33 90) (layer F.SilkS)
      (effects (font (size 1 1) (thickness 0.15)))
    )
    (fp_text value Conn_01x04 (at 0 9.95 90) (layer F.Fab)
      (effects (font (size 1 1) (thickness 0.15)))
    )
    (fp_line (start 1.8 -1.8) (end -1.8 -1.8) (layer F.CrtYd) (width 0.05))
    (fp_line (start 1.8 9.4) (end 1.8 -1.8) (layer F.CrtYd) (width 0.05))
    (fp_line (start -1.8 9.4) (end 1.8 9.4) (layer F.CrtYd) (width 0.05))
    (fp_line (start -1.8 -1.8) (end -1.8 9.4) (layer F.CrtYd) (width 0.05))
    (fp_line (start -1.33 -1.33) (end 0 -1.33) (layer F.SilkS) (width 0.12))
    (fp_line (start -1.33 0) (end -1.33 -1.33) (layer F.SilkS) (width 0.12))
    (fp_line (start -1.33 1.27) (end 1.33 1.27) (layer F.SilkS) (width 0.12))
    (fp_line (start 1.33 1.27) (end 1.33 8.95) (layer F.SilkS) (width 0.12))
    (fp_line (start -1.33 1.27) (end -1.33 8.95) (layer F.SilkS) (width 0.12))
    (fp_line (start -1.33 8.95) (end 1.33 8.95) (layer F.SilkS) (width 0.12))
    (fp_line (start -1.27 -0.635) (end -0.635 -1.27) (layer F.Fab) (width 0.1))
    (fp_line (start -1.27 8.89) (end -1.27 -0.635) (layer F.Fab) (width 0.1))
    (fp_line (start 1.27 8.89) (end -1.27 8.89) (layer F.Fab) (width 0.1))
    (fp_line (start 1.27 -1.27) (end 1.27 8.89) (layer F.Fab) (width 0.1))
    (fp_line (start -0.635 -1.27) (end 1.27 -1.27) (layer F.Fab) (width 0.1))
    (fp_text user %R (at 0 3.81) (layer F.Fab)
      (effects (font (size 1 1) (thickness 0.15)))
    )
    (pad 1 thru_hole rect (at 0 0 90) (size 1.7 1.7) (drill 1) (layers *.Cu *.Mask)
      (net 2 Ground))
    (pad 2 thru_hole oval (at 0 2.54 90) (size 1.7 1.7) (drill 1) (layers *.Cu *.Mask)
      (net 5 3.3V))
    (pad 3 thru_hole oval (at 0 5.08 90) (size 1.7 1.7) (drill 1) (layers *.Cu *.Mask)
      (net 7 "GPIO3(SCL)"))
    (pad 4 thru_hole oval (at 0 7.62 90) (size 1.7 1.7) (drill 1) (layers *.Cu *.Mask)
      (net 6 "GPIO2(SDA)"))
    (model ${KISYS3DMOD}/Connector_PinHeader_2.54mm.3dshapes/PinHeader_1x04_P2.54mm_Vertical.wrl
      (at (xyz 0 0 0))
      (scale (xyz 1 1 1))
      (rotate (xyz 0 0 0))
    )
  )

  (module Button_Switch_THT:SW_PUSH_6mm (layer F.Cu) (tedit 61AD18AE) (tstamp 618997D1)
    (at 39.5 43)
    (descr https://www.omron.com/ecb/products/pdf/en-b3f.pdf)
    (tags "tact sw push 6mm")
    (path /618B0D33)
    (fp_text reference SW1 (at 3.25 -2) (layer F.SilkS)
      (effects (font (size 1 1) (thickness 0.15)))
    )
    (fp_text value SW_Push_Open_Dual (at 3.75 6.7) (layer F.Fab)
      (effects (font (size 1 1) (thickness 0.15)))
    )
    (fp_circle (center 3.25 2.25) (end 1.25 2.5) (layer F.Fab) (width 0.1))
    (fp_line (start 6.75 3) (end 6.75 1.5) (layer F.SilkS) (width 0.12))
    (fp_line (start 5.5 -1) (end 1 -1) (layer F.SilkS) (width 0.12))
    (fp_line (start -0.25 1.5) (end -0.25 3) (layer F.SilkS) (width 0.12))
    (fp_line (start 1 5.5) (end 5.5 5.5) (layer F.SilkS) (width 0.12))
    (fp_line (start 8 -1.25) (end 8 5.75) (layer F.CrtYd) (width 0.05))
    (fp_line (start 7.75 6) (end -1.25 6) (layer F.CrtYd) (width 0.05))
    (fp_line (start -1.5 5.75) (end -1.5 -1.25) (layer F.CrtYd) (width 0.05))
    (fp_line (start -1.25 -1.5) (end 7.75 -1.5) (layer F.CrtYd) (width 0.05))
    (fp_line (start -1.5 6) (end -1.25 6) (layer F.CrtYd) (width 0.05))
    (fp_line (start -1.5 5.75) (end -1.5 6) (layer F.CrtYd) (width 0.05))
    (fp_line (start -1.5 -1.5) (end -1.25 -1.5) (layer F.CrtYd) (width 0.05))
    (fp_line (start -1.5 -1.25) (end -1.5 -1.5) (layer F.CrtYd) (width 0.05))
    (fp_line (start 8 -1.5) (end 8 -1.25) (layer F.CrtYd) (width 0.05))
    (fp_line (start 7.75 -1.5) (end 8 -1.5) (layer F.CrtYd) (width 0.05))
    (fp_line (start 8 6) (end 8 5.75) (layer F.CrtYd) (width 0.05))
    (fp_line (start 7.75 6) (end 8 6) (layer F.CrtYd) (width 0.05))
    (fp_line (start 0.25 -0.75) (end 3.25 -0.75) (layer F.Fab) (width 0.1))
    (fp_line (start 0.25 5.25) (end 0.25 -0.75) (layer F.Fab) (width 0.1))
    (fp_line (start 6.25 5.25) (end 0.25 5.25) (layer F.Fab) (width 0.1))
    (fp_line (start 6.25 -0.75) (end 6.25 5.25) (layer F.Fab) (width 0.1))
    (fp_line (start 3.25 -0.75) (end 6.25 -0.75) (layer F.Fab) (width 0.1))
    (fp_text user %R (at 3.25 2.25) (layer F.Fab)
      (effects (font (size 1 1) (thickness 0.15)))
    )
    (pad 2 thru_hole circle (at 0 4.5 90) (size 2 2) (drill 1.1) (layers *.Cu *.Mask))
    (pad 1 thru_hole circle (at 0 0 90) (size 2 2) (drill 1.1) (layers *.Cu *.Mask)
      (net 15 GPIO16))
    (pad 2 thru_hole circle (at 6.5 4.5 90) (size 2 2) (drill 1.1) (layers *.Cu *.Mask))
    (pad 1 thru_hole circle (at 6.5 0 90) (size 2 2) (drill 1.1) (layers *.Cu *.Mask)
      (net 2 Ground))
    (model ${KISYS3DMOD}/Button_Switch_THT.3dshapes/SW_PUSH_6mm.wrl
      (at (xyz 0 0 0))
      (scale (xyz 1 1 1))
      (rotate (xyz 0 0 0))
    )
  )

  (module Button_Switch_THT:SW_PUSH_6mm (layer F.Cu) (tedit 61AD18C7) (tstamp 618997F0)
    (at 52 43)
    (descr https://www.omron.com/ecb/products/pdf/en-b3f.pdf)
    (tags "tact sw push 6mm")
    (path /618B2476)
    (fp_text reference SW2 (at 3.25 -2) (layer F.SilkS)
      (effects (font (size 1 1) (thickness 0.15)))
    )
    (fp_text value SW_Push_Open_Dual (at 3.75 6.7) (layer F.Fab)
      (effects (font (size 1 1) (thickness 0.15)))
    )
    (fp_line (start 3.25 -0.75) (end 6.25 -0.75) (layer F.Fab) (width 0.1))
    (fp_line (start 6.25 -0.75) (end 6.25 5.25) (layer F.Fab) (width 0.1))
    (fp_line (start 6.25 5.25) (end 0.25 5.25) (layer F.Fab) (width 0.1))
    (fp_line (start 0.25 5.25) (end 0.25 -0.75) (layer F.Fab) (width 0.1))
    (fp_line (start 0.25 -0.75) (end 3.25 -0.75) (layer F.Fab) (width 0.1))
    (fp_line (start 7.75 6) (end 8 6) (layer F.CrtYd) (width 0.05))
    (fp_line (start 8 6) (end 8 5.75) (layer F.CrtYd) (width 0.05))
    (fp_line (start 7.75 -1.5) (end 8 -1.5) (layer F.CrtYd) (width 0.05))
    (fp_line (start 8 -1.5) (end 8 -1.25) (layer F.CrtYd) (width 0.05))
    (fp_line (start -1.5 -1.25) (end -1.5 -1.5) (layer F.CrtYd) (width 0.05))
    (fp_line (start -1.5 -1.5) (end -1.25 -1.5) (layer F.CrtYd) (width 0.05))
    (fp_line (start -1.5 5.75) (end -1.5 6) (layer F.CrtYd) (width 0.05))
    (fp_line (start -1.5 6) (end -1.25 6) (layer F.CrtYd) (width 0.05))
    (fp_line (start -1.25 -1.5) (end 7.75 -1.5) (layer F.CrtYd) (width 0.05))
    (fp_line (start -1.5 5.75) (end -1.5 -1.25) (layer F.CrtYd) (width 0.05))
    (fp_line (start 7.75 6) (end -1.25 6) (layer F.CrtYd) (width 0.05))
    (fp_line (start 8 -1.25) (end 8 5.75) (layer F.CrtYd) (width 0.05))
    (fp_line (start 1 5.5) (end 5.5 5.5) (layer F.SilkS) (width 0.12))
    (fp_line (start -0.25 1.5) (end -0.25 3) (layer F.SilkS) (width 0.12))
    (fp_line (start 5.5 -1) (end 1 -1) (layer F.SilkS) (width 0.12))
    (fp_line (start 6.75 3) (end 6.75 1.5) (layer F.SilkS) (width 0.12))
    (fp_circle (center 3.25 2.25) (end 1.25 2.5) (layer F.Fab) (width 0.1))
    (fp_text user %R (at 3.25 2.25) (layer F.Fab)
      (effects (font (size 1 1) (thickness 0.15)))
    )
    (pad 1 thru_hole circle (at 6.5 0 90) (size 2 2) (drill 1.1) (layers *.Cu *.Mask)
      (net 2 Ground))
    (pad 2 thru_hole circle (at 6.5 4.5 90) (size 2 2) (drill 1.1) (layers *.Cu *.Mask))
    (pad 1 thru_hole circle (at 0 0 90) (size 2 2) (drill 1.1) (layers *.Cu *.Mask)
      (net 11 GPIO6))
    (pad 2 thru_hole circle (at 0 4.5 90) (size 2 2) (drill 1.1) (layers *.Cu *.Mask))
    (model ${KISYS3DMOD}/Button_Switch_THT.3dshapes/SW_PUSH_6mm.wrl
      (at (xyz 0 0 0))
      (scale (xyz 1 1 1))
      (rotate (xyz 0 0 0))
    )
  )

  (module Connector_PinHeader_2.54mm:PinHeader_1x08_P2.54mm_Horizontal (layer B.Cu) (tedit 59FED5CB) (tstamp 61AD754D)
    (at 18.2 19.6 180)
    (descr "Through hole angled pin header, 1x08, 2.54mm pitch, 6mm pin length, single row")
    (tags "Through hole angled pin header THT 1x08 2.54mm single row")
    (path /61AD0FA5)
    (fp_text reference J3 (at 4.385 2.27) (layer B.SilkS)
      (effects (font (size 1 1) (thickness 0.15)) (justify mirror))
    )
    (fp_text value Conn_01x08 (at 4.385 -20.05) (layer B.Fab)
      (effects (font (size 1 1) (thickness 0.15)) (justify mirror))
    )
    (fp_line (start 10.55 1.8) (end -1.8 1.8) (layer B.CrtYd) (width 0.05))
    (fp_line (start 10.55 -19.55) (end 10.55 1.8) (layer B.CrtYd) (width 0.05))
    (fp_line (start -1.8 -19.55) (end 10.55 -19.55) (layer B.CrtYd) (width 0.05))
    (fp_line (start -1.8 1.8) (end -1.8 -19.55) (layer B.CrtYd) (width 0.05))
    (fp_line (start -1.27 1.27) (end 0 1.27) (layer B.SilkS) (width 0.12))
    (fp_line (start -1.27 0) (end -1.27 1.27) (layer B.SilkS) (width 0.12))
    (fp_line (start 1.042929 -18.16) (end 1.44 -18.16) (layer B.SilkS) (width 0.12))
    (fp_line (start 1.042929 -17.4) (end 1.44 -17.4) (layer B.SilkS) (width 0.12))
    (fp_line (start 10.1 -18.16) (end 4.1 -18.16) (layer B.SilkS) (width 0.12))
    (fp_line (start 10.1 -17.4) (end 10.1 -18.16) (layer B.SilkS) (width 0.12))
    (fp_line (start 4.1 -17.4) (end 10.1 -17.4) (layer B.SilkS) (width 0.12))
    (fp_line (start 1.44 -16.51) (end 4.1 -16.51) (layer B.SilkS) (width 0.12))
    (fp_line (start 1.042929 -15.62) (end 1.44 -15.62) (layer B.SilkS) (width 0.12))
    (fp_line (start 1.042929 -14.86) (end 1.44 -14.86) (layer B.SilkS) (width 0.12))
    (fp_line (start 10.1 -15.62) (end 4.1 -15.62) (layer B.SilkS) (width 0.12))
    (fp_line (start 10.1 -14.86) (end 10.1 -15.62) (layer B.SilkS) (width 0.12))
    (fp_line (start 4.1 -14.86) (end 10.1 -14.86) (layer B.SilkS) (width 0.12))
    (fp_line (start 1.44 -13.97) (end 4.1 -13.97) (layer B.SilkS) (width 0.12))
    (fp_line (start 1.042929 -13.08) (end 1.44 -13.08) (layer B.SilkS) (width 0.12))
    (fp_line (start 1.042929 -12.32) (end 1.44 -12.32) (layer B.SilkS) (width 0.12))
    (fp_line (start 10.1 -13.08) (end 4.1 -13.08) (layer B.SilkS) (width 0.12))
    (fp_line (start 10.1 -12.32) (end 10.1 -13.08) (layer B.SilkS) (width 0.12))
    (fp_line (start 4.1 -12.32) (end 10.1 -12.32) (layer B.SilkS) (width 0.12))
    (fp_line (start 1.44 -11.43) (end 4.1 -11.43) (layer B.SilkS) (width 0.12))
    (fp_line (start 1.042929 -10.54) (end 1.44 -10.54) (layer B.SilkS) (width 0.12))
    (fp_line (start 1.042929 -9.78) (end 1.44 -9.78) (layer B.SilkS) (width 0.12))
    (fp_line (start 10.1 -10.54) (end 4.1 -10.54) (layer B.SilkS) (width 0.12))
    (fp_line (start 10.1 -9.78) (end 10.1 -10.54) (layer B.SilkS) (width 0.12))
    (fp_line (start 4.1 -9.78) (end 10.1 -9.78) (layer B.SilkS) (width 0.12))
    (fp_line (start 1.44 -8.89) (end 4.1 -8.89) (layer B.SilkS) (width 0.12))
    (fp_line (start 1.042929 -8) (end 1.44 -8) (layer B.SilkS) (width 0.12))
    (fp_line (start 1.042929 -7.24) (end 1.44 -7.24) (layer B.SilkS) (width 0.12))
    (fp_line (start 10.1 -8) (end 4.1 -8) (layer B.SilkS) (width 0.12))
    (fp_line (start 10.1 -7.24) (end 10.1 -8) (layer B.SilkS) (width 0.12))
    (fp_line (start 4.1 -7.24) (end 10.1 -7.24) (layer B.SilkS) (width 0.12))
    (fp_line (start 1.44 -6.35) (end 4.1 -6.35) (layer B.SilkS) (width 0.12))
    (fp_line (start 1.042929 -5.46) (end 1.44 -5.46) (layer B.SilkS) (width 0.12))
    (fp_line (start 1.042929 -4.7) (end 1.44 -4.7) (layer B.SilkS) (width 0.12))
    (fp_line (start 10.1 -5.46) (end 4.1 -5.46) (layer B.SilkS) (width 0.12))
    (fp_line (start 10.1 -4.7) (end 10.1 -5.46) (layer B.SilkS) (width 0.12))
    (fp_line (start 4.1 -4.7) (end 10.1 -4.7) (layer B.SilkS) (width 0.12))
    (fp_line (start 1.44 -3.81) (end 4.1 -3.81) (layer B.SilkS) (width 0.12))
    (fp_line (start 1.042929 -2.92) (end 1.44 -2.92) (layer B.SilkS) (width 0.12))
    (fp_line (start 1.042929 -2.16) (end 1.44 -2.16) (layer B.SilkS) (width 0.12))
    (fp_line (start 10.1 -2.92) (end 4.1 -2.92) (layer B.SilkS) (width 0.12))
    (fp_line (start 10.1 -2.16) (end 10.1 -2.92) (layer B.SilkS) (width 0.12))
    (fp_line (start 4.1 -2.16) (end 10.1 -2.16) (layer B.SilkS) (width 0.12))
    (fp_line (start 1.44 -1.27) (end 4.1 -1.27) (layer B.SilkS) (width 0.12))
    (fp_line (start 1.11 -0.38) (end 1.44 -0.38) (layer B.SilkS) (width 0.12))
    (fp_line (start 1.11 0.38) (end 1.44 0.38) (layer B.SilkS) (width 0.12))
    (fp_line (start 4.1 -0.28) (end 10.1 -0.28) (layer B.SilkS) (width 0.12))
    (fp_line (start 4.1 -0.16) (end 10.1 -0.16) (layer B.SilkS) (width 0.12))
    (fp_line (start 4.1 -0.04) (end 10.1 -0.04) (layer B.SilkS) (width 0.12))
    (fp_line (start 4.1 0.08) (end 10.1 0.08) (layer B.SilkS) (width 0.12))
    (fp_line (start 4.1 0.2) (end 10.1 0.2) (layer B.SilkS) (width 0.12))
    (fp_line (start 4.1 0.32) (end 10.1 0.32) (layer B.SilkS) (width 0.12))
    (fp_line (start 10.1 -0.38) (end 4.1 -0.38) (layer B.SilkS) (width 0.12))
    (fp_line (start 10.1 0.38) (end 10.1 -0.38) (layer B.SilkS) (width 0.12))
    (fp_line (start 4.1 0.38) (end 10.1 0.38) (layer B.SilkS) (width 0.12))
    (fp_line (start 4.1 1.33) (end 1.44 1.33) (layer B.SilkS) (width 0.12))
    (fp_line (start 4.1 -19.11) (end 4.1 1.33) (layer B.SilkS) (width 0.12))
    (fp_line (start 1.44 -19.11) (end 4.1 -19.11) (layer B.SilkS) (width 0.12))
    (fp_line (start 1.44 1.33) (end 1.44 -19.11) (layer B.SilkS) (width 0.12))
    (fp_line (start 4.04 -18.1) (end 10.04 -18.1) (layer B.Fab) (width 0.1))
    (fp_line (start 10.04 -17.46) (end 10.04 -18.1) (layer B.Fab) (width 0.1))
    (fp_line (start 4.04 -17.46) (end 10.04 -17.46) (layer B.Fab) (width 0.1))
    (fp_line (start -0.32 -18.1) (end 1.5 -18.1) (layer B.Fab) (width 0.1))
    (fp_line (start -0.32 -17.46) (end -0.32 -18.1) (layer B.Fab) (width 0.1))
    (fp_line (start -0.32 -17.46) (end 1.5 -17.46) (layer B.Fab) (width 0.1))
    (fp_line (start 4.04 -15.56) (end 10.04 -15.56) (layer B.Fab) (width 0.1))
    (fp_line (start 10.04 -14.92) (end 10.04 -15.56) (layer B.Fab) (width 0.1))
    (fp_line (start 4.04 -14.92) (end 10.04 -14.92) (layer B.Fab) (width 0.1))
    (fp_line (start -0.32 -15.56) (end 1.5 -15.56) (layer B.Fab) (width 0.1))
    (fp_line (start -0.32 -14.92) (end -0.32 -15.56) (layer B.Fab) (width 0.1))
    (fp_line (start -0.32 -14.92) (end 1.5 -14.92) (layer B.Fab) (width 0.1))
    (fp_line (start 4.04 -13.02) (end 10.04 -13.02) (layer B.Fab) (width 0.1))
    (fp_line (start 10.04 -12.38) (end 10.04 -13.02) (layer B.Fab) (width 0.1))
    (fp_line (start 4.04 -12.38) (end 10.04 -12.38) (layer B.Fab) (width 0.1))
    (fp_line (start -0.32 -13.02) (end 1.5 -13.02) (layer B.Fab) (width 0.1))
    (fp_line (start -0.32 -12.38) (end -0.32 -13.02) (layer B.Fab) (width 0.1))
    (fp_line (start -0.32 -12.38) (end 1.5 -12.38) (layer B.Fab) (width 0.1))
    (fp_line (start 4.04 -10.48) (end 10.04 -10.48) (layer B.Fab) (width 0.1))
    (fp_line (start 10.04 -9.84) (end 10.04 -10.48) (layer B.Fab) (width 0.1))
    (fp_line (start 4.04 -9.84) (end 10.04 -9.84) (layer B.Fab) (width 0.1))
    (fp_line (start -0.32 -10.48) (end 1.5 -10.48) (layer B.Fab) (width 0.1))
    (fp_line (start -0.32 -9.84) (end -0.32 -10.48) (layer B.Fab) (width 0.1))
    (fp_line (start -0.32 -9.84) (end 1.5 -9.84) (layer B.Fab) (width 0.1))
    (fp_line (start 4.04 -7.94) (end 10.04 -7.94) (layer B.Fab) (width 0.1))
    (fp_line (start 10.04 -7.3) (end 10.04 -7.94) (layer B.Fab) (width 0.1))
    (fp_line (start 4.04 -7.3) (end 10.04 -7.3) (layer B.Fab) (width 0.1))
    (fp_line (start -0.32 -7.94) (end 1.5 -7.94) (layer B.Fab) (width 0.1))
    (fp_line (start -0.32 -7.3) (end -0.32 -7.94) (layer B.Fab) (width 0.1))
    (fp_line (start -0.32 -7.3) (end 1.5 -7.3) (layer B.Fab) (width 0.1))
    (fp_line (start 4.04 -5.4) (end 10.04 -5.4) (layer B.Fab) (width 0.1))
    (fp_line (start 10.04 -4.76) (end 10.04 -5.4) (layer B.Fab) (width 0.1))
    (fp_line (start 4.04 -4.76) (end 10.04 -4.76) (layer B.Fab) (width 0.1))
    (fp_line (start -0.32 -5.4) (end 1.5 -5.4) (layer B.Fab) (width 0.1))
    (fp_line (start -0.32 -4.76) (end -0.32 -5.4) (layer B.Fab) (width 0.1))
    (fp_line (start -0.32 -4.76) (end 1.5 -4.76) (layer B.Fab) (width 0.1))
    (fp_line (start 4.04 -2.86) (end 10.04 -2.86) (layer B.Fab) (width 0.1))
    (fp_line (start 10.04 -2.22) (end 10.04 -2.86) (layer B.Fab) (width 0.1))
    (fp_line (start 4.04 -2.22) (end 10.04 -2.22) (layer B.Fab) (width 0.1))
    (fp_line (start -0.32 -2.86) (end 1.5 -2.86) (layer B.Fab) (width 0.1))
    (fp_line (start -0.32 -2.22) (end -0.32 -2.86) (layer B.Fab) (width 0.1))
    (fp_line (start -0.32 -2.22) (end 1.5 -2.22) (layer B.Fab) (width 0.1))
    (fp_line (start 4.04 -0.32) (end 10.04 -0.32) (layer B.Fab) (width 0.1))
    (fp_line (start 10.04 0.32) (end 10.04 -0.32) (layer B.Fab) (width 0.1))
    (fp_line (start 4.04 0.32) (end 10.04 0.32) (layer B.Fab) (width 0.1))
    (fp_line (start -0.32 -0.32) (end 1.5 -0.32) (layer B.Fab) (width 0.1))
    (fp_line (start -0.32 0.32) (end -0.32 -0.32) (layer B.Fab) (width 0.1))
    (fp_line (start -0.32 0.32) (end 1.5 0.32) (layer B.Fab) (width 0.1))
    (fp_line (start 1.5 0.635) (end 2.135 1.27) (layer B.Fab) (width 0.1))
    (fp_line (start 1.5 -19.05) (end 1.5 0.635) (layer B.Fab) (width 0.1))
    (fp_line (start 4.04 -19.05) (end 1.5 -19.05) (layer B.Fab) (width 0.1))
    (fp_line (start 4.04 1.27) (end 4.04 -19.05) (layer B.Fab) (width 0.1))
    (fp_line (start 2.135 1.27) (end 4.04 1.27) (layer B.Fab) (width 0.1))
    (fp_text user %R (at 2.77 -8.89 -90) (layer B.Fab)
      (effects (font (size 1 1) (thickness 0.15)) (justify mirror))
    )
    (pad 1 thru_hole rect (at 0 0 180) (size 1.7 1.7) (drill 1) (layers *.Cu *.Mask)
      (net 5 3.3V))
    (pad 2 thru_hole oval (at 0 -2.54 180) (size 1.7 1.7) (drill 1) (layers *.Cu *.Mask)
      (net 13 GPIO25))
    (pad 3 thru_hole oval (at 0 -5.08 180) (size 1.7 1.7) (drill 1) (layers *.Cu *.Mask)
      (net 2 Ground))
    (pad 4 thru_hole oval (at 0 -7.62 180) (size 1.7 1.7) (drill 1) (layers *.Cu *.Mask)
      (net 32 "Net-(J3-Pad4)"))
    (pad 5 thru_hole oval (at 0 -10.16 180) (size 1.7 1.7) (drill 1) (layers *.Cu *.Mask)
      (net 9 "GPIO9(MISO)"))
    (pad 6 thru_hole oval (at 0 -12.7 180) (size 1.7 1.7) (drill 1) (layers *.Cu *.Mask)
      (net 8 "GPIO10(MOSI)"))
    (pad 7 thru_hole oval (at 0 -15.24 180) (size 1.7 1.7) (drill 1) (layers *.Cu *.Mask)
      (net 10 "GPIO11(SCLK)"))
    (pad 8 thru_hole oval (at 0 -17.78 180) (size 1.7 1.7) (drill 1) (layers *.Cu *.Mask)
      (net 14 "GPIO8(CE0)"))
    (model ${KISYS3DMOD}/Connector_PinHeader_2.54mm.3dshapes/PinHeader_1x08_P2.54mm_Horizontal.wrl
      (at (xyz 0 0 0))
      (scale (xyz 1 1 1))
      (rotate (xyz 0 0 0))
    )
  )

  (gr_line (start 20 48) (end 0 48) (layer F.SilkS) (width 0.12))
  (gr_line (start 20 9) (end 20 48) (layer F.SilkS) (width 0.12))
  (gr_line (start 0 9) (end 20 9) (layer F.SilkS) (width 0.12))
  (gr_line (start 60.5 11.5) (end 33 11.5) (layer F.SilkS) (width 0.12) (tstamp 6189B702))
  (gr_line (start 60.5 39) (end 33 39) (layer F.SilkS) (width 0.12))
  (gr_line (start 60.5 11.5) (end 60.5 39) (layer F.SilkS) (width 0.12))
  (gr_arc (start 3.5 3.5) (end 3.5 0) (angle -90) (layer Edge.Cuts) (width 0.05))
  (gr_arc (start 3.5 52.5) (end 0 52.5) (angle -90) (layer Edge.Cuts) (width 0.05))
  (gr_arc (start 61.5 52.5) (end 61.5 56) (angle -90) (layer Edge.Cuts) (width 0.05))
  (gr_arc (start 61.5 3.5) (end 65 3.5) (angle -90) (layer Edge.Cuts) (width 0.05))
  (gr_line (start 61.5 0) (end 3.5 0) (layer Edge.Cuts) (width 0.05))
  (gr_line (start 65 52.5) (end 65 3.5) (layer Edge.Cuts) (width 0.05))
  (gr_line (start 3.5 56) (end 61.5 56) (layer Edge.Cuts) (width 0.05))
  (gr_line (start 0 3.5) (end 0 52.5) (layer Edge.Cuts) (width 0.05))

  (segment (start 25.104999 4.135001) (end 26.28 2.96) (width 0.25) (layer F.Cu) (net 1))
  (segment (start 17.484999 4.935999) (end 18.285997 4.135001) (width 0.25) (layer F.Cu) (net 1))
  (segment (start 14.469002 8.89) (end 17.484999 5.874003) (width 0.25) (layer F.Cu) (net 1))
  (segment (start 12.7 8.89) (end 14.469002 8.89) (width 0.25) (layer F.Cu) (net 1))
  (segment (start 11.43 10.16) (end 12.7 8.89) (width 0.25) (layer F.Cu) (net 1))
  (segment (start 11.43 38.1) (end 11.43 10.16) (width 0.25) (layer F.Cu) (net 1))
  (segment (start 17.484999 5.874003) (end 17.484999 4.935999) (width 0.25) (layer F.Cu) (net 1))
  (segment (start 12.7 39.37) (end 11.43 38.1) (width 0.25) (layer F.Cu) (net 1))
  (segment (start 18.285997 4.135001) (end 25.104999 4.135001) (width 0.25) (layer F.Cu) (net 1))
  (segment (start 24.13 39.37) (end 12.7 39.37) (width 0.25) (layer F.Cu) (net 1))
  (segment (start 31.76 47) (end 24.13 39.37) (width 0.25) (layer F.Cu) (net 1))
  (segment (start 33 47) (end 31.76 47) (width 0.25) (layer F.Cu) (net 1))
  (segment (start 43 13.58) (end 42.92 13.5) (width 0.5) (layer F.Cu) (net 2))
  (segment (start 42.92 13.5) (end 42.71 13.5) (width 0.5) (layer F.Cu) (net 2))
  (segment (start 27.314999 21.225001) (end 28.54 20) (width 0.25) (layer F.Cu) (net 3))
  (segment (start 27.314999 28.070003) (end 27.314999 21.225001) (width 0.25) (layer F.Cu) (net 3))
  (segment (start 26.67 28.715002) (end 27.314999 28.070003) (width 0.25) (layer F.Cu) (net 3))
  (segment (start 26.67 30.48) (end 26.67 28.715002) (width 0.25) (layer F.Cu) (net 3))
  (segment (start 23.485001 33.664999) (end 26.67 30.48) (width 0.25) (layer F.Cu) (net 3))
  (segment (start 13.344999 33.664999) (end 23.485001 33.664999) (width 0.25) (layer F.Cu) (net 3))
  (segment (start 12.7 33.02) (end 13.344999 33.664999) (width 0.25) (layer F.Cu) (net 3))
  (segment (start 12.7 16.54) (end 12.7 33.02) (width 0.25) (layer F.Cu) (net 3))
  (segment (start 23.74 5.5) (end 12.7 16.54) (width 0.25) (layer F.Cu) (net 3))
  (segment (start 28.54 27) (end 42.85 27) (width 0.25) (layer F.Cu) (net 4))
  (segment (start 54.22 15.63) (end 54.22 5.5) (width 0.25) (layer F.Cu) (net 4))
  (segment (start 42.85 27) (end 54.22 15.63) (width 0.25) (layer F.Cu) (net 4))
  (segment (start 28.82 5.96) (end 28.82 5.5) (width 0.5) (layer F.Cu) (net 5))
  (segment (start 8.5 5.5) (end 8.5 18.66) (width 0.25) (layer B.Cu) (net 5))
  (segment (start 45.46 19.31) (end 45.46 13.5) (width 0.25) (layer B.Cu) (net 5))
  (segment (start 25.4 39.37) (end 45.46 19.31) (width 0.25) (layer B.Cu) (net 5))
  (segment (start 8.5 31.36) (end 16.51 39.37) (width 0.25) (layer B.Cu) (net 5))
  (segment (start 16.51 39.37) (end 25.4 39.37) (width 0.25) (layer B.Cu) (net 5))
  (segment (start 8.5 18.66) (end 8.5 31.36) (width 0.25) (layer B.Cu) (net 5))
  (segment (start 18.2 19.6) (end 18.5 19.6) (width 0.25) (layer B.Cu) (net 5))
  (segment (start 28.82 9.28) (end 28.82 5.5) (width 0.25) (layer B.Cu) (net 5))
  (segment (start 18.5 19.6) (end 28.82 9.28) (width 0.25) (layer B.Cu) (net 5))
  (segment (start 50.54 13.5) (end 50.504999 13.464999) (width 0.5) (layer B.Cu) (net 6))
  (segment (start 50.54 13.5) (end 50.54 21.85) (width 0.25) (layer B.Cu) (net 6))
  (segment (start 50.54 21.85) (end 29.21 43.18) (width 0.25) (layer B.Cu) (net 6))
  (segment (start 8.89 43.18) (end 5.08 39.37) (width 0.25) (layer B.Cu) (net 6))
  (segment (start 5.08 39.37) (end 5.08 11.43) (width 0.25) (layer B.Cu) (net 6))
  (segment (start 5.08 11.43) (end 5.08 11.43) (width 0.25) (layer B.Cu) (net 6) (tstamp 61ACEA9F))
  (via (at 5.08 11.43) (size 0.8) (drill 0.4) (layers F.Cu B.Cu) (net 6))
  (segment (start 5.08 11.43) (end 5.08 10.16) (width 0.25) (layer F.Cu) (net 6))
  (segment (start 5.08 10.16) (end 7.62 7.62) (width 0.25) (layer F.Cu) (net 6))
  (segment (start 8.92 7.62) (end 11.04 5.5) (width 0.25) (layer F.Cu) (net 6))
  (segment (start 7.62 7.62) (end 8.92 7.62) (width 0.25) (layer F.Cu) (net 6))
  (segment (start 8.89 43.18) (end 10.16 44.45) (width 0.25) (layer B.Cu) (net 6))
  (segment (start 10.16 44.45) (end 27.94 44.45) (width 0.25) (layer B.Cu) (net 6))
  (segment (start 27.94 44.45) (end 29.21 43.18) (width 0.25) (layer B.Cu) (net 6))
  (segment (start 48 13.5) (end 48 16.25) (width 0.25) (layer B.Cu) (net 7))
  (segment (start 48 16.25) (end 48 20.58) (width 0.25) (layer B.Cu) (net 7))
  (segment (start 48 20.58) (end 26.67 41.91) (width 0.25) (layer B.Cu) (net 7))
  (segment (start 26.67 41.91) (end 11.43 41.91) (width 0.25) (layer B.Cu) (net 7))
  (segment (start 11.43 41.91) (end 6.35 36.83) (width 0.25) (layer B.Cu) (net 7))
  (segment (start 6.35 36.83) (end 6.35 13.97) (width 0.25) (layer B.Cu) (net 7))
  (segment (start 6.35 13.97) (end 6.35 13.97) (width 0.25) (layer B.Cu) (net 7) (tstamp 61ACEA9C))
  (via (at 6.35 13.97) (size 0.8) (drill 0.4) (layers F.Cu B.Cu) (net 7))
  (segment (start 13.58 6.74) (end 13.58 5.5) (width 0.25) (layer F.Cu) (net 7))
  (segment (start 10.16 10.16) (end 13.58 6.74) (width 0.25) (layer F.Cu) (net 7))
  (segment (start 7.62 10.16) (end 10.16 10.16) (width 0.25) (layer F.Cu) (net 7))
  (segment (start 6.35 11.43) (end 7.62 10.16) (width 0.25) (layer F.Cu) (net 7))
  (segment (start 6.35 13.97) (end 6.35 11.43) (width 0.25) (layer F.Cu) (net 7))
  (segment (start 18.2 32.3) (end 23.58 32.3) (width 0.25) (layer B.Cu) (net 8))
  (segment (start 27.314999 28.565001) (end 27.314999 26.025001) (width 0.25) (layer B.Cu) (net 8))
  (segment (start 23.58 32.3) (end 27.314999 28.565001) (width 0.25) (layer B.Cu) (net 8))
  (segment (start 27.314999 26.025001) (end 31.75 21.59) (width 0.25) (layer B.Cu) (net 8))
  (segment (start 31.75 5.89) (end 31.36 5.5) (width 0.25) (layer B.Cu) (net 8))
  (segment (start 31.75 21.59) (end 31.75 5.89) (width 0.25) (layer B.Cu) (net 8))
  (segment (start 18.2 29.76) (end 21.04 29.76) (width 0.25) (layer F.Cu) (net 9))
  (segment (start 21.04 29.76) (end 24.13 26.67) (width 0.25) (layer F.Cu) (net 9))
  (segment (start 24.13 26.67) (end 24.13 19.05) (width 0.25) (layer F.Cu) (net 9))
  (segment (start 24.13 19.05) (end 33.02 10.16) (width 0.25) (layer F.Cu) (net 9))
  (segment (start 33.02 6.38) (end 33.9 5.5) (width 0.25) (layer F.Cu) (net 9))
  (segment (start 33.02 10.16) (end 33.02 6.38) (width 0.25) (layer F.Cu) (net 9))
  (segment (start 18.2 34.84) (end 23.58 34.84) (width 0.25) (layer B.Cu) (net 10))
  (segment (start 23.58 34.84) (end 34.29 24.13) (width 0.25) (layer B.Cu) (net 10))
  (segment (start 34.29 24.13) (end 34.29 10.16) (width 0.25) (layer B.Cu) (net 10))
  (segment (start 36.44 8.01) (end 36.44 5.5) (width 0.25) (layer B.Cu) (net 10))
  (segment (start 34.29 10.16) (end 36.44 8.01) (width 0.25) (layer B.Cu) (net 10))
  (segment (start 44.45 5.89) (end 44.06 5.5) (width 0.5) (layer F.Cu) (net 26))
  (segment (start 53.34 12.24) (end 46.6 5.5) (width 0.25) (layer B.Cu) (net 11))
  (segment (start 53.34 41.66) (end 53.34 12.24) (width 0.25) (layer B.Cu) (net 11))
  (segment (start 52 43) (end 53.34 41.66) (width 0.25) (layer B.Cu) (net 11))
  (segment (start 32.724999 4.135001) (end 33.9 2.96) (width 0.25) (layer B.Cu) (net 13))
  (segment (start 30.985997 4.135001) (end 32.724999 4.135001) (width 0.25) (layer B.Cu) (net 13))
  (segment (start 30.184999 4.935999) (end 30.985997 4.135001) (width 0.25) (layer B.Cu) (net 13))
  (segment (start 30.184999 10.155001) (end 30.184999 4.935999) (width 0.25) (layer B.Cu) (net 13))
  (segment (start 18.2 22.14) (end 30.184999 10.155001) (width 0.25) (layer B.Cu) (net 13))
  (segment (start 18.2 37.38) (end 23.58 37.38) (width 0.25) (layer B.Cu) (net 14))
  (segment (start 23.58 37.38) (end 35.56 25.4) (width 0.25) (layer B.Cu) (net 14))
  (segment (start 35.56 25.4) (end 35.56 11.43) (width 0.25) (layer B.Cu) (net 14))
  (segment (start 37.804999 4.324999) (end 36.44 2.96) (width 0.25) (layer B.Cu) (net 14))
  (segment (start 37.804999 9.185001) (end 37.804999 4.324999) (width 0.25) (layer B.Cu) (net 14))
  (segment (start 35.56 11.43) (end 37.804999 9.185001) (width 0.25) (layer B.Cu) (net 14))
  (segment (start 54.784001 4.135001) (end 53.665001 4.135001) (width 0.25) (layer F.Cu) (net 15))
  (segment (start 55.395001 4.746001) (end 54.784001 4.135001) (width 0.25) (layer F.Cu) (net 15))
  (segment (start 55.395001 27.104999) (end 55.395001 4.746001) (width 0.25) (layer F.Cu) (net 15))
  (segment (start 39.5 43) (end 55.395001 27.104999) (width 0.25) (layer F.Cu) (net 15))
  (segment (start 51.68 2.96) (end 52.848205 4.128205) (width 0.25) (layer F.Cu) (net 15))
  (segment (start 53.658205 4.128205) (end 53.665001 4.135001) (width 0.25) (layer F.Cu) (net 15))
  (segment (start 52.848205 4.128205) (end 53.658205 4.128205) (width 0.25) (layer F.Cu) (net 15))

  (zone (net 2) (net_name Ground) (layer B.Cu) (tstamp 61B08D4A) (hatch edge 0.508)
    (connect_pads (clearance 0.508))
    (min_thickness 0.254)
    (fill yes (arc_segments 32) (thermal_gap 0.508) (thermal_bridge_width 0.508))
    (polygon
      (pts
        (xy 62.23 54.61) (xy 2.54 54.61) (xy 2.54 1.27) (xy 62.23 1.27)
      )
    )
    (filled_polygon
      (pts
        (xy 62.103 1.601222) (xy 62.079003 1.591282) (xy 61.695505 1.515) (xy 61.304495 1.515) (xy 60.920997 1.591282)
        (xy 60.55975 1.740915) (xy 60.234636 1.958149) (xy 59.958149 2.234636) (xy 59.740915 2.55975) (xy 59.591282 2.920997)
        (xy 59.515 3.304495) (xy 59.515 3.695505) (xy 59.591282 4.079003) (xy 59.740915 4.44025) (xy 59.958149 4.765364)
        (xy 60.234636 5.041851) (xy 60.55975 5.259085) (xy 60.920997 5.408718) (xy 61.304495 5.485) (xy 61.695505 5.485)
        (xy 62.079003 5.408718) (xy 62.103 5.398778) (xy 62.103 50.601222) (xy 62.079003 50.591282) (xy 61.695505 50.515)
        (xy 61.304495 50.515) (xy 60.920997 50.591282) (xy 60.55975 50.740915) (xy 60.234636 50.958149) (xy 59.958149 51.234636)
        (xy 59.740915 51.55975) (xy 59.591282 51.920997) (xy 59.515 52.304495) (xy 59.515 52.695505) (xy 59.591282 53.079003)
        (xy 59.740915 53.44025) (xy 59.958149 53.765364) (xy 60.234636 54.041851) (xy 60.55975 54.259085) (xy 60.920997 54.408718)
        (xy 61.29444 54.483) (xy 3.70556 54.483) (xy 4.079003 54.408718) (xy 4.44025 54.259085) (xy 4.765364 54.041851)
        (xy 5.041851 53.765364) (xy 5.259085 53.44025) (xy 5.408718 53.079003) (xy 5.485 52.695505) (xy 5.485 52.304495)
        (xy 5.408718 51.920997) (xy 5.259085 51.55975) (xy 5.041851 51.234636) (xy 4.765364 50.958149) (xy 4.44025 50.740915)
        (xy 4.079003 50.591282) (xy 3.695505 50.515) (xy 3.304495 50.515) (xy 2.920997 50.591282) (xy 2.667 50.696491)
        (xy 2.667 48.135413) (xy 24.444192 48.135413) (xy 24.539956 48.399814) (xy 24.829571 48.540704) (xy 25.141108 48.622384)
        (xy 25.462595 48.641718) (xy 25.781675 48.597961) (xy 26.086088 48.492795) (xy 26.260044 48.399814) (xy 26.355808 48.135413)
        (xy 25.4 47.179605) (xy 24.444192 48.135413) (xy 2.667 48.135413) (xy 2.667 47.062595) (xy 23.758282 47.062595)
        (xy 23.802039 47.381675) (xy 23.907205 47.686088) (xy 24.000186 47.860044) (xy 24.264587 47.955808) (xy 25.220395 47)
        (xy 25.579605 47) (xy 26.535413 47.955808) (xy 26.799814 47.860044) (xy 26.940704 47.570429) (xy 27.022384 47.258892)
        (xy 27.041718 46.937405) (xy 26.997961 46.618325) (xy 26.892795 46.313912) (xy 26.799814 46.139956) (xy 26.535413 46.044192)
        (xy 25.579605 47) (xy 25.220395 47) (xy 24.264587 46.044192) (xy 24.000186 46.139956) (xy 23.859296 46.429571)
        (xy 23.777616 46.741108) (xy 23.758282 47.062595) (xy 2.667 47.062595) (xy 2.667 45.864587) (xy 24.444192 45.864587)
        (xy 25.4 46.820395) (xy 26.220395 46) (xy 31.361928 46) (xy 31.361928 48) (xy 31.374188 48.124482)
        (xy 31.410498 48.24418) (xy 31.469463 48.354494) (xy 31.548815 48.451185) (xy 31.645506 48.530537) (xy 31.75582 48.589502)
        (xy 31.875518 48.625812) (xy 32 48.638072) (xy 34 48.638072) (xy 34.124482 48.625812) (xy 34.24418 48.589502)
        (xy 34.354494 48.530537) (xy 34.451185 48.451185) (xy 34.530537 48.354494) (xy 34.589502 48.24418) (xy 34.625812 48.124482)
        (xy 34.638072 48) (xy 34.638072 47.338967) (xy 37.865 47.338967) (xy 37.865 47.661033) (xy 37.927832 47.976912)
        (xy 38.051082 48.274463) (xy 38.230013 48.542252) (xy 38.457748 48.769987) (xy 38.725537 48.948918) (xy 39.023088 49.072168)
        (xy 39.338967 49.135) (xy 39.661033 49.135) (xy 39.976912 49.072168) (xy 40.274463 48.948918) (xy 40.542252 48.769987)
        (xy 40.769987 48.542252) (xy 40.948918 48.274463) (xy 41.072168 47.976912) (xy 41.135 47.661033) (xy 41.135 47.338967)
        (xy 44.365 47.338967) (xy 44.365 47.661033) (xy 44.427832 47.976912) (xy 44.551082 48.274463) (xy 44.730013 48.542252)
        (xy 44.957748 48.769987) (xy 45.225537 48.948918) (xy 45.523088 49.072168) (xy 45.838967 49.135) (xy 46.161033 49.135)
        (xy 46.476912 49.072168) (xy 46.774463 48.948918) (xy 47.042252 48.769987) (xy 47.269987 48.542252) (xy 47.448918 48.274463)
        (xy 47.572168 47.976912) (xy 47.635 47.661033) (xy 47.635 47.338967) (xy 50.365 47.338967) (xy 50.365 47.661033)
        (xy 50.427832 47.976912) (xy 50.551082 48.274463) (xy 50.730013 48.542252) (xy 50.957748 48.769987) (xy 51.225537 48.948918)
        (xy 51.523088 49.072168) (xy 51.838967 49.135) (xy 52.161033 49.135) (xy 52.476912 49.072168) (xy 52.774463 48.948918)
        (xy 53.042252 48.769987) (xy 53.269987 48.542252) (xy 53.448918 48.274463) (xy 53.572168 47.976912) (xy 53.635 47.661033)
        (xy 53.635 47.338967) (xy 56.865 47.338967) (xy 56.865 47.661033) (xy 56.927832 47.976912) (xy 57.051082 48.274463)
        (xy 57.230013 48.542252) (xy 57.457748 48.769987) (xy 57.725537 48.948918) (xy 58.023088 49.072168) (xy 58.338967 49.135)
        (xy 58.661033 49.135) (xy 58.976912 49.072168) (xy 59.274463 48.948918) (xy 59.542252 48.769987) (xy 59.769987 48.542252)
        (xy 59.948918 48.274463) (xy 60.072168 47.976912) (xy 60.135 47.661033) (xy 60.135 47.338967) (xy 60.072168 47.023088)
        (xy 59.948918 46.725537) (xy 59.769987 46.457748) (xy 59.542252 46.230013) (xy 59.274463 46.051082) (xy 58.976912 45.927832)
        (xy 58.661033 45.865) (xy 58.338967 45.865) (xy 58.023088 45.927832) (xy 57.725537 46.051082) (xy 57.457748 46.230013)
        (xy 57.230013 46.457748) (xy 57.051082 46.725537) (xy 56.927832 47.023088) (xy 56.865 47.338967) (xy 53.635 47.338967)
        (xy 53.572168 47.023088) (xy 53.448918 46.725537) (xy 53.269987 46.457748) (xy 53.042252 46.230013) (xy 52.774463 46.051082)
        (xy 52.476912 45.927832) (xy 52.161033 45.865) (xy 51.838967 45.865) (xy 51.523088 45.927832) (xy 51.225537 46.051082)
        (xy 50.957748 46.230013) (xy 50.730013 46.457748) (xy 50.551082 46.725537) (xy 50.427832 47.023088) (xy 50.365 47.338967)
        (xy 47.635 47.338967) (xy 47.572168 47.023088) (xy 47.448918 46.725537) (xy 47.269987 46.457748) (xy 47.042252 46.230013)
        (xy 46.774463 46.051082) (xy 46.476912 45.927832) (xy 46.161033 45.865) (xy 45.838967 45.865) (xy 45.523088 45.927832)
        (xy 45.225537 46.051082) (xy 44.957748 46.230013) (xy 44.730013 46.457748) (xy 44.551082 46.725537) (xy 44.427832 47.023088)
        (xy 44.365 47.338967) (xy 41.135 47.338967) (xy 41.072168 47.023088) (xy 40.948918 46.725537) (xy 40.769987 46.457748)
        (xy 40.542252 46.230013) (xy 40.274463 46.051082) (xy 39.976912 45.927832) (xy 39.661033 45.865) (xy 39.338967 45.865)
        (xy 39.023088 45.927832) (xy 38.725537 46.051082) (xy 38.457748 46.230013) (xy 38.230013 46.457748) (xy 38.051082 46.725537)
        (xy 37.927832 47.023088) (xy 37.865 47.338967) (xy 34.638072 47.338967) (xy 34.638072 46) (xy 34.625812 45.875518)
        (xy 34.589502 45.75582) (xy 34.530537 45.645506) (xy 34.451185 45.548815) (xy 34.354494 45.469463) (xy 34.24418 45.410498)
        (xy 34.124482 45.374188) (xy 34 45.361928) (xy 32 45.361928) (xy 31.875518 45.374188) (xy 31.75582 45.410498)
        (xy 31.645506 45.469463) (xy 31.548815 45.548815) (xy 31.469463 45.645506) (xy 31.410498 45.75582) (xy 31.374188 45.875518)
        (xy 31.361928 46) (xy 26.220395 46) (xy 26.355808 45.864587) (xy 26.260044 45.600186) (xy 25.970429 45.459296)
        (xy 25.658892 45.377616) (xy 25.337405 45.358282) (xy 25.018325 45.402039) (xy 24.713912 45.507205) (xy 24.539956 45.600186)
        (xy 24.444192 45.864587) (xy 2.667 45.864587) (xy 2.667 11.328061) (xy 4.045 11.328061) (xy 4.045 11.531939)
        (xy 4.084774 11.731898) (xy 4.162795 11.920256) (xy 4.276063 12.089774) (xy 4.320001 12.133712) (xy 4.32 39.332678)
        (xy 4.316324 39.37) (xy 4.32 39.407322) (xy 4.32 39.407332) (xy 4.330997 39.518985) (xy 4.374454 39.662246)
        (xy 4.445026 39.794276) (xy 4.484871 39.842826) (xy 4.539999 39.910001) (xy 4.569003 39.933804) (xy 8.378997 43.743799)
        (xy 8.379002 43.743803) (xy 9.596201 44.961003) (xy 9.619999 44.990001) (xy 9.735724 45.084974) (xy 9.867753 45.155546)
        (xy 10.011014 45.199003) (xy 10.122667 45.21) (xy 10.122676 45.21) (xy 10.159999 45.213676) (xy 10.197322 45.21)
        (xy 27.902678 45.21) (xy 27.94 45.213676) (xy 27.977322 45.21) (xy 27.977333 45.21) (xy 28.088986 45.199003)
        (xy 28.232247 45.155546) (xy 28.364276 45.084974) (xy 28.480001 44.990001) (xy 28.503804 44.960997) (xy 29.773799 43.691003)
        (xy 29.773804 43.690997) (xy 30.625834 42.838967) (xy 37.865 42.838967) (xy 37.865 43.161033) (xy 37.927832 43.476912)
        (xy 38.051082 43.774463) (xy 38.230013 44.042252) (xy 38.457748 44.269987) (xy 38.725537 44.448918) (xy 39.023088 44.572168)
        (xy 39.338967 44.635) (xy 39.661033 44.635) (xy 39.976912 44.572168) (xy 40.274463 44.448918) (xy 40.542252 44.269987)
        (xy 40.676826 44.135413) (xy 45.044192 44.135413) (xy 45.139956 44.399814) (xy 45.429571 44.540704) (xy 45.741108 44.622384)
        (xy 46.062595 44.641718) (xy 46.381675 44.597961) (xy 46.686088 44.492795) (xy 46.860044 44.399814) (xy 46.955808 44.135413)
        (xy 46 43.179605) (xy 45.044192 44.135413) (xy 40.676826 44.135413) (xy 40.769987 44.042252) (xy 40.948918 43.774463)
        (xy 41.072168 43.476912) (xy 41.135 43.161033) (xy 41.135 43.062595) (xy 44.358282 43.062595) (xy 44.402039 43.381675)
        (xy 44.507205 43.686088) (xy 44.600186 43.860044) (xy 44.864587 43.955808) (xy 45.820395 43) (xy 46.179605 43)
        (xy 47.135413 43.955808) (xy 47.399814 43.860044) (xy 47.540704 43.570429) (xy 47.622384 43.258892) (xy 47.641718 42.937405)
        (xy 47.597961 42.618325) (xy 47.492795 42.313912) (xy 47.399814 42.139956) (xy 47.135413 42.044192) (xy 46.179605 43)
        (xy 45.820395 43) (xy 44.864587 42.044192) (xy 44.600186 42.139956) (xy 44.459296 42.429571) (xy 44.377616 42.741108)
        (xy 44.358282 43.062595) (xy 41.135 43.062595) (xy 41.135 42.838967) (xy 41.072168 42.523088) (xy 40.948918 42.225537)
        (xy 40.769987 41.957748) (xy 40.676826 41.864587) (xy 45.044192 41.864587) (xy 46 42.820395) (xy 46.955808 41.864587)
        (xy 46.860044 41.600186) (xy 46.570429 41.459296) (xy 46.258892 41.377616) (xy 45.937405 41.358282) (xy 45.618325 41.402039)
        (xy 45.313912 41.507205) (xy 45.139956 41.600186) (xy 45.044192 41.864587) (xy 40.676826 41.864587) (xy 40.542252 41.730013)
        (xy 40.274463 41.551082) (xy 39.976912 41.427832) (xy 39.661033 41.365) (xy 39.338967 41.365) (xy 39.023088 41.427832)
        (xy 38.725537 41.551082) (xy 38.457748 41.730013) (xy 38.230013 41.957748) (xy 38.051082 42.225537) (xy 37.927832 42.523088)
        (xy 37.865 42.838967) (xy 30.625834 42.838967) (xy 51.051003 22.413799) (xy 51.080001 22.390001) (xy 51.174974 22.274276)
        (xy 51.245546 22.142247) (xy 51.289003 21.998986) (xy 51.3 21.887333) (xy 51.3 21.887324) (xy 51.303676 21.850001)
        (xy 51.3 21.812678) (xy 51.3 14.778178) (xy 51.486632 14.653475) (xy 51.693475 14.446632) (xy 51.85599 14.203411)
        (xy 51.967932 13.933158) (xy 52.025 13.64626) (xy 52.025 13.35374) (xy 51.967932 13.066842) (xy 51.85599 12.796589)
        (xy 51.693475 12.553368) (xy 51.486632 12.346525) (xy 51.243411 12.18401) (xy 50.973158 12.072068) (xy 50.68626 12.015)
        (xy 50.39374 12.015) (xy 50.106842 12.072068) (xy 49.836589 12.18401) (xy 49.593368 12.346525) (xy 49.386525 12.553368)
        (xy 49.27 12.72776) (xy 49.153475 12.553368) (xy 48.946632 12.346525) (xy 48.703411 12.18401) (xy 48.433158 12.072068)
        (xy 48.14626 12.015) (xy 47.85374 12.015) (xy 47.566842 12.072068) (xy 47.296589 12.18401) (xy 47.053368 12.346525)
        (xy 46.846525 12.553368) (xy 46.73 12.72776) (xy 46.613475 12.553368) (xy 46.406632 12.346525) (xy 46.163411 12.18401)
        (xy 45.893158 12.072068) (xy 45.60626 12.015) (xy 45.31374 12.015) (xy 45.026842 12.072068) (xy 44.756589 12.18401)
        (xy 44.513368 12.346525) (xy 44.381513 12.47838) (xy 44.359502 12.40582) (xy 44.300537 12.295506) (xy 44.221185 12.198815)
        (xy 44.124494 12.119463) (xy 44.01418 12.060498) (xy 43.894482 12.024188) (xy 43.77 12.011928) (xy 43.20575 12.015)
        (xy 43.047 12.17375) (xy 43.047 13.373) (xy 43.067 13.373) (xy 43.067 13.627) (xy 43.047 13.627)
        (xy 43.047 14.82625) (xy 43.20575 14.985) (xy 43.77 14.988072) (xy 43.894482 14.975812) (xy 44.01418 14.939502)
        (xy 44.124494 14.880537) (xy 44.221185 14.801185) (xy 44.300537 14.704494) (xy 44.359502 14.59418) (xy 44.381513 14.52162)
        (xy 44.513368 14.653475) (xy 44.700001 14.778179) (xy 44.7 18.995198) (xy 25.085199 38.61) (xy 19.032104 38.61)
        (xy 19.146632 38.533475) (xy 19.353475 38.326632) (xy 19.478178 38.14) (xy 23.542678 38.14) (xy 23.58 38.143676)
        (xy 23.617322 38.14) (xy 23.617333 38.14) (xy 23.728986 38.129003) (xy 23.872247 38.085546) (xy 24.004276 38.014974)
        (xy 24.120001 37.920001) (xy 24.143804 37.890997) (xy 36.07101 25.963793) (xy 36.100001 25.940001) (xy 36.123795 25.911008)
        (xy 36.123799 25.911004) (xy 36.194973 25.824277) (xy 36.194974 25.824276) (xy 36.265546 25.692247) (xy 36.309003 25.548986)
        (xy 36.32 25.437333) (xy 36.32 25.437324) (xy 36.323676 25.400001) (xy 36.32 25.362678) (xy 36.32 14.35)
        (xy 41.431928 14.35) (xy 41.444188 14.474482) (xy 41.480498 14.59418) (xy 41.539463 14.704494) (xy 41.618815 14.801185)
        (xy 41.715506 14.880537) (xy 41.82582 14.939502) (xy 41.945518 14.975812) (xy 42.07 14.988072) (xy 42.63425 14.985)
        (xy 42.793 14.82625) (xy 42.793 13.627) (xy 41.59375 13.627) (xy 41.435 13.78575) (xy 41.431928 14.35)
        (xy 36.32 14.35) (xy 36.32 12.65) (xy 41.431928 12.65) (xy 41.435 13.21425) (xy 41.59375 13.373)
        (xy 42.793 13.373) (xy 42.793 12.17375) (xy 42.63425 12.015) (xy 42.07 12.011928) (xy 41.945518 12.024188)
        (xy 41.82582 12.060498) (xy 41.715506 12.119463) (xy 41.618815 12.198815) (xy 41.539463 12.295506) (xy 41.480498 12.40582)
        (xy 41.444188 12.525518) (xy 41.431928 12.65) (xy 36.32 12.65) (xy 36.32 11.744801) (xy 38.316003 9.748799)
        (xy 38.345 9.725002) (xy 38.431174 9.619999) (xy 38.439973 9.609278) (xy 38.510545 9.477248) (xy 38.525185 9.428985)
        (xy 38.554002 9.333987) (xy 38.564999 9.222334) (xy 38.564999 9.222325) (xy 38.568675 9.185002) (xy 38.564999 9.147679)
        (xy 38.564999 6.92385) (xy 38.62311 6.941476) (xy 38.853 6.820155) (xy 38.853 5.627) (xy 38.833 5.627)
        (xy 38.833 5.373) (xy 38.853 5.373) (xy 38.853 5.353) (xy 39.107 5.353) (xy 39.107 5.373)
        (xy 39.127 5.373) (xy 39.127 5.627) (xy 39.107 5.627) (xy 39.107 6.820155) (xy 39.33689 6.941476)
        (xy 39.484099 6.896825) (xy 39.74692 6.771641) (xy 39.980269 6.597588) (xy 40.175178 6.381355) (xy 40.244805 6.264466)
        (xy 40.366525 6.446632) (xy 40.573368 6.653475) (xy 40.816589 6.81599) (xy 41.086842 6.927932) (xy 41.37374 6.985)
        (xy 41.66626 6.985) (xy 41.953158 6.927932) (xy 42.223411 6.81599) (xy 42.466632 6.653475) (xy 42.673475 6.446632)
        (xy 42.79 6.27224) (xy 42.906525 6.446632) (xy 43.113368 6.653475) (xy 43.356589 6.81599) (xy 43.626842 6.927932)
        (xy 43.91374 6.985) (xy 44.20626 6.985) (xy 44.493158 6.927932) (xy 44.763411 6.81599) (xy 45.006632 6.653475)
        (xy 45.213475 6.446632) (xy 45.33 6.27224) (xy 45.446525 6.446632) (xy 45.653368 6.653475) (xy 45.896589 6.81599)
        (xy 46.166842 6.927932) (xy 46.45374 6.985) (xy 46.74626 6.985) (xy 46.966408 6.941209) (xy 52.580001 12.554804)
        (xy 52.58 41.345198) (xy 52.491375 41.433823) (xy 52.476912 41.427832) (xy 52.161033 41.365) (xy 51.838967 41.365)
        (xy 51.523088 41.427832) (xy 51.225537 41.551082) (xy 50.957748 41.730013) (xy 50.730013 41.957748) (xy 50.551082 42.225537)
        (xy 50.427832 42.523088) (xy 50.365 42.838967) (xy 50.365 43.161033) (xy 50.427832 43.476912) (xy 50.551082 43.774463)
        (xy 50.730013 44.042252) (xy 50.957748 44.269987) (xy 51.225537 44.448918) (xy 51.523088 44.572168) (xy 51.838967 44.635)
        (xy 52.161033 44.635) (xy 52.476912 44.572168) (xy 52.774463 44.448918) (xy 53.042252 44.269987) (xy 53.176826 44.135413)
        (xy 57.544192 44.135413) (xy 57.639956 44.399814) (xy 57.929571 44.540704) (xy 58.241108 44.622384) (xy 58.562595 44.641718)
        (xy 58.881675 44.597961) (xy 59.186088 44.492795) (xy 59.360044 44.399814) (xy 59.455808 44.135413) (xy 58.5 43.179605)
        (xy 57.544192 44.135413) (xy 53.176826 44.135413) (xy 53.269987 44.042252) (xy 53.448918 43.774463) (xy 53.572168 43.476912)
        (xy 53.635 43.161033) (xy 53.635 43.062595) (xy 56.858282 43.062595) (xy 56.902039 43.381675) (xy 57.007205 43.686088)
        (xy 57.100186 43.860044) (xy 57.364587 43.955808) (xy 58.320395 43) (xy 58.679605 43) (xy 59.635413 43.955808)
        (xy 59.899814 43.860044) (xy 60.040704 43.570429) (xy 60.122384 43.258892) (xy 60.141718 42.937405) (xy 60.097961 42.618325)
        (xy 59.992795 42.313912) (xy 59.899814 42.139956) (xy 59.635413 42.044192) (xy 58.679605 43) (xy 58.320395 43)
        (xy 57.364587 42.044192) (xy 57.100186 42.139956) (xy 56.959296 42.429571) (xy 56.877616 42.741108) (xy 56.858282 43.062595)
        (xy 53.635 43.062595) (xy 53.635 42.838967) (xy 53.572168 42.523088) (xy 53.566177 42.508625) (xy 53.851004 42.223798)
        (xy 53.880001 42.200001) (xy 53.974974 42.084276) (xy 54.045546 41.952247) (xy 54.072136 41.864587) (xy 57.544192 41.864587)
        (xy 58.5 42.820395) (xy 59.455808 41.864587) (xy 59.360044 41.600186) (xy 59.070429 41.459296) (xy 58.758892 41.377616)
        (xy 58.437405 41.358282) (xy 58.118325 41.402039) (xy 57.813912 41.507205) (xy 57.639956 41.600186) (xy 57.544192 41.864587)
        (xy 54.072136 41.864587) (xy 54.089003 41.808986) (xy 54.1 41.697333) (xy 54.1 41.697324) (xy 54.103676 41.660001)
        (xy 54.1 41.622678) (xy 54.1 12.277322) (xy 54.103676 12.239999) (xy 54.1 12.202676) (xy 54.1 12.202667)
        (xy 54.089003 12.091014) (xy 54.045546 11.947753) (xy 53.974974 11.815724) (xy 53.961811 11.799685) (xy 53.903799 11.728996)
        (xy 53.903795 11.728992) (xy 53.880001 11.699999) (xy 53.851008 11.676205) (xy 49.159802 6.985) (xy 49.28626 6.985)
        (xy 49.573158 6.927932) (xy 49.843411 6.81599) (xy 50.086632 6.653475) (xy 50.293475 6.446632) (xy 50.41 6.27224)
        (xy 50.526525 6.446632) (xy 50.733368 6.653475) (xy 50.976589 6.81599) (xy 51.246842 6.927932) (xy 51.53374 6.985)
        (xy 51.82626 6.985) (xy 52.113158 6.927932) (xy 52.383411 6.81599) (xy 52.626632 6.653475) (xy 52.833475 6.446632)
        (xy 52.95 6.27224) (xy 53.066525 6.446632) (xy 53.273368 6.653475) (xy 53.516589 6.81599) (xy 53.786842 6.927932)
        (xy 54.07374 6.985) (xy 54.36626 6.985) (xy 54.653158 6.927932) (xy 54.923411 6.81599) (xy 55.166632 6.653475)
        (xy 55.373475 6.446632) (xy 55.495195 6.264466) (xy 55.564822 6.381355) (xy 55.759731 6.597588) (xy 55.99308 6.771641)
        (xy 56.255901 6.896825) (xy 56.40311 6.941476) (xy 56.633 6.820155) (xy 56.633 5.627) (xy 56.887 5.627)
        (xy 56.887 6.820155) (xy 57.11689 6.941476) (xy 57.264099 6.896825) (xy 57.52692 6.771641) (xy 57.760269 6.597588)
        (xy 57.955178 6.381355) (xy 58.104157 6.131252) (xy 58.201481 5.856891) (xy 58.080814 5.627) (xy 56.887 5.627)
        (xy 56.633 5.627) (xy 56.613 5.627) (xy 56.613 5.373) (xy 56.633 5.373) (xy 56.633 5.353)
        (xy 56.887 5.353) (xy 56.887 5.373) (xy 58.080814 5.373) (xy 58.201481 5.143109) (xy 58.104157 4.868748)
        (xy 57.955178 4.618645) (xy 57.760269 4.402412) (xy 57.530594 4.2311) (xy 57.706632 4.113475) (xy 57.913475 3.906632)
        (xy 58.07599 3.663411) (xy 58.187932 3.393158) (xy 58.245 3.10626) (xy 58.245 2.81374) (xy 58.187932 2.526842)
        (xy 58.07599 2.256589) (xy 57.913475 2.013368) (xy 57.706632 1.806525) (xy 57.463411 1.64401) (xy 57.193158 1.532068)
        (xy 56.90626 1.475) (xy 56.61374 1.475) (xy 56.326842 1.532068) (xy 56.056589 1.64401) (xy 55.813368 1.806525)
        (xy 55.606525 2.013368) (xy 55.49 2.18776) (xy 55.373475 2.013368) (xy 55.166632 1.806525) (xy 54.923411 1.64401)
        (xy 54.653158 1.532068) (xy 54.36626 1.475) (xy 54.07374 1.475) (xy 53.786842 1.532068) (xy 53.516589 1.64401)
        (xy 53.273368 1.806525) (xy 53.066525 2.013368) (xy 52.95 2.18776) (xy 52.833475 2.013368) (xy 52.626632 1.806525)
        (xy 52.383411 1.64401) (xy 52.113158 1.532068) (xy 51.82626 1.475) (xy 51.53374 1.475) (xy 51.246842 1.532068)
        (xy 50.976589 1.64401) (xy 50.733368 1.806525) (xy 50.526525 2.013368) (xy 50.404805 2.195534) (xy 50.335178 2.078645)
        (xy 50.140269 1.862412) (xy 49.90692 1.688359) (xy 49.644099 1.563175) (xy 49.49689 1.518524) (xy 49.267 1.639845)
        (xy 49.267 2.833) (xy 49.287 2.833) (xy 49.287 3.087) (xy 49.267 3.087) (xy 49.267 3.107)
        (xy 49.013 3.107) (xy 49.013 3.087) (xy 48.993 3.087) (xy 48.993 2.833) (xy 49.013 2.833)
        (xy 49.013 1.639845) (xy 48.78311 1.518524) (xy 48.635901 1.563175) (xy 48.37308 1.688359) (xy 48.139731 1.862412)
        (xy 47.944822 2.078645) (xy 47.875195 2.195534) (xy 47.753475 2.013368) (xy 47.546632 1.806525) (xy 47.303411 1.64401)
        (xy 47.033158 1.532068) (xy 46.74626 1.475) (xy 46.45374 1.475) (xy 46.166842 1.532068) (xy 45.896589 1.64401)
        (xy 45.653368 1.806525) (xy 45.446525 2.013368) (xy 45.324805 2.195534) (xy 45.255178 2.078645) (xy 45.060269 1.862412)
        (xy 44.82692 1.688359) (xy 44.564099 1.563175) (xy 44.41689 1.518524) (xy 44.187 1.639845) (xy 44.187 2.833)
        (xy 44.207 2.833) (xy 44.207 3.087) (xy 44.187 3.087) (xy 44.187 3.107) (xy 43.933 3.107)
        (xy 43.933 3.087) (xy 43.913 3.087) (xy 43.913 2.833) (xy 43.933 2.833) (xy 43.933 1.639845)
        (xy 43.70311 1.518524) (xy 43.555901 1.563175) (xy 43.29308 1.688359) (xy 43.059731 1.862412) (xy 42.864822 2.078645)
        (xy 42.795195 2.195534) (xy 42.673475 2.013368) (xy 42.466632 1.806525) (xy 42.223411 1.64401) (xy 41.953158 1.532068)
        (xy 41.66626 1.475) (xy 41.37374 1.475) (xy 41.086842 1.532068) (xy 40.816589 1.64401) (xy 40.573368 1.806525)
        (xy 40.366525 2.013368) (xy 40.25 2.18776) (xy 40.133475 2.013368) (xy 39.926632 1.806525) (xy 39.683411 1.64401)
        (xy 39.413158 1.532068) (xy 39.12626 1.475) (xy 38.83374 1.475) (xy 38.546842 1.532068) (xy 38.276589 1.64401)
        (xy 38.033368 1.806525) (xy 37.826525 2.013368) (xy 37.71 2.18776) (xy 37.593475 2.013368) (xy 37.386632 1.806525)
        (xy 37.143411 1.64401) (xy 36.873158 1.532068) (xy 36.58626 1.475) (xy 36.29374 1.475) (xy 36.006842 1.532068)
        (xy 35.736589 1.64401) (xy 35.493368 1.806525) (xy 35.286525 2.013368) (xy 35.17 2.18776) (xy 35.053475 2.013368)
        (xy 34.846632 1.806525) (xy 34.603411 1.64401) (xy 34.333158 1.532068) (xy 34.04626 1.475) (xy 33.75374 1.475)
        (xy 33.466842 1.532068) (xy 33.196589 1.64401) (xy 32.953368 1.806525) (xy 32.746525 2.013368) (xy 32.624805 2.195534)
        (xy 32.555178 2.078645) (xy 32.360269 1.862412) (xy 32.12692 1.688359) (xy 31.864099 1.563175) (xy 31.71689 1.518524)
        (xy 31.487 1.639845) (xy 31.487 2.833) (xy 31.507 2.833) (xy 31.507 3.087) (xy 31.487 3.087)
        (xy 31.487 3.107) (xy 31.233 3.107) (xy 31.233 3.087) (xy 31.213 3.087) (xy 31.213 2.833)
        (xy 31.233 2.833) (xy 31.233 1.639845) (xy 31.00311 1.518524) (xy 30.855901 1.563175) (xy 30.59308 1.688359)
        (xy 30.359731 1.862412) (xy 30.164822 2.078645) (xy 30.095195 2.195534) (xy 29.973475 2.013368) (xy 29.766632 1.806525)
        (xy 29.523411 1.64401) (xy 29.253158 1.532068) (xy 28.96626 1.475) (xy 28.67374 1.475) (xy 28.386842 1.532068)
        (xy 28.116589 1.64401) (xy 27.873368 1.806525) (xy 27.666525 2.013368) (xy 27.55 2.18776) (xy 27.433475 2.013368)
        (xy 27.226632 1.806525) (xy 26.983411 1.64401) (xy 26.713158 1.532068) (xy 26.42626 1.475) (xy 26.13374 1.475)
        (xy 25.846842 1.532068) (xy 25.576589 1.64401) (xy 25.333368 1.806525) (xy 25.126525 2.013368) (xy 25.004805 2.195534)
        (xy 24.935178 2.078645) (xy 24.740269 1.862412) (xy 24.50692 1.688359) (xy 24.244099 1.563175) (xy 24.09689 1.518524)
        (xy 23.867 1.639845) (xy 23.867 2.833) (xy 23.887 2.833) (xy 23.887 3.087) (xy 23.867 3.087)
        (xy 23.867 3.107) (xy 23.613 3.107) (xy 23.613 3.087) (xy 23.593 3.087) (xy 23.593 2.833)
        (xy 23.613 2.833) (xy 23.613 1.639845) (xy 23.38311 1.518524) (xy 23.235901 1.563175) (xy 22.97308 1.688359)
        (xy 22.739731 1.862412) (xy 22.544822 2.078645) (xy 22.475195 2.195534) (xy 22.353475 2.013368) (xy 22.146632 1.806525)
        (xy 21.903411 1.64401) (xy 21.633158 1.532068) (xy 21.34626 1.475) (xy 21.05374 1.475) (xy 20.766842 1.532068)
        (xy 20.496589 1.64401) (xy 20.253368 1.806525) (xy 20.046525 2.013368) (xy 19.93 2.18776) (xy 19.813475 2.013368)
        (xy 19.606632 1.806525) (xy 19.363411 1.64401) (xy 19.093158 1.532068) (xy 18.80626 1.475) (xy 18.51374 1.475)
        (xy 18.226842 1.532068) (xy 17.956589 1.64401) (xy 17.713368 1.806525) (xy 17.506525 2.013368) (xy 17.39 2.18776)
        (xy 17.273475 2.013368) (xy 17.066632 1.806525) (xy 16.823411 1.64401) (xy 16.553158 1.532068) (xy 16.26626 1.475)
        (xy 15.97374 1.475) (xy 15.686842 1.532068) (xy 15.416589 1.64401) (xy 15.173368 1.806525) (xy 14.966525 2.013368)
        (xy 14.844805 2.195534) (xy 14.775178 2.078645) (xy 14.580269 1.862412) (xy 14.34692 1.688359) (xy 14.084099 1.563175)
        (xy 13.93689 1.518524) (xy 13.707 1.639845) (xy 13.707 2.833) (xy 13.727 2.833) (xy 13.727 3.087)
        (xy 13.707 3.087) (xy 13.707 3.107) (xy 13.453 3.107) (xy 13.453 3.087) (xy 13.433 3.087)
        (xy 13.433 2.833) (xy 13.453 2.833) (xy 13.453 1.639845) (xy 13.22311 1.518524) (xy 13.075901 1.563175)
        (xy 12.81308 1.688359) (xy 12.579731 1.862412) (xy 12.384822 2.078645) (xy 12.315195 2.195534) (xy 12.193475 2.013368)
        (xy 11.986632 1.806525) (xy 11.743411 1.64401) (xy 11.473158 1.532068) (xy 11.18626 1.475) (xy 10.89374 1.475)
        (xy 10.606842 1.532068) (xy 10.336589 1.64401) (xy 10.093368 1.806525) (xy 9.886525 2.013368) (xy 9.77 2.18776)
        (xy 9.653475 2.013368) (xy 9.446632 1.806525) (xy 9.203411 1.64401) (xy 8.933158 1.532068) (xy 8.64626 1.475)
        (xy 8.35374 1.475) (xy 8.066842 1.532068) (xy 7.796589 1.64401) (xy 7.553368 1.806525) (xy 7.346525 2.013368)
        (xy 7.18401 2.256589) (xy 7.072068 2.526842) (xy 7.015 2.81374) (xy 7.015 3.10626) (xy 7.072068 3.393158)
        (xy 7.18401 3.663411) (xy 7.346525 3.906632) (xy 7.47838 4.038487) (xy 7.40582 4.060498) (xy 7.295506 4.119463)
        (xy 7.198815 4.198815) (xy 7.119463 4.295506) (xy 7.060498 4.40582) (xy 7.024188 4.525518) (xy 7.011928 4.65)
        (xy 7.011928 6.35) (xy 7.024188 6.474482) (xy 7.060498 6.59418) (xy 7.119463 6.704494) (xy 7.198815 6.801185)
        (xy 7.295506 6.880537) (xy 7.40582 6.939502) (xy 7.525518 6.975812) (xy 7.65 6.988072) (xy 7.74 6.988072)
        (xy 7.740001 18.622658) (xy 7.74 18.622668) (xy 7.740001 31.322668) (xy 7.736324 31.36) (xy 7.750998 31.508985)
        (xy 7.794454 31.652246) (xy 7.865026 31.784276) (xy 7.932787 31.866842) (xy 7.96 31.900001) (xy 7.988998 31.923799)
        (xy 15.9462 39.881002) (xy 15.969999 39.910001) (xy 16.085724 40.004974) (xy 16.217753 40.075546) (xy 16.361014 40.119003)
        (xy 16.472667 40.13) (xy 16.472675 40.13) (xy 16.51 40.133676) (xy 16.547325 40.13) (xy 25.362678 40.13)
        (xy 25.4 40.133676) (xy 25.437322 40.13) (xy 25.437333 40.13) (xy 25.548986 40.119003) (xy 25.692247 40.075546)
        (xy 25.824276 40.004974) (xy 25.940001 39.910001) (xy 25.963804 39.880997) (xy 45.971004 19.873798) (xy 46.000001 19.850001)
        (xy 46.082903 19.748985) (xy 46.094974 19.734277) (xy 46.165546 19.602247) (xy 46.18071 19.552257) (xy 46.209003 19.458986)
        (xy 46.22 19.347333) (xy 46.22 19.347324) (xy 46.223676 19.310001) (xy 46.22 19.272678) (xy 46.22 14.778178)
        (xy 46.406632 14.653475) (xy 46.613475 14.446632) (xy 46.73 14.27224) (xy 46.846525 14.446632) (xy 47.053368 14.653475)
        (xy 47.24 14.778179) (xy 47.240001 16.212658) (xy 47.24 16.212668) (xy 47.240001 20.265197) (xy 26.355199 41.15)
        (xy 11.744802 41.15) (xy 7.11 36.515199) (xy 7.11 14.673711) (xy 7.153937 14.629774) (xy 7.267205 14.460256)
        (xy 7.345226 14.271898) (xy 7.385 14.071939) (xy 7.385 13.868061) (xy 7.345226 13.668102) (xy 7.267205 13.479744)
        (xy 7.153937 13.310226) (xy 7.009774 13.166063) (xy 6.840256 13.052795) (xy 6.651898 12.974774) (xy 6.451939 12.935)
        (xy 6.248061 12.935) (xy 6.048102 12.974774) (xy 5.859744 13.052795) (xy 5.84 13.065987) (xy 5.84 12.133711)
        (xy 5.883937 12.089774) (xy 5.997205 11.920256) (xy 6.075226 11.731898) (xy 6.115 11.531939) (xy 6.115 11.328061)
        (xy 6.075226 11.128102) (xy 5.997205 10.939744) (xy 5.883937 10.770226) (xy 5.739774 10.626063) (xy 5.570256 10.512795)
        (xy 5.381898 10.434774) (xy 5.181939 10.395) (xy 4.978061 10.395) (xy 4.778102 10.434774) (xy 4.589744 10.512795)
        (xy 4.420226 10.626063) (xy 4.276063 10.770226) (xy 4.162795 10.939744) (xy 4.084774 11.128102) (xy 4.045 11.328061)
        (xy 2.667 11.328061) (xy 2.667 5.303509) (xy 2.920997 5.408718) (xy 3.304495 5.485) (xy 3.695505 5.485)
        (xy 4.079003 5.408718) (xy 4.44025 5.259085) (xy 4.765364 5.041851) (xy 5.041851 4.765364) (xy 5.259085 4.44025)
        (xy 5.408718 4.079003) (xy 5.485 3.695505) (xy 5.485 3.304495) (xy 5.408718 2.920997) (xy 5.259085 2.55975)
        (xy 5.041851 2.234636) (xy 4.765364 1.958149) (xy 4.44025 1.740915) (xy 4.079003 1.591282) (xy 3.695505 1.515)
        (xy 3.304495 1.515) (xy 2.920997 1.591282) (xy 2.667 1.696491) (xy 2.667 1.397) (xy 62.103 1.397)
      )
    )
    (filled_polygon
      (pts
        (xy 18.787 5.373) (xy 18.807 5.373) (xy 18.807 5.627) (xy 18.787 5.627) (xy 18.787 6.820155)
        (xy 19.01689 6.941476) (xy 19.164099 6.896825) (xy 19.42692 6.771641) (xy 19.660269 6.597588) (xy 19.855178 6.381355)
        (xy 19.924805 6.264466) (xy 20.046525 6.446632) (xy 20.253368 6.653475) (xy 20.496589 6.81599) (xy 20.766842 6.927932)
        (xy 21.05374 6.985) (xy 21.34626 6.985) (xy 21.633158 6.927932) (xy 21.903411 6.81599) (xy 22.146632 6.653475)
        (xy 22.353475 6.446632) (xy 22.47 6.27224) (xy 22.586525 6.446632) (xy 22.793368 6.653475) (xy 23.036589 6.81599)
        (xy 23.306842 6.927932) (xy 23.59374 6.985) (xy 23.88626 6.985) (xy 24.173158 6.927932) (xy 24.443411 6.81599)
        (xy 24.686632 6.653475) (xy 24.893475 6.446632) (xy 25.01 6.27224) (xy 25.126525 6.446632) (xy 25.333368 6.653475)
        (xy 25.576589 6.81599) (xy 25.846842 6.927932) (xy 26.13374 6.985) (xy 26.42626 6.985) (xy 26.713158 6.927932)
        (xy 26.983411 6.81599) (xy 27.226632 6.653475) (xy 27.433475 6.446632) (xy 27.55 6.27224) (xy 27.666525 6.446632)
        (xy 27.873368 6.653475) (xy 28.060001 6.778179) (xy 28.06 8.965198) (xy 18.913271 18.111928) (xy 17.35 18.111928)
        (xy 17.225518 18.124188) (xy 17.10582 18.160498) (xy 16.995506 18.219463) (xy 16.898815 18.298815) (xy 16.819463 18.395506)
        (xy 16.760498 18.50582) (xy 16.724188 18.625518) (xy 16.711928 18.75) (xy 16.711928 20.45) (xy 16.724188 20.574482)
        (xy 16.760498 20.69418) (xy 16.819463 20.804494) (xy 16.898815 20.901185) (xy 16.995506 20.980537) (xy 17.10582 21.039502)
        (xy 17.17838 21.061513) (xy 17.046525 21.193368) (xy 16.88401 21.436589) (xy 16.772068 21.706842) (xy 16.715 21.99374)
        (xy 16.715 22.28626) (xy 16.772068 22.573158) (xy 16.88401 22.843411) (xy 17.046525 23.086632) (xy 17.253368 23.293475)
        (xy 17.435534 23.415195) (xy 17.318645 23.484822) (xy 17.102412 23.679731) (xy 16.928359 23.91308) (xy 16.803175 24.175901)
        (xy 16.758524 24.32311) (xy 16.879845 24.553) (xy 18.073 24.553) (xy 18.073 24.533) (xy 18.327 24.533)
        (xy 18.327 24.553) (xy 19.520155 24.553) (xy 19.641476 24.32311) (xy 19.596825 24.175901) (xy 19.471641 23.91308)
        (xy 19.297588 23.679731) (xy 19.081355 23.484822) (xy 18.964466 23.415195) (xy 19.146632 23.293475) (xy 19.353475 23.086632)
        (xy 19.51599 22.843411) (xy 19.627932 22.573158) (xy 19.685 22.28626) (xy 19.685 21.99374) (xy 19.641209 21.773592)
        (xy 20.514801 20.9) (xy 24.461928 20.9) (xy 24.474188 21.024482) (xy 24.510498 21.14418) (xy 24.569463 21.254494)
        (xy 24.648815 21.351185) (xy 24.745506 21.430537) (xy 24.85582 21.489502) (xy 24.975518 21.525812) (xy 25.1 21.538072)
        (xy 25.71425 21.535) (xy 25.873 21.37625) (xy 25.873 20.127) (xy 24.62375 20.127) (xy 24.465 20.28575)
        (xy 24.461928 20.9) (xy 20.514801 20.9) (xy 22.314801 19.1) (xy 24.461928 19.1) (xy 24.465 19.71425)
        (xy 24.62375 19.873) (xy 25.873 19.873) (xy 25.873 18.62375) (xy 26.127 18.62375) (xy 26.127 19.873)
        (xy 26.147 19.873) (xy 26.147 20.127) (xy 26.127 20.127) (xy 26.127 21.37625) (xy 26.28575 21.535)
        (xy 26.9 21.538072) (xy 27.024482 21.525812) (xy 27.14418 21.489502) (xy 27.254494 21.430537) (xy 27.351185 21.351185)
        (xy 27.430537 21.254494) (xy 27.489502 21.14418) (xy 27.495056 21.125873) (xy 27.561495 21.192312) (xy 27.812905 21.360299)
        (xy 28.092257 21.476011) (xy 28.388816 21.535) (xy 28.691184 21.535) (xy 28.987743 21.476011) (xy 29.267095 21.360299)
        (xy 29.518505 21.192312) (xy 29.732312 20.978505) (xy 29.900299 20.727095) (xy 30.016011 20.447743) (xy 30.075 20.151184)
        (xy 30.075 19.848816) (xy 30.016011 19.552257) (xy 29.900299 19.272905) (xy 29.732312 19.021495) (xy 29.518505 18.807688)
        (xy 29.267095 18.639701) (xy 28.987743 18.523989) (xy 28.691184 18.465) (xy 28.388816 18.465) (xy 28.092257 18.523989)
        (xy 27.812905 18.639701) (xy 27.561495 18.807688) (xy 27.495056 18.874127) (xy 27.489502 18.85582) (xy 27.430537 18.745506)
        (xy 27.351185 18.648815) (xy 27.254494 18.569463) (xy 27.14418 18.510498) (xy 27.024482 18.474188) (xy 26.9 18.461928)
        (xy 26.28575 18.465) (xy 26.127 18.62375) (xy 25.873 18.62375) (xy 25.71425 18.465) (xy 25.1 18.461928)
        (xy 24.975518 18.474188) (xy 24.85582 18.510498) (xy 24.745506 18.569463) (xy 24.648815 18.648815) (xy 24.569463 18.745506)
        (xy 24.510498 18.85582) (xy 24.474188 18.975518) (xy 24.461928 19.1) (xy 22.314801 19.1) (xy 30.696003 10.718799)
        (xy 30.725 10.695002) (xy 30.781577 10.626063) (xy 30.819973 10.579278) (xy 30.890545 10.447248) (xy 30.906394 10.395)
        (xy 30.934002 10.303987) (xy 30.944999 10.192334) (xy 30.944999 10.192325) (xy 30.948675 10.155002) (xy 30.944999 10.117679)
        (xy 30.944999 6.931544) (xy 30.990001 6.940495) (xy 30.99 21.275198) (xy 26.803997 25.461202) (xy 26.802518 25.462416)
        (xy 26.28575 25.465) (xy 26.127 25.62375) (xy 26.127 26.873) (xy 26.147 26.873) (xy 26.147 27.127)
        (xy 26.127 27.127) (xy 26.127 28.37625) (xy 26.277974 28.527224) (xy 23.265199 31.54) (xy 19.478178 31.54)
        (xy 19.353475 31.353368) (xy 19.146632 31.146525) (xy 18.97224 31.03) (xy 19.146632 30.913475) (xy 19.353475 30.706632)
        (xy 19.51599 30.463411) (xy 19.627932 30.193158) (xy 19.685 29.90626) (xy 19.685 29.61374) (xy 19.627932 29.326842)
        (xy 19.51599 29.056589) (xy 19.353475 28.813368) (xy 19.146632 28.606525) (xy 18.97224 28.49) (xy 19.146632 28.373475)
        (xy 19.353475 28.166632) (xy 19.51599 27.923411) (xy 19.525687 27.9) (xy 24.461928 27.9) (xy 24.474188 28.024482)
        (xy 24.510498 28.14418) (xy 24.569463 28.254494) (xy 24.648815 28.351185) (xy 24.745506 28.430537) (xy 24.85582 28.489502)
        (xy 24.975518 28.525812) (xy 25.1 28.538072) (xy 25.71425 28.535) (xy 25.873 28.37625) (xy 25.873 27.127)
        (xy 24.62375 27.127) (xy 24.465 27.28575) (xy 24.461928 27.9) (xy 19.525687 27.9) (xy 19.627932 27.653158)
        (xy 19.685 27.36626) (xy 19.685 27.07374) (xy 19.627932 26.786842) (xy 19.51599 26.516589) (xy 19.353475 26.273368)
        (xy 19.180107 26.1) (xy 24.461928 26.1) (xy 24.465 26.71425) (xy 24.62375 26.873) (xy 25.873 26.873)
        (xy 25.873 25.62375) (xy 25.71425 25.465) (xy 25.1 25.461928) (xy 24.975518 25.474188) (xy 24.85582 25.510498)
        (xy 24.745506 25.569463) (xy 24.648815 25.648815) (xy 24.569463 25.745506) (xy 24.510498 25.85582) (xy 24.474188 25.975518)
        (xy 24.461928 26.1) (xy 19.180107 26.1) (xy 19.146632 26.066525) (xy 18.964466 25.944805) (xy 19.081355 25.875178)
        (xy 19.297588 25.680269) (xy 19.471641 25.44692) (xy 19.596825 25.184099) (xy 19.641476 25.03689) (xy 19.520155 24.807)
        (xy 18.327 24.807) (xy 18.327 24.827) (xy 18.073 24.827) (xy 18.073 24.807) (xy 16.879845 24.807)
        (xy 16.758524 25.03689) (xy 16.803175 25.184099) (xy 16.928359 25.44692) (xy 17.102412 25.680269) (xy 17.318645 25.875178)
        (xy 17.435534 25.944805) (xy 17.253368 26.066525) (xy 17.046525 26.273368) (xy 16.88401 26.516589) (xy 16.772068 26.786842)
        (xy 16.715 27.07374) (xy 16.715 27.36626) (xy 16.772068 27.653158) (xy 16.88401 27.923411) (xy 17.046525 28.166632)
        (xy 17.253368 28.373475) (xy 17.42776 28.49) (xy 17.253368 28.606525) (xy 17.046525 28.813368) (xy 16.88401 29.056589)
        (xy 16.772068 29.326842) (xy 16.715 29.61374) (xy 16.715 29.90626) (xy 16.772068 30.193158) (xy 16.88401 30.463411)
        (xy 17.046525 30.706632) (xy 17.253368 30.913475) (xy 17.42776 31.03) (xy 17.253368 31.146525) (xy 17.046525 31.353368)
        (xy 16.88401 31.596589) (xy 16.772068 31.866842) (xy 16.715 32.15374) (xy 16.715 32.44626) (xy 16.772068 32.733158)
        (xy 16.88401 33.003411) (xy 17.046525 33.246632) (xy 17.253368 33.453475) (xy 17.42776 33.57) (xy 17.253368 33.686525)
        (xy 17.046525 33.893368) (xy 16.88401 34.136589) (xy 16.772068 34.406842) (xy 16.715 34.69374) (xy 16.715 34.98626)
        (xy 16.772068 35.273158) (xy 16.88401 35.543411) (xy 17.046525 35.786632) (xy 17.253368 35.993475) (xy 17.42776 36.11)
        (xy 17.253368 36.226525) (xy 17.046525 36.433368) (xy 16.88401 36.676589) (xy 16.772068 36.946842) (xy 16.715 37.23374)
        (xy 16.715 37.52626) (xy 16.772068 37.813158) (xy 16.88401 38.083411) (xy 17.046525 38.326632) (xy 17.253368 38.533475)
        (xy 17.367896 38.61) (xy 16.824802 38.61) (xy 9.26 31.045199) (xy 9.26 6.988072) (xy 9.35 6.988072)
        (xy 9.474482 6.975812) (xy 9.59418 6.939502) (xy 9.704494 6.880537) (xy 9.801185 6.801185) (xy 9.880537 6.704494)
        (xy 9.939502 6.59418) (xy 9.961513 6.52162) (xy 10.093368 6.653475) (xy 10.336589 6.81599) (xy 10.606842 6.927932)
        (xy 10.89374 6.985) (xy 11.18626 6.985) (xy 11.473158 6.927932) (xy 11.743411 6.81599) (xy 11.986632 6.653475)
        (xy 12.193475 6.446632) (xy 12.31 6.27224) (xy 12.426525 6.446632) (xy 12.633368 6.653475) (xy 12.876589 6.81599)
        (xy 13.146842 6.927932) (xy 13.43374 6.985) (xy 13.72626 6.985) (xy 14.013158 6.927932) (xy 14.283411 6.81599)
        (xy 14.526632 6.653475) (xy 14.733475 6.446632) (xy 14.85 6.27224) (xy 14.966525 6.446632) (xy 15.173368 6.653475)
        (xy 15.416589 6.81599) (xy 15.686842 6.927932) (xy 15.97374 6.985) (xy 16.26626 6.985) (xy 16.553158 6.927932)
        (xy 16.823411 6.81599) (xy 17.066632 6.653475) (xy 17.273475 6.446632) (xy 17.395195 6.264466) (xy 17.464822 6.381355)
        (xy 17.659731 6.597588) (xy 17.89308 6.771641) (xy 18.155901 6.896825) (xy 18.30311 6.941476) (xy 18.533 6.820155)
        (xy 18.533 5.627) (xy 18.513 5.627) (xy 18.513 5.373) (xy 18.533 5.373) (xy 18.533 5.353)
        (xy 18.787 5.353)
      )
    )
  )
)
