
**** 11/04/21 01:01:43 ******* PSpice 17.4.0 (Nov 2018) ******* ID# 0 ********

 ** Profile: "SCHEMATIC1-OHMSLOV"  [ C:\Users\vlaro\Desktop\itt3-pcb-vladimirrotaru\Orcad\simulation_beginner_course-PSpiceFiles\SCHE


 ****     CIRCUIT DESCRIPTION


******************************************************************************




** Creating circuit file "OHMSLOV.cir" 
** WARNING: THIS AUTOMATICALLY GENERATED FILE MAY BE OVERWRITTEN BY SUBSEQUENT SIMULATIONS

*Libraries: 
* Profile Libraries :
* Local Libraries :
* From [PSPICE NETLIST] section of C:\Users\vlaro\cdssetup\OrCAD_PSpice\17.4.0\PSpice.ini file:
.lib "nom.lib" 

*Analysis directives: 
.AC DEC 10 1 10meg
.OPTIONS ADVCONV
.PROBE64 V(alias(*)) I(alias(*)) W(alias(*)) D(alias(*)) NOISE(alias(*)) 
.INC "..\SCHEMATIC1.net" 



**** INCLUDING SCHEMATIC1.net ****
* source SIMULATION_BEGINNER_COURSE
V_V1         N14815 0 DC 0Vdc AC 1Vac
+SIN 0 {.5*10} 100 0 0 0
X_U1A         N14815 N14910 N15966 N15931 N14903 TL072/301/TI
R_R1         0 N14910  1k TC=0,0 
R_R2         N14910 N14903  100k TC=0,0 
V_V2         N15994 0 -12Vdc
V_V3         N16029 0 12Vdc

**** RESUMING OHMSLOV.cir ****
.END

**** 11/04/21 01:01:43 ******* PSpice 17.4.0 (Nov 2018) ******* ID# 0 ********

 ** Profile: "SCHEMATIC1-OHMSLOV"  [ C:\Users\vlaro\Desktop\itt3-pcb-vladimirrotaru\Orcad\simulation_beginner_course-PSpiceFiles\SCHE


 ****     Diode MODEL PARAMETERS


******************************************************************************




               X_U1A.DX        
          IS  800.000000E-18 


**** 11/04/21 01:01:43 ******* PSpice 17.4.0 (Nov 2018) ******* ID# 0 ********

 ** Profile: "SCHEMATIC1-OHMSLOV"  [ C:\Users\vlaro\Desktop\itt3-pcb-vladimirrotaru\Orcad\simulation_beginner_course-PSpiceFiles\SCHE


 ****     Junction FET MODEL PARAMETERS


******************************************************************************




               X_U1A.JX        
               PJF             
         VTO   -1            
        BETA  270.100000E-06 
          IS   15.000000E-12 


**** 11/04/21 01:01:43 ******* PSpice 17.4.0 (Nov 2018) ******* ID# 0 ********

 ** Profile: "SCHEMATIC1-OHMSLOV"  [ C:\Users\vlaro\Desktop\itt3-pcb-vladimirrotaru\Orcad\simulation_beginner_course-PSpiceFiles\SCHE


 ****     SMALL SIGNAL BIAS SOLUTION       TEMPERATURE =   27.000 DEG C


******************************************************************************



 NODE   VOLTAGE     NODE   VOLTAGE     NODE   VOLTAGE     NODE   VOLTAGE


(N14815)    0.0000 (N14903)    1.2328 (N14910)     .0124 (N15931)    -.2352     

(N15966)    2.7008 (N15994)  -12.0000 (N16029)   12.0000 (X_U1A.6)     .0322    

(X_U1A.7)    1.2346                   (X_U1A.8)    1.2346                       

(X_U1A.9)    0.0000                   (X_U1A.10)     .2633                      

(X_U1A.11)     .1095                  (X_U1A.12)     .1107                      

(X_U1A.53)     .5008                  (X_U1A.54)    1.9648                      

(X_U1A.90)     .0119                  (X_U1A.91)   25.0000                      

(X_U1A.92)  -25.0000                  (X_U1A.99)    1.2328                  




    VOLTAGE SOURCE CURRENTS
    NAME         CURRENT

    V_V1         3.961E-07
    V_V2         0.000E+00
    V_V3         0.000E+00
    X_U1A.VB     3.225E-07
    X_U1A.VC    -1.565E-03
    X_U1A.VE    -1.565E-03
    X_U1A.VLIM   1.190E-05
    X_U1A.VLP   -2.499E-11
    X_U1A.VLN   -2.501E-11

    TOTAL POWER DISSIPATION   6.89E-03  WATTS



          JOB CONCLUDED

**** 11/04/21 01:01:43 ******* PSpice 17.4.0 (Nov 2018) ******* ID# 0 ********

 ** Profile: "SCHEMATIC1-OHMSLOV"  [ C:\Users\vlaro\Desktop\itt3-pcb-vladimirrotaru\Orcad\simulation_beginner_course-PSpiceFiles\SCHE


 ****     JOB STATISTICS SUMMARY


******************************************************************************



  Total job time (using Solver 1)   =         .03
