* source SIMULATION_BEGINNER_COURSE
V_V1         N14815 0 DC 0Vdc AC 1Vac
+SIN 0 {.5*10} 100 0 0 0
X_U1A         N14815 N14910 N15683 N15676 N14903 TL072/301/TI
R_R1         0 N14910  1k TC=0,0 
R_R2         N14910 N14903  100k TC=0,0 
V_V2         N15676 0 -12Vdc
V_V3         N15683 0 12Vdc
