G04 #@! TF.GenerationSoftware,KiCad,Pcbnew,(5.1.10)-1*
G04 #@! TF.CreationDate,2021-11-29T20:11:00+01:00*
G04 #@! TF.ProjectId,rfid_reader,72666964-5f72-4656-9164-65722e6b6963,rev?*
G04 #@! TF.SameCoordinates,Original*
G04 #@! TF.FileFunction,Copper,L2,Bot*
G04 #@! TF.FilePolarity,Positive*
%FSLAX46Y46*%
G04 Gerber Fmt 4.6, Leading zero omitted, Abs format (unit mm)*
G04 Created by KiCad (PCBNEW (5.1.10)-1) date 2021-11-29 20:11:00*
%MOMM*%
%LPD*%
G01*
G04 APERTURE LIST*
G04 #@! TA.AperFunction,ComponentPad*
%ADD10R,2.000000X2.000000*%
G04 #@! TD*
G04 #@! TA.AperFunction,ComponentPad*
%ADD11C,2.000000*%
G04 #@! TD*
G04 #@! TA.AperFunction,ComponentPad*
%ADD12R,1.700000X1.700000*%
G04 #@! TD*
G04 #@! TA.AperFunction,ComponentPad*
%ADD13O,1.700000X1.700000*%
G04 #@! TD*
G04 #@! TA.AperFunction,ComponentPad*
%ADD14R,1.800000X1.800000*%
G04 #@! TD*
G04 #@! TA.AperFunction,ComponentPad*
%ADD15C,1.800000*%
G04 #@! TD*
G04 #@! TA.AperFunction,ViaPad*
%ADD16C,0.800000*%
G04 #@! TD*
G04 #@! TA.AperFunction,Conductor*
%ADD17C,0.250000*%
G04 #@! TD*
G04 #@! TA.AperFunction,Conductor*
%ADD18C,0.500000*%
G04 #@! TD*
G04 #@! TA.AperFunction,Conductor*
%ADD19C,0.254000*%
G04 #@! TD*
G04 #@! TA.AperFunction,Conductor*
%ADD20C,0.100000*%
G04 #@! TD*
G04 APERTURE END LIST*
D10*
X33000000Y-47000000D03*
D11*
X25400000Y-47000000D03*
D12*
X8500000Y-5500000D03*
D13*
X8500000Y-2960000D03*
X11040000Y-5500000D03*
X11040000Y-2960000D03*
X13580000Y-5500000D03*
X13580000Y-2960000D03*
X16120000Y-5500000D03*
X16120000Y-2960000D03*
X18660000Y-5500000D03*
X18660000Y-2960000D03*
X21200000Y-5500000D03*
X21200000Y-2960000D03*
X23740000Y-5500000D03*
X23740000Y-2960000D03*
X26280000Y-5500000D03*
X26280000Y-2960000D03*
X28820000Y-5500000D03*
X28820000Y-2960000D03*
X31360000Y-5500000D03*
X31360000Y-2960000D03*
X33900000Y-5500000D03*
X33900000Y-2960000D03*
X36440000Y-5500000D03*
X36440000Y-2960000D03*
X38980000Y-5500000D03*
X38980000Y-2960000D03*
X41520000Y-5500000D03*
X41520000Y-2960000D03*
X44060000Y-5500000D03*
X44060000Y-2960000D03*
X46600000Y-5500000D03*
X46600000Y-2960000D03*
X49140000Y-5500000D03*
X49140000Y-2960000D03*
X51680000Y-5500000D03*
X51680000Y-2960000D03*
X54220000Y-5500000D03*
X54220000Y-2960000D03*
X56760000Y-5500000D03*
X56760000Y-2960000D03*
D14*
X26000000Y-20000000D03*
D15*
X28540000Y-20000000D03*
X28540000Y-27000000D03*
D14*
X26000000Y-27000000D03*
D12*
X42920000Y-13500000D03*
D13*
X45460000Y-13500000D03*
X48000000Y-13500000D03*
X50540000Y-13500000D03*
X18000000Y-20760000D03*
X18000000Y-23300000D03*
X18000000Y-25840000D03*
X18000000Y-28380000D03*
X18000000Y-30920000D03*
X18000000Y-33460000D03*
D12*
X18000000Y-36000000D03*
D11*
X39500000Y-47500000D03*
X39500000Y-43000000D03*
X46000000Y-47500000D03*
X46000000Y-43000000D03*
X58500000Y-43000000D03*
X58500000Y-47500000D03*
X52000000Y-43000000D03*
X52000000Y-47500000D03*
D16*
X26670000Y-11430000D03*
X30480000Y-10160000D03*
D17*
X8500000Y-31360000D02*
X13140000Y-36000000D01*
X8500000Y-5500000D02*
X8500000Y-31360000D01*
X13140000Y-36000000D02*
X14800000Y-36000000D01*
X14800000Y-36000000D02*
X18000000Y-36000000D01*
X14800000Y-37660000D02*
X14800000Y-36000000D01*
X15240000Y-38100000D02*
X14800000Y-37660000D01*
X26670000Y-38100000D02*
X15240000Y-38100000D01*
X42920000Y-21850000D02*
X26670000Y-38100000D01*
X42920000Y-13500000D02*
X42920000Y-21850000D01*
D18*
X50540000Y-13500000D02*
X50504999Y-13464999D01*
D17*
X18000000Y-25614998D02*
X21590000Y-22024998D01*
X18000000Y-25840000D02*
X18000000Y-25614998D01*
X21590000Y-22024998D02*
X21590000Y-16510000D01*
X21590000Y-16510000D02*
X26670000Y-11430000D01*
X26670000Y-11430000D02*
X26670000Y-11430000D01*
X18000000Y-28380000D02*
X22860000Y-23520000D01*
X22860000Y-23520000D02*
X22860000Y-17780000D01*
X22860000Y-17780000D02*
X30480000Y-10160000D01*
X30480000Y-10160000D02*
X30480000Y-10160000D01*
X34320000Y-7620000D02*
X36440000Y-5500000D01*
X27940000Y-7620000D02*
X34320000Y-7620000D01*
X20320000Y-15240000D02*
X27940000Y-7620000D01*
X20320000Y-20980000D02*
X20320000Y-15240000D01*
X18000000Y-23300000D02*
X20320000Y-20980000D01*
X53340000Y-12240000D02*
X46600000Y-5500000D01*
X53340000Y-41660000D02*
X53340000Y-12240000D01*
X52000000Y-43000000D02*
X53340000Y-41660000D01*
X35264999Y-1784999D02*
X36440000Y-2960000D01*
X25715999Y-1784999D02*
X35264999Y-1784999D01*
X24915001Y-2585997D02*
X25715999Y-1784999D01*
X24915001Y-8104999D02*
X24915001Y-2585997D01*
X18000000Y-15020000D02*
X24915001Y-8104999D01*
X18000000Y-20760000D02*
X18000000Y-15020000D01*
D19*
X24639183Y-1787013D02*
X24506920Y-1688359D01*
X24244099Y-1563175D01*
X24096890Y-1518524D01*
X23867000Y-1639845D01*
X23867000Y-2833000D01*
X23887000Y-2833000D01*
X23887000Y-3087000D01*
X23867000Y-3087000D01*
X23867000Y-3107000D01*
X23613000Y-3107000D01*
X23613000Y-3087000D01*
X23593000Y-3087000D01*
X23593000Y-2833000D01*
X23613000Y-2833000D01*
X23613000Y-1639845D01*
X23383110Y-1518524D01*
X23235901Y-1563175D01*
X22973080Y-1688359D01*
X22739731Y-1862412D01*
X22544822Y-2078645D01*
X22475195Y-2195534D01*
X22353475Y-2013368D01*
X22146632Y-1806525D01*
X21903411Y-1644010D01*
X21633158Y-1532068D01*
X21346260Y-1475000D01*
X21053740Y-1475000D01*
X20766842Y-1532068D01*
X20496589Y-1644010D01*
X20253368Y-1806525D01*
X20046525Y-2013368D01*
X19930000Y-2187760D01*
X19813475Y-2013368D01*
X19606632Y-1806525D01*
X19363411Y-1644010D01*
X19093158Y-1532068D01*
X18806260Y-1475000D01*
X18513740Y-1475000D01*
X18226842Y-1532068D01*
X17956589Y-1644010D01*
X17713368Y-1806525D01*
X17506525Y-2013368D01*
X17390000Y-2187760D01*
X17273475Y-2013368D01*
X17066632Y-1806525D01*
X16823411Y-1644010D01*
X16553158Y-1532068D01*
X16266260Y-1475000D01*
X15973740Y-1475000D01*
X15686842Y-1532068D01*
X15416589Y-1644010D01*
X15173368Y-1806525D01*
X14966525Y-2013368D01*
X14844805Y-2195534D01*
X14775178Y-2078645D01*
X14580269Y-1862412D01*
X14346920Y-1688359D01*
X14084099Y-1563175D01*
X13936890Y-1518524D01*
X13707000Y-1639845D01*
X13707000Y-2833000D01*
X13727000Y-2833000D01*
X13727000Y-3087000D01*
X13707000Y-3087000D01*
X13707000Y-3107000D01*
X13453000Y-3107000D01*
X13453000Y-3087000D01*
X13433000Y-3087000D01*
X13433000Y-2833000D01*
X13453000Y-2833000D01*
X13453000Y-1639845D01*
X13223110Y-1518524D01*
X13075901Y-1563175D01*
X12813080Y-1688359D01*
X12579731Y-1862412D01*
X12384822Y-2078645D01*
X12315195Y-2195534D01*
X12193475Y-2013368D01*
X11986632Y-1806525D01*
X11743411Y-1644010D01*
X11473158Y-1532068D01*
X11186260Y-1475000D01*
X10893740Y-1475000D01*
X10606842Y-1532068D01*
X10336589Y-1644010D01*
X10093368Y-1806525D01*
X9886525Y-2013368D01*
X9770000Y-2187760D01*
X9653475Y-2013368D01*
X9446632Y-1806525D01*
X9203411Y-1644010D01*
X8933158Y-1532068D01*
X8646260Y-1475000D01*
X8353740Y-1475000D01*
X8066842Y-1532068D01*
X7796589Y-1644010D01*
X7553368Y-1806525D01*
X7346525Y-2013368D01*
X7184010Y-2256589D01*
X7072068Y-2526842D01*
X7015000Y-2813740D01*
X7015000Y-3106260D01*
X7072068Y-3393158D01*
X7184010Y-3663411D01*
X7346525Y-3906632D01*
X7478380Y-4038487D01*
X7405820Y-4060498D01*
X7295506Y-4119463D01*
X7198815Y-4198815D01*
X7119463Y-4295506D01*
X7060498Y-4405820D01*
X7024188Y-4525518D01*
X7011928Y-4650000D01*
X7011928Y-6350000D01*
X7024188Y-6474482D01*
X7060498Y-6594180D01*
X7119463Y-6704494D01*
X7198815Y-6801185D01*
X7295506Y-6880537D01*
X7405820Y-6939502D01*
X7525518Y-6975812D01*
X7650000Y-6988072D01*
X7740000Y-6988072D01*
X7740001Y-31322667D01*
X7736324Y-31360000D01*
X7750998Y-31508985D01*
X7794454Y-31652246D01*
X7865026Y-31784276D01*
X7936201Y-31871002D01*
X7960000Y-31900001D01*
X7988998Y-31923799D01*
X12576201Y-36511003D01*
X12599999Y-36540001D01*
X12628997Y-36563799D01*
X12715723Y-36634974D01*
X12847753Y-36705546D01*
X12991014Y-36749003D01*
X13102667Y-36760000D01*
X13102677Y-36760000D01*
X13140000Y-36763676D01*
X13177323Y-36760000D01*
X14040001Y-36760000D01*
X14040000Y-37622677D01*
X14036324Y-37660000D01*
X14040000Y-37697322D01*
X14040000Y-37697332D01*
X14050997Y-37808985D01*
X14094080Y-37951014D01*
X14094454Y-37952246D01*
X14165026Y-38084276D01*
X14177931Y-38100000D01*
X14259999Y-38200001D01*
X14289003Y-38223804D01*
X14676196Y-38610997D01*
X14699999Y-38640001D01*
X14773146Y-38700031D01*
X14815723Y-38734974D01*
X14947753Y-38805546D01*
X15091014Y-38849003D01*
X15202667Y-38860000D01*
X15202677Y-38860000D01*
X15240000Y-38863676D01*
X15277323Y-38860000D01*
X26632678Y-38860000D01*
X26670000Y-38863676D01*
X26707322Y-38860000D01*
X26707333Y-38860000D01*
X26818986Y-38849003D01*
X26962247Y-38805546D01*
X27094276Y-38734974D01*
X27210001Y-38640001D01*
X27233804Y-38610997D01*
X43431008Y-22413795D01*
X43460001Y-22390001D01*
X43483795Y-22361008D01*
X43483799Y-22361004D01*
X43554973Y-22274277D01*
X43554974Y-22274276D01*
X43625546Y-22142247D01*
X43669003Y-21998986D01*
X43680000Y-21887333D01*
X43680000Y-21887324D01*
X43683676Y-21850001D01*
X43680000Y-21812678D01*
X43680000Y-14988072D01*
X43770000Y-14988072D01*
X43894482Y-14975812D01*
X44014180Y-14939502D01*
X44124494Y-14880537D01*
X44221185Y-14801185D01*
X44300537Y-14704494D01*
X44359502Y-14594180D01*
X44383966Y-14513534D01*
X44459731Y-14597588D01*
X44693080Y-14771641D01*
X44955901Y-14896825D01*
X45103110Y-14941476D01*
X45333000Y-14820155D01*
X45333000Y-13627000D01*
X45313000Y-13627000D01*
X45313000Y-13373000D01*
X45333000Y-13373000D01*
X45333000Y-12179845D01*
X45587000Y-12179845D01*
X45587000Y-13373000D01*
X45607000Y-13373000D01*
X45607000Y-13627000D01*
X45587000Y-13627000D01*
X45587000Y-14820155D01*
X45816890Y-14941476D01*
X45964099Y-14896825D01*
X46226920Y-14771641D01*
X46460269Y-14597588D01*
X46655178Y-14381355D01*
X46724805Y-14264466D01*
X46846525Y-14446632D01*
X47053368Y-14653475D01*
X47296589Y-14815990D01*
X47566842Y-14927932D01*
X47853740Y-14985000D01*
X48146260Y-14985000D01*
X48433158Y-14927932D01*
X48703411Y-14815990D01*
X48946632Y-14653475D01*
X49153475Y-14446632D01*
X49270000Y-14272240D01*
X49386525Y-14446632D01*
X49593368Y-14653475D01*
X49836589Y-14815990D01*
X50106842Y-14927932D01*
X50393740Y-14985000D01*
X50686260Y-14985000D01*
X50973158Y-14927932D01*
X51243411Y-14815990D01*
X51486632Y-14653475D01*
X51693475Y-14446632D01*
X51855990Y-14203411D01*
X51967932Y-13933158D01*
X52025000Y-13646260D01*
X52025000Y-13353740D01*
X51967932Y-13066842D01*
X51855990Y-12796589D01*
X51693475Y-12553368D01*
X51486632Y-12346525D01*
X51243411Y-12184010D01*
X50973158Y-12072068D01*
X50686260Y-12015000D01*
X50393740Y-12015000D01*
X50106842Y-12072068D01*
X49836589Y-12184010D01*
X49593368Y-12346525D01*
X49386525Y-12553368D01*
X49270000Y-12727760D01*
X49153475Y-12553368D01*
X48946632Y-12346525D01*
X48703411Y-12184010D01*
X48433158Y-12072068D01*
X48146260Y-12015000D01*
X47853740Y-12015000D01*
X47566842Y-12072068D01*
X47296589Y-12184010D01*
X47053368Y-12346525D01*
X46846525Y-12553368D01*
X46724805Y-12735534D01*
X46655178Y-12618645D01*
X46460269Y-12402412D01*
X46226920Y-12228359D01*
X45964099Y-12103175D01*
X45816890Y-12058524D01*
X45587000Y-12179845D01*
X45333000Y-12179845D01*
X45103110Y-12058524D01*
X44955901Y-12103175D01*
X44693080Y-12228359D01*
X44459731Y-12402412D01*
X44383966Y-12486466D01*
X44359502Y-12405820D01*
X44300537Y-12295506D01*
X44221185Y-12198815D01*
X44124494Y-12119463D01*
X44014180Y-12060498D01*
X43894482Y-12024188D01*
X43770000Y-12011928D01*
X42070000Y-12011928D01*
X41945518Y-12024188D01*
X41825820Y-12060498D01*
X41715506Y-12119463D01*
X41618815Y-12198815D01*
X41539463Y-12295506D01*
X41480498Y-12405820D01*
X41444188Y-12525518D01*
X41431928Y-12650000D01*
X41431928Y-14350000D01*
X41444188Y-14474482D01*
X41480498Y-14594180D01*
X41539463Y-14704494D01*
X41618815Y-14801185D01*
X41715506Y-14880537D01*
X41825820Y-14939502D01*
X41945518Y-14975812D01*
X42070000Y-14988072D01*
X42160000Y-14988072D01*
X42160001Y-21535196D01*
X26355199Y-37340000D01*
X19253889Y-37340000D01*
X19301185Y-37301185D01*
X19380537Y-37204494D01*
X19439502Y-37094180D01*
X19475812Y-36974482D01*
X19488072Y-36850000D01*
X19488072Y-35150000D01*
X19475812Y-35025518D01*
X19439502Y-34905820D01*
X19380537Y-34795506D01*
X19301185Y-34698815D01*
X19204494Y-34619463D01*
X19094180Y-34560498D01*
X19021620Y-34538487D01*
X19153475Y-34406632D01*
X19315990Y-34163411D01*
X19427932Y-33893158D01*
X19485000Y-33606260D01*
X19485000Y-33313740D01*
X19427932Y-33026842D01*
X19315990Y-32756589D01*
X19153475Y-32513368D01*
X18946632Y-32306525D01*
X18764466Y-32184805D01*
X18881355Y-32115178D01*
X19097588Y-31920269D01*
X19271641Y-31686920D01*
X19396825Y-31424099D01*
X19441476Y-31276890D01*
X19320155Y-31047000D01*
X18127000Y-31047000D01*
X18127000Y-31067000D01*
X17873000Y-31067000D01*
X17873000Y-31047000D01*
X16679845Y-31047000D01*
X16558524Y-31276890D01*
X16603175Y-31424099D01*
X16728359Y-31686920D01*
X16902412Y-31920269D01*
X17118645Y-32115178D01*
X17235534Y-32184805D01*
X17053368Y-32306525D01*
X16846525Y-32513368D01*
X16684010Y-32756589D01*
X16572068Y-33026842D01*
X16515000Y-33313740D01*
X16515000Y-33606260D01*
X16572068Y-33893158D01*
X16684010Y-34163411D01*
X16846525Y-34406632D01*
X16978380Y-34538487D01*
X16905820Y-34560498D01*
X16795506Y-34619463D01*
X16698815Y-34698815D01*
X16619463Y-34795506D01*
X16560498Y-34905820D01*
X16524188Y-35025518D01*
X16511928Y-35150000D01*
X16511928Y-35240000D01*
X14837333Y-35240000D01*
X14800000Y-35236323D01*
X14762667Y-35240000D01*
X13454802Y-35240000D01*
X9260000Y-31045199D01*
X9260000Y-6988072D01*
X9350000Y-6988072D01*
X9474482Y-6975812D01*
X9594180Y-6939502D01*
X9704494Y-6880537D01*
X9801185Y-6801185D01*
X9880537Y-6704494D01*
X9939502Y-6594180D01*
X9961513Y-6521620D01*
X10093368Y-6653475D01*
X10336589Y-6815990D01*
X10606842Y-6927932D01*
X10893740Y-6985000D01*
X11186260Y-6985000D01*
X11473158Y-6927932D01*
X11743411Y-6815990D01*
X11986632Y-6653475D01*
X12193475Y-6446632D01*
X12310000Y-6272240D01*
X12426525Y-6446632D01*
X12633368Y-6653475D01*
X12876589Y-6815990D01*
X13146842Y-6927932D01*
X13433740Y-6985000D01*
X13726260Y-6985000D01*
X14013158Y-6927932D01*
X14283411Y-6815990D01*
X14526632Y-6653475D01*
X14733475Y-6446632D01*
X14850000Y-6272240D01*
X14966525Y-6446632D01*
X15173368Y-6653475D01*
X15416589Y-6815990D01*
X15686842Y-6927932D01*
X15973740Y-6985000D01*
X16266260Y-6985000D01*
X16553158Y-6927932D01*
X16823411Y-6815990D01*
X17066632Y-6653475D01*
X17273475Y-6446632D01*
X17395195Y-6264466D01*
X17464822Y-6381355D01*
X17659731Y-6597588D01*
X17893080Y-6771641D01*
X18155901Y-6896825D01*
X18303110Y-6941476D01*
X18533000Y-6820155D01*
X18533000Y-5627000D01*
X18513000Y-5627000D01*
X18513000Y-5373000D01*
X18533000Y-5373000D01*
X18533000Y-5353000D01*
X18787000Y-5353000D01*
X18787000Y-5373000D01*
X18807000Y-5373000D01*
X18807000Y-5627000D01*
X18787000Y-5627000D01*
X18787000Y-6820155D01*
X19016890Y-6941476D01*
X19164099Y-6896825D01*
X19426920Y-6771641D01*
X19660269Y-6597588D01*
X19855178Y-6381355D01*
X19924805Y-6264466D01*
X20046525Y-6446632D01*
X20253368Y-6653475D01*
X20496589Y-6815990D01*
X20766842Y-6927932D01*
X21053740Y-6985000D01*
X21346260Y-6985000D01*
X21633158Y-6927932D01*
X21903411Y-6815990D01*
X22146632Y-6653475D01*
X22353475Y-6446632D01*
X22470000Y-6272240D01*
X22586525Y-6446632D01*
X22793368Y-6653475D01*
X23036589Y-6815990D01*
X23306842Y-6927932D01*
X23593740Y-6985000D01*
X23886260Y-6985000D01*
X24155001Y-6931544D01*
X24155001Y-7790197D01*
X17488998Y-14456201D01*
X17460000Y-14479999D01*
X17436202Y-14508997D01*
X17436201Y-14508998D01*
X17365026Y-14595724D01*
X17294454Y-14727754D01*
X17294077Y-14728998D01*
X17250998Y-14871014D01*
X17244058Y-14941476D01*
X17236324Y-15020000D01*
X17240001Y-15057332D01*
X17240000Y-19481821D01*
X17053368Y-19606525D01*
X16846525Y-19813368D01*
X16684010Y-20056589D01*
X16572068Y-20326842D01*
X16515000Y-20613740D01*
X16515000Y-20906260D01*
X16572068Y-21193158D01*
X16684010Y-21463411D01*
X16846525Y-21706632D01*
X17053368Y-21913475D01*
X17227760Y-22030000D01*
X17053368Y-22146525D01*
X16846525Y-22353368D01*
X16684010Y-22596589D01*
X16572068Y-22866842D01*
X16515000Y-23153740D01*
X16515000Y-23446260D01*
X16572068Y-23733158D01*
X16684010Y-24003411D01*
X16846525Y-24246632D01*
X17053368Y-24453475D01*
X17227760Y-24570000D01*
X17053368Y-24686525D01*
X16846525Y-24893368D01*
X16684010Y-25136589D01*
X16572068Y-25406842D01*
X16515000Y-25693740D01*
X16515000Y-25986260D01*
X16572068Y-26273158D01*
X16684010Y-26543411D01*
X16846525Y-26786632D01*
X17053368Y-26993475D01*
X17227760Y-27110000D01*
X17053368Y-27226525D01*
X16846525Y-27433368D01*
X16684010Y-27676589D01*
X16572068Y-27946842D01*
X16515000Y-28233740D01*
X16515000Y-28526260D01*
X16572068Y-28813158D01*
X16684010Y-29083411D01*
X16846525Y-29326632D01*
X17053368Y-29533475D01*
X17235534Y-29655195D01*
X17118645Y-29724822D01*
X16902412Y-29919731D01*
X16728359Y-30153080D01*
X16603175Y-30415901D01*
X16558524Y-30563110D01*
X16679845Y-30793000D01*
X17873000Y-30793000D01*
X17873000Y-30773000D01*
X18127000Y-30773000D01*
X18127000Y-30793000D01*
X19320155Y-30793000D01*
X19441476Y-30563110D01*
X19396825Y-30415901D01*
X19271641Y-30153080D01*
X19097588Y-29919731D01*
X18881355Y-29724822D01*
X18764466Y-29655195D01*
X18946632Y-29533475D01*
X19153475Y-29326632D01*
X19315990Y-29083411D01*
X19427932Y-28813158D01*
X19485000Y-28526260D01*
X19485000Y-28233740D01*
X19441209Y-28013592D01*
X19554801Y-27900000D01*
X24461928Y-27900000D01*
X24474188Y-28024482D01*
X24510498Y-28144180D01*
X24569463Y-28254494D01*
X24648815Y-28351185D01*
X24745506Y-28430537D01*
X24855820Y-28489502D01*
X24975518Y-28525812D01*
X25100000Y-28538072D01*
X25714250Y-28535000D01*
X25873000Y-28376250D01*
X25873000Y-27127000D01*
X24623750Y-27127000D01*
X24465000Y-27285750D01*
X24461928Y-27900000D01*
X19554801Y-27900000D01*
X21354801Y-26100000D01*
X24461928Y-26100000D01*
X24465000Y-26714250D01*
X24623750Y-26873000D01*
X25873000Y-26873000D01*
X25873000Y-25623750D01*
X26127000Y-25623750D01*
X26127000Y-26873000D01*
X26147000Y-26873000D01*
X26147000Y-27127000D01*
X26127000Y-27127000D01*
X26127000Y-28376250D01*
X26285750Y-28535000D01*
X26900000Y-28538072D01*
X27024482Y-28525812D01*
X27144180Y-28489502D01*
X27254494Y-28430537D01*
X27351185Y-28351185D01*
X27430537Y-28254494D01*
X27489502Y-28144180D01*
X27495056Y-28125873D01*
X27561495Y-28192312D01*
X27812905Y-28360299D01*
X28092257Y-28476011D01*
X28388816Y-28535000D01*
X28691184Y-28535000D01*
X28987743Y-28476011D01*
X29267095Y-28360299D01*
X29518505Y-28192312D01*
X29732312Y-27978505D01*
X29900299Y-27727095D01*
X30016011Y-27447743D01*
X30075000Y-27151184D01*
X30075000Y-26848816D01*
X30016011Y-26552257D01*
X29900299Y-26272905D01*
X29732312Y-26021495D01*
X29518505Y-25807688D01*
X29267095Y-25639701D01*
X28987743Y-25523989D01*
X28691184Y-25465000D01*
X28388816Y-25465000D01*
X28092257Y-25523989D01*
X27812905Y-25639701D01*
X27561495Y-25807688D01*
X27495056Y-25874127D01*
X27489502Y-25855820D01*
X27430537Y-25745506D01*
X27351185Y-25648815D01*
X27254494Y-25569463D01*
X27144180Y-25510498D01*
X27024482Y-25474188D01*
X26900000Y-25461928D01*
X26285750Y-25465000D01*
X26127000Y-25623750D01*
X25873000Y-25623750D01*
X25714250Y-25465000D01*
X25100000Y-25461928D01*
X24975518Y-25474188D01*
X24855820Y-25510498D01*
X24745506Y-25569463D01*
X24648815Y-25648815D01*
X24569463Y-25745506D01*
X24510498Y-25855820D01*
X24474188Y-25975518D01*
X24461928Y-26100000D01*
X21354801Y-26100000D01*
X23371004Y-24083798D01*
X23400001Y-24060001D01*
X23446443Y-24003411D01*
X23494974Y-23944277D01*
X23565546Y-23812247D01*
X23565546Y-23812246D01*
X23609003Y-23668986D01*
X23620000Y-23557333D01*
X23620000Y-23557323D01*
X23623676Y-23520000D01*
X23620000Y-23482677D01*
X23620000Y-20900000D01*
X24461928Y-20900000D01*
X24474188Y-21024482D01*
X24510498Y-21144180D01*
X24569463Y-21254494D01*
X24648815Y-21351185D01*
X24745506Y-21430537D01*
X24855820Y-21489502D01*
X24975518Y-21525812D01*
X25100000Y-21538072D01*
X25714250Y-21535000D01*
X25873000Y-21376250D01*
X25873000Y-20127000D01*
X24623750Y-20127000D01*
X24465000Y-20285750D01*
X24461928Y-20900000D01*
X23620000Y-20900000D01*
X23620000Y-19100000D01*
X24461928Y-19100000D01*
X24465000Y-19714250D01*
X24623750Y-19873000D01*
X25873000Y-19873000D01*
X25873000Y-18623750D01*
X26127000Y-18623750D01*
X26127000Y-19873000D01*
X26147000Y-19873000D01*
X26147000Y-20127000D01*
X26127000Y-20127000D01*
X26127000Y-21376250D01*
X26285750Y-21535000D01*
X26900000Y-21538072D01*
X27024482Y-21525812D01*
X27144180Y-21489502D01*
X27254494Y-21430537D01*
X27351185Y-21351185D01*
X27430537Y-21254494D01*
X27489502Y-21144180D01*
X27495056Y-21125873D01*
X27561495Y-21192312D01*
X27812905Y-21360299D01*
X28092257Y-21476011D01*
X28388816Y-21535000D01*
X28691184Y-21535000D01*
X28987743Y-21476011D01*
X29267095Y-21360299D01*
X29518505Y-21192312D01*
X29732312Y-20978505D01*
X29900299Y-20727095D01*
X30016011Y-20447743D01*
X30075000Y-20151184D01*
X30075000Y-19848816D01*
X30016011Y-19552257D01*
X29900299Y-19272905D01*
X29732312Y-19021495D01*
X29518505Y-18807688D01*
X29267095Y-18639701D01*
X28987743Y-18523989D01*
X28691184Y-18465000D01*
X28388816Y-18465000D01*
X28092257Y-18523989D01*
X27812905Y-18639701D01*
X27561495Y-18807688D01*
X27495056Y-18874127D01*
X27489502Y-18855820D01*
X27430537Y-18745506D01*
X27351185Y-18648815D01*
X27254494Y-18569463D01*
X27144180Y-18510498D01*
X27024482Y-18474188D01*
X26900000Y-18461928D01*
X26285750Y-18465000D01*
X26127000Y-18623750D01*
X25873000Y-18623750D01*
X25714250Y-18465000D01*
X25100000Y-18461928D01*
X24975518Y-18474188D01*
X24855820Y-18510498D01*
X24745506Y-18569463D01*
X24648815Y-18648815D01*
X24569463Y-18745506D01*
X24510498Y-18855820D01*
X24474188Y-18975518D01*
X24461928Y-19100000D01*
X23620000Y-19100000D01*
X23620000Y-18094801D01*
X30519802Y-11195000D01*
X30581939Y-11195000D01*
X30781898Y-11155226D01*
X30970256Y-11077205D01*
X31139774Y-10963937D01*
X31283937Y-10819774D01*
X31397205Y-10650256D01*
X31475226Y-10461898D01*
X31515000Y-10261939D01*
X31515000Y-10058061D01*
X31475226Y-9858102D01*
X31397205Y-9669744D01*
X31283937Y-9500226D01*
X31139774Y-9356063D01*
X30970256Y-9242795D01*
X30781898Y-9164774D01*
X30581939Y-9125000D01*
X30378061Y-9125000D01*
X30178102Y-9164774D01*
X29989744Y-9242795D01*
X29820226Y-9356063D01*
X29676063Y-9500226D01*
X29562795Y-9669744D01*
X29484774Y-9858102D01*
X29445000Y-10058061D01*
X29445000Y-10120198D01*
X22350000Y-17215199D01*
X22350000Y-16824801D01*
X26709802Y-12465000D01*
X26771939Y-12465000D01*
X26971898Y-12425226D01*
X27160256Y-12347205D01*
X27329774Y-12233937D01*
X27473937Y-12089774D01*
X27587205Y-11920256D01*
X27665226Y-11731898D01*
X27705000Y-11531939D01*
X27705000Y-11328061D01*
X27665226Y-11128102D01*
X27587205Y-10939744D01*
X27473937Y-10770226D01*
X27329774Y-10626063D01*
X27160256Y-10512795D01*
X26971898Y-10434774D01*
X26771939Y-10395000D01*
X26568061Y-10395000D01*
X26368102Y-10434774D01*
X26179744Y-10512795D01*
X26010226Y-10626063D01*
X25866063Y-10770226D01*
X25752795Y-10939744D01*
X25674774Y-11128102D01*
X25635000Y-11328061D01*
X25635000Y-11390198D01*
X21080000Y-15945199D01*
X21080000Y-15554801D01*
X28254802Y-8380000D01*
X34282678Y-8380000D01*
X34320000Y-8383676D01*
X34357322Y-8380000D01*
X34357333Y-8380000D01*
X34468986Y-8369003D01*
X34612247Y-8325546D01*
X34744276Y-8254974D01*
X34860001Y-8160001D01*
X34883804Y-8130997D01*
X36073592Y-6941210D01*
X36293740Y-6985000D01*
X36586260Y-6985000D01*
X36873158Y-6927932D01*
X37143411Y-6815990D01*
X37386632Y-6653475D01*
X37593475Y-6446632D01*
X37715195Y-6264466D01*
X37784822Y-6381355D01*
X37979731Y-6597588D01*
X38213080Y-6771641D01*
X38475901Y-6896825D01*
X38623110Y-6941476D01*
X38853000Y-6820155D01*
X38853000Y-5627000D01*
X38833000Y-5627000D01*
X38833000Y-5373000D01*
X38853000Y-5373000D01*
X38853000Y-5353000D01*
X39107000Y-5353000D01*
X39107000Y-5373000D01*
X39127000Y-5373000D01*
X39127000Y-5627000D01*
X39107000Y-5627000D01*
X39107000Y-6820155D01*
X39336890Y-6941476D01*
X39484099Y-6896825D01*
X39746920Y-6771641D01*
X39980269Y-6597588D01*
X40175178Y-6381355D01*
X40244805Y-6264466D01*
X40366525Y-6446632D01*
X40573368Y-6653475D01*
X40816589Y-6815990D01*
X41086842Y-6927932D01*
X41373740Y-6985000D01*
X41666260Y-6985000D01*
X41953158Y-6927932D01*
X42223411Y-6815990D01*
X42466632Y-6653475D01*
X42673475Y-6446632D01*
X42790000Y-6272240D01*
X42906525Y-6446632D01*
X43113368Y-6653475D01*
X43356589Y-6815990D01*
X43626842Y-6927932D01*
X43913740Y-6985000D01*
X44206260Y-6985000D01*
X44493158Y-6927932D01*
X44763411Y-6815990D01*
X45006632Y-6653475D01*
X45213475Y-6446632D01*
X45330000Y-6272240D01*
X45446525Y-6446632D01*
X45653368Y-6653475D01*
X45896589Y-6815990D01*
X46166842Y-6927932D01*
X46453740Y-6985000D01*
X46746260Y-6985000D01*
X46966408Y-6941209D01*
X52580001Y-12554804D01*
X52580000Y-41345198D01*
X52491375Y-41433823D01*
X52476912Y-41427832D01*
X52161033Y-41365000D01*
X51838967Y-41365000D01*
X51523088Y-41427832D01*
X51225537Y-41551082D01*
X50957748Y-41730013D01*
X50730013Y-41957748D01*
X50551082Y-42225537D01*
X50427832Y-42523088D01*
X50365000Y-42838967D01*
X50365000Y-43161033D01*
X50427832Y-43476912D01*
X50551082Y-43774463D01*
X50730013Y-44042252D01*
X50957748Y-44269987D01*
X51225537Y-44448918D01*
X51523088Y-44572168D01*
X51838967Y-44635000D01*
X52161033Y-44635000D01*
X52476912Y-44572168D01*
X52774463Y-44448918D01*
X53042252Y-44269987D01*
X53176826Y-44135413D01*
X57544192Y-44135413D01*
X57639956Y-44399814D01*
X57929571Y-44540704D01*
X58241108Y-44622384D01*
X58562595Y-44641718D01*
X58881675Y-44597961D01*
X59186088Y-44492795D01*
X59360044Y-44399814D01*
X59455808Y-44135413D01*
X58500000Y-43179605D01*
X57544192Y-44135413D01*
X53176826Y-44135413D01*
X53269987Y-44042252D01*
X53448918Y-43774463D01*
X53572168Y-43476912D01*
X53635000Y-43161033D01*
X53635000Y-43062595D01*
X56858282Y-43062595D01*
X56902039Y-43381675D01*
X57007205Y-43686088D01*
X57100186Y-43860044D01*
X57364587Y-43955808D01*
X58320395Y-43000000D01*
X58679605Y-43000000D01*
X59635413Y-43955808D01*
X59899814Y-43860044D01*
X60040704Y-43570429D01*
X60122384Y-43258892D01*
X60141718Y-42937405D01*
X60097961Y-42618325D01*
X59992795Y-42313912D01*
X59899814Y-42139956D01*
X59635413Y-42044192D01*
X58679605Y-43000000D01*
X58320395Y-43000000D01*
X57364587Y-42044192D01*
X57100186Y-42139956D01*
X56959296Y-42429571D01*
X56877616Y-42741108D01*
X56858282Y-43062595D01*
X53635000Y-43062595D01*
X53635000Y-42838967D01*
X53572168Y-42523088D01*
X53566177Y-42508625D01*
X53851004Y-42223798D01*
X53880001Y-42200001D01*
X53974974Y-42084276D01*
X54045546Y-41952247D01*
X54072136Y-41864587D01*
X57544192Y-41864587D01*
X58500000Y-42820395D01*
X59455808Y-41864587D01*
X59360044Y-41600186D01*
X59070429Y-41459296D01*
X58758892Y-41377616D01*
X58437405Y-41358282D01*
X58118325Y-41402039D01*
X57813912Y-41507205D01*
X57639956Y-41600186D01*
X57544192Y-41864587D01*
X54072136Y-41864587D01*
X54089003Y-41808986D01*
X54100000Y-41697333D01*
X54100000Y-41697324D01*
X54103676Y-41660001D01*
X54100000Y-41622678D01*
X54100000Y-12277322D01*
X54103676Y-12239999D01*
X54100000Y-12202676D01*
X54100000Y-12202667D01*
X54089003Y-12091014D01*
X54045546Y-11947753D01*
X53974974Y-11815724D01*
X53961811Y-11799685D01*
X53903799Y-11728996D01*
X53903795Y-11728992D01*
X53880001Y-11699999D01*
X53851008Y-11676205D01*
X49159802Y-6985000D01*
X49286260Y-6985000D01*
X49573158Y-6927932D01*
X49843411Y-6815990D01*
X50086632Y-6653475D01*
X50293475Y-6446632D01*
X50410000Y-6272240D01*
X50526525Y-6446632D01*
X50733368Y-6653475D01*
X50976589Y-6815990D01*
X51246842Y-6927932D01*
X51533740Y-6985000D01*
X51826260Y-6985000D01*
X52113158Y-6927932D01*
X52383411Y-6815990D01*
X52626632Y-6653475D01*
X52833475Y-6446632D01*
X52950000Y-6272240D01*
X53066525Y-6446632D01*
X53273368Y-6653475D01*
X53516589Y-6815990D01*
X53786842Y-6927932D01*
X54073740Y-6985000D01*
X54366260Y-6985000D01*
X54653158Y-6927932D01*
X54923411Y-6815990D01*
X55166632Y-6653475D01*
X55373475Y-6446632D01*
X55495195Y-6264466D01*
X55564822Y-6381355D01*
X55759731Y-6597588D01*
X55993080Y-6771641D01*
X56255901Y-6896825D01*
X56403110Y-6941476D01*
X56633000Y-6820155D01*
X56633000Y-5627000D01*
X56887000Y-5627000D01*
X56887000Y-6820155D01*
X57116890Y-6941476D01*
X57264099Y-6896825D01*
X57526920Y-6771641D01*
X57760269Y-6597588D01*
X57955178Y-6381355D01*
X58104157Y-6131252D01*
X58201481Y-5856891D01*
X58080814Y-5627000D01*
X56887000Y-5627000D01*
X56633000Y-5627000D01*
X56613000Y-5627000D01*
X56613000Y-5373000D01*
X56633000Y-5373000D01*
X56633000Y-5353000D01*
X56887000Y-5353000D01*
X56887000Y-5373000D01*
X58080814Y-5373000D01*
X58201481Y-5143109D01*
X58104157Y-4868748D01*
X57955178Y-4618645D01*
X57760269Y-4402412D01*
X57530594Y-4231100D01*
X57706632Y-4113475D01*
X57913475Y-3906632D01*
X58075990Y-3663411D01*
X58187932Y-3393158D01*
X58245000Y-3106260D01*
X58245000Y-2813740D01*
X58187932Y-2526842D01*
X58075990Y-2256589D01*
X57913475Y-2013368D01*
X57706632Y-1806525D01*
X57463411Y-1644010D01*
X57193158Y-1532068D01*
X56906260Y-1475000D01*
X56613740Y-1475000D01*
X56326842Y-1532068D01*
X56056589Y-1644010D01*
X55813368Y-1806525D01*
X55606525Y-2013368D01*
X55490000Y-2187760D01*
X55373475Y-2013368D01*
X55166632Y-1806525D01*
X54923411Y-1644010D01*
X54653158Y-1532068D01*
X54366260Y-1475000D01*
X54073740Y-1475000D01*
X53786842Y-1532068D01*
X53516589Y-1644010D01*
X53273368Y-1806525D01*
X53066525Y-2013368D01*
X52950000Y-2187760D01*
X52833475Y-2013368D01*
X52626632Y-1806525D01*
X52383411Y-1644010D01*
X52113158Y-1532068D01*
X51826260Y-1475000D01*
X51533740Y-1475000D01*
X51246842Y-1532068D01*
X50976589Y-1644010D01*
X50733368Y-1806525D01*
X50526525Y-2013368D01*
X50404805Y-2195534D01*
X50335178Y-2078645D01*
X50140269Y-1862412D01*
X49906920Y-1688359D01*
X49644099Y-1563175D01*
X49496890Y-1518524D01*
X49267000Y-1639845D01*
X49267000Y-2833000D01*
X49287000Y-2833000D01*
X49287000Y-3087000D01*
X49267000Y-3087000D01*
X49267000Y-3107000D01*
X49013000Y-3107000D01*
X49013000Y-3087000D01*
X48993000Y-3087000D01*
X48993000Y-2833000D01*
X49013000Y-2833000D01*
X49013000Y-1639845D01*
X48783110Y-1518524D01*
X48635901Y-1563175D01*
X48373080Y-1688359D01*
X48139731Y-1862412D01*
X47944822Y-2078645D01*
X47875195Y-2195534D01*
X47753475Y-2013368D01*
X47546632Y-1806525D01*
X47303411Y-1644010D01*
X47033158Y-1532068D01*
X46746260Y-1475000D01*
X46453740Y-1475000D01*
X46166842Y-1532068D01*
X45896589Y-1644010D01*
X45653368Y-1806525D01*
X45446525Y-2013368D01*
X45324805Y-2195534D01*
X45255178Y-2078645D01*
X45060269Y-1862412D01*
X44826920Y-1688359D01*
X44564099Y-1563175D01*
X44416890Y-1518524D01*
X44187000Y-1639845D01*
X44187000Y-2833000D01*
X44207000Y-2833000D01*
X44207000Y-3087000D01*
X44187000Y-3087000D01*
X44187000Y-3107000D01*
X43933000Y-3107000D01*
X43933000Y-3087000D01*
X43913000Y-3087000D01*
X43913000Y-2833000D01*
X43933000Y-2833000D01*
X43933000Y-1639845D01*
X43703110Y-1518524D01*
X43555901Y-1563175D01*
X43293080Y-1688359D01*
X43059731Y-1862412D01*
X42864822Y-2078645D01*
X42795195Y-2195534D01*
X42673475Y-2013368D01*
X42466632Y-1806525D01*
X42223411Y-1644010D01*
X41953158Y-1532068D01*
X41666260Y-1475000D01*
X41373740Y-1475000D01*
X41086842Y-1532068D01*
X40816589Y-1644010D01*
X40573368Y-1806525D01*
X40366525Y-2013368D01*
X40250000Y-2187760D01*
X40133475Y-2013368D01*
X39926632Y-1806525D01*
X39683411Y-1644010D01*
X39413158Y-1532068D01*
X39126260Y-1475000D01*
X38833740Y-1475000D01*
X38546842Y-1532068D01*
X38276589Y-1644010D01*
X38033368Y-1806525D01*
X37826525Y-2013368D01*
X37710000Y-2187760D01*
X37593475Y-2013368D01*
X37386632Y-1806525D01*
X37143411Y-1644010D01*
X36873158Y-1532068D01*
X36586260Y-1475000D01*
X36293740Y-1475000D01*
X36073592Y-1518791D01*
X35951801Y-1397000D01*
X63373000Y-1397000D01*
X63373000Y-2834766D01*
X63259085Y-2559750D01*
X63041851Y-2234636D01*
X62765364Y-1958149D01*
X62440250Y-1740915D01*
X62079003Y-1591282D01*
X61695505Y-1515000D01*
X61304495Y-1515000D01*
X60920997Y-1591282D01*
X60559750Y-1740915D01*
X60234636Y-1958149D01*
X59958149Y-2234636D01*
X59740915Y-2559750D01*
X59591282Y-2920997D01*
X59515000Y-3304495D01*
X59515000Y-3695505D01*
X59591282Y-4079003D01*
X59740915Y-4440250D01*
X59958149Y-4765364D01*
X60234636Y-5041851D01*
X60559750Y-5259085D01*
X60920997Y-5408718D01*
X61304495Y-5485000D01*
X61695505Y-5485000D01*
X62079003Y-5408718D01*
X62440250Y-5259085D01*
X62765364Y-5041851D01*
X63041851Y-4765364D01*
X63259085Y-4440250D01*
X63373000Y-4165234D01*
X63373000Y-51834766D01*
X63259085Y-51559750D01*
X63041851Y-51234636D01*
X62765364Y-50958149D01*
X62440250Y-50740915D01*
X62079003Y-50591282D01*
X61695505Y-50515000D01*
X61304495Y-50515000D01*
X60920997Y-50591282D01*
X60559750Y-50740915D01*
X60234636Y-50958149D01*
X59958149Y-51234636D01*
X59740915Y-51559750D01*
X59591282Y-51920997D01*
X59515000Y-52304495D01*
X59515000Y-52695505D01*
X59591282Y-53079003D01*
X59740915Y-53440250D01*
X59958149Y-53765364D01*
X60234636Y-54041851D01*
X60559750Y-54259085D01*
X60920997Y-54408718D01*
X61294440Y-54483000D01*
X3705560Y-54483000D01*
X4079003Y-54408718D01*
X4440250Y-54259085D01*
X4765364Y-54041851D01*
X5041851Y-53765364D01*
X5259085Y-53440250D01*
X5408718Y-53079003D01*
X5485000Y-52695505D01*
X5485000Y-52304495D01*
X5408718Y-51920997D01*
X5259085Y-51559750D01*
X5041851Y-51234636D01*
X4765364Y-50958149D01*
X4440250Y-50740915D01*
X4079003Y-50591282D01*
X3695505Y-50515000D01*
X3304495Y-50515000D01*
X2920997Y-50591282D01*
X2559750Y-50740915D01*
X2234636Y-50958149D01*
X1958149Y-51234636D01*
X1740915Y-51559750D01*
X1591282Y-51920997D01*
X1515000Y-52304495D01*
X1515000Y-52695505D01*
X1591282Y-53079003D01*
X1740915Y-53440250D01*
X1958149Y-53765364D01*
X2234636Y-54041851D01*
X2559750Y-54259085D01*
X2920997Y-54408718D01*
X3294440Y-54483000D01*
X1476305Y-54483000D01*
X1397000Y-54387137D01*
X1397000Y-48135413D01*
X24444192Y-48135413D01*
X24539956Y-48399814D01*
X24829571Y-48540704D01*
X25141108Y-48622384D01*
X25462595Y-48641718D01*
X25781675Y-48597961D01*
X26086088Y-48492795D01*
X26260044Y-48399814D01*
X26355808Y-48135413D01*
X25400000Y-47179605D01*
X24444192Y-48135413D01*
X1397000Y-48135413D01*
X1397000Y-47062595D01*
X23758282Y-47062595D01*
X23802039Y-47381675D01*
X23907205Y-47686088D01*
X24000186Y-47860044D01*
X24264587Y-47955808D01*
X25220395Y-47000000D01*
X25579605Y-47000000D01*
X26535413Y-47955808D01*
X26799814Y-47860044D01*
X26940704Y-47570429D01*
X27022384Y-47258892D01*
X27041718Y-46937405D01*
X26997961Y-46618325D01*
X26892795Y-46313912D01*
X26799814Y-46139956D01*
X26535413Y-46044192D01*
X25579605Y-47000000D01*
X25220395Y-47000000D01*
X24264587Y-46044192D01*
X24000186Y-46139956D01*
X23859296Y-46429571D01*
X23777616Y-46741108D01*
X23758282Y-47062595D01*
X1397000Y-47062595D01*
X1397000Y-45864587D01*
X24444192Y-45864587D01*
X25400000Y-46820395D01*
X26220395Y-46000000D01*
X31361928Y-46000000D01*
X31361928Y-48000000D01*
X31374188Y-48124482D01*
X31410498Y-48244180D01*
X31469463Y-48354494D01*
X31548815Y-48451185D01*
X31645506Y-48530537D01*
X31755820Y-48589502D01*
X31875518Y-48625812D01*
X32000000Y-48638072D01*
X34000000Y-48638072D01*
X34124482Y-48625812D01*
X34244180Y-48589502D01*
X34354494Y-48530537D01*
X34451185Y-48451185D01*
X34530537Y-48354494D01*
X34589502Y-48244180D01*
X34625812Y-48124482D01*
X34638072Y-48000000D01*
X34638072Y-47338967D01*
X37865000Y-47338967D01*
X37865000Y-47661033D01*
X37927832Y-47976912D01*
X38051082Y-48274463D01*
X38230013Y-48542252D01*
X38457748Y-48769987D01*
X38725537Y-48948918D01*
X39023088Y-49072168D01*
X39338967Y-49135000D01*
X39661033Y-49135000D01*
X39976912Y-49072168D01*
X40274463Y-48948918D01*
X40542252Y-48769987D01*
X40769987Y-48542252D01*
X40948918Y-48274463D01*
X41072168Y-47976912D01*
X41135000Y-47661033D01*
X41135000Y-47338967D01*
X44365000Y-47338967D01*
X44365000Y-47661033D01*
X44427832Y-47976912D01*
X44551082Y-48274463D01*
X44730013Y-48542252D01*
X44957748Y-48769987D01*
X45225537Y-48948918D01*
X45523088Y-49072168D01*
X45838967Y-49135000D01*
X46161033Y-49135000D01*
X46476912Y-49072168D01*
X46774463Y-48948918D01*
X47042252Y-48769987D01*
X47269987Y-48542252D01*
X47448918Y-48274463D01*
X47572168Y-47976912D01*
X47635000Y-47661033D01*
X47635000Y-47338967D01*
X50365000Y-47338967D01*
X50365000Y-47661033D01*
X50427832Y-47976912D01*
X50551082Y-48274463D01*
X50730013Y-48542252D01*
X50957748Y-48769987D01*
X51225537Y-48948918D01*
X51523088Y-49072168D01*
X51838967Y-49135000D01*
X52161033Y-49135000D01*
X52476912Y-49072168D01*
X52774463Y-48948918D01*
X53042252Y-48769987D01*
X53269987Y-48542252D01*
X53448918Y-48274463D01*
X53572168Y-47976912D01*
X53635000Y-47661033D01*
X53635000Y-47338967D01*
X56865000Y-47338967D01*
X56865000Y-47661033D01*
X56927832Y-47976912D01*
X57051082Y-48274463D01*
X57230013Y-48542252D01*
X57457748Y-48769987D01*
X57725537Y-48948918D01*
X58023088Y-49072168D01*
X58338967Y-49135000D01*
X58661033Y-49135000D01*
X58976912Y-49072168D01*
X59274463Y-48948918D01*
X59542252Y-48769987D01*
X59769987Y-48542252D01*
X59948918Y-48274463D01*
X60072168Y-47976912D01*
X60135000Y-47661033D01*
X60135000Y-47338967D01*
X60072168Y-47023088D01*
X59948918Y-46725537D01*
X59769987Y-46457748D01*
X59542252Y-46230013D01*
X59274463Y-46051082D01*
X58976912Y-45927832D01*
X58661033Y-45865000D01*
X58338967Y-45865000D01*
X58023088Y-45927832D01*
X57725537Y-46051082D01*
X57457748Y-46230013D01*
X57230013Y-46457748D01*
X57051082Y-46725537D01*
X56927832Y-47023088D01*
X56865000Y-47338967D01*
X53635000Y-47338967D01*
X53572168Y-47023088D01*
X53448918Y-46725537D01*
X53269987Y-46457748D01*
X53042252Y-46230013D01*
X52774463Y-46051082D01*
X52476912Y-45927832D01*
X52161033Y-45865000D01*
X51838967Y-45865000D01*
X51523088Y-45927832D01*
X51225537Y-46051082D01*
X50957748Y-46230013D01*
X50730013Y-46457748D01*
X50551082Y-46725537D01*
X50427832Y-47023088D01*
X50365000Y-47338967D01*
X47635000Y-47338967D01*
X47572168Y-47023088D01*
X47448918Y-46725537D01*
X47269987Y-46457748D01*
X47042252Y-46230013D01*
X46774463Y-46051082D01*
X46476912Y-45927832D01*
X46161033Y-45865000D01*
X45838967Y-45865000D01*
X45523088Y-45927832D01*
X45225537Y-46051082D01*
X44957748Y-46230013D01*
X44730013Y-46457748D01*
X44551082Y-46725537D01*
X44427832Y-47023088D01*
X44365000Y-47338967D01*
X41135000Y-47338967D01*
X41072168Y-47023088D01*
X40948918Y-46725537D01*
X40769987Y-46457748D01*
X40542252Y-46230013D01*
X40274463Y-46051082D01*
X39976912Y-45927832D01*
X39661033Y-45865000D01*
X39338967Y-45865000D01*
X39023088Y-45927832D01*
X38725537Y-46051082D01*
X38457748Y-46230013D01*
X38230013Y-46457748D01*
X38051082Y-46725537D01*
X37927832Y-47023088D01*
X37865000Y-47338967D01*
X34638072Y-47338967D01*
X34638072Y-46000000D01*
X34625812Y-45875518D01*
X34589502Y-45755820D01*
X34530537Y-45645506D01*
X34451185Y-45548815D01*
X34354494Y-45469463D01*
X34244180Y-45410498D01*
X34124482Y-45374188D01*
X34000000Y-45361928D01*
X32000000Y-45361928D01*
X31875518Y-45374188D01*
X31755820Y-45410498D01*
X31645506Y-45469463D01*
X31548815Y-45548815D01*
X31469463Y-45645506D01*
X31410498Y-45755820D01*
X31374188Y-45875518D01*
X31361928Y-46000000D01*
X26220395Y-46000000D01*
X26355808Y-45864587D01*
X26260044Y-45600186D01*
X25970429Y-45459296D01*
X25658892Y-45377616D01*
X25337405Y-45358282D01*
X25018325Y-45402039D01*
X24713912Y-45507205D01*
X24539956Y-45600186D01*
X24444192Y-45864587D01*
X1397000Y-45864587D01*
X1397000Y-42838967D01*
X37865000Y-42838967D01*
X37865000Y-43161033D01*
X37927832Y-43476912D01*
X38051082Y-43774463D01*
X38230013Y-44042252D01*
X38457748Y-44269987D01*
X38725537Y-44448918D01*
X39023088Y-44572168D01*
X39338967Y-44635000D01*
X39661033Y-44635000D01*
X39976912Y-44572168D01*
X40274463Y-44448918D01*
X40542252Y-44269987D01*
X40676826Y-44135413D01*
X45044192Y-44135413D01*
X45139956Y-44399814D01*
X45429571Y-44540704D01*
X45741108Y-44622384D01*
X46062595Y-44641718D01*
X46381675Y-44597961D01*
X46686088Y-44492795D01*
X46860044Y-44399814D01*
X46955808Y-44135413D01*
X46000000Y-43179605D01*
X45044192Y-44135413D01*
X40676826Y-44135413D01*
X40769987Y-44042252D01*
X40948918Y-43774463D01*
X41072168Y-43476912D01*
X41135000Y-43161033D01*
X41135000Y-43062595D01*
X44358282Y-43062595D01*
X44402039Y-43381675D01*
X44507205Y-43686088D01*
X44600186Y-43860044D01*
X44864587Y-43955808D01*
X45820395Y-43000000D01*
X46179605Y-43000000D01*
X47135413Y-43955808D01*
X47399814Y-43860044D01*
X47540704Y-43570429D01*
X47622384Y-43258892D01*
X47641718Y-42937405D01*
X47597961Y-42618325D01*
X47492795Y-42313912D01*
X47399814Y-42139956D01*
X47135413Y-42044192D01*
X46179605Y-43000000D01*
X45820395Y-43000000D01*
X44864587Y-42044192D01*
X44600186Y-42139956D01*
X44459296Y-42429571D01*
X44377616Y-42741108D01*
X44358282Y-43062595D01*
X41135000Y-43062595D01*
X41135000Y-42838967D01*
X41072168Y-42523088D01*
X40948918Y-42225537D01*
X40769987Y-41957748D01*
X40676826Y-41864587D01*
X45044192Y-41864587D01*
X46000000Y-42820395D01*
X46955808Y-41864587D01*
X46860044Y-41600186D01*
X46570429Y-41459296D01*
X46258892Y-41377616D01*
X45937405Y-41358282D01*
X45618325Y-41402039D01*
X45313912Y-41507205D01*
X45139956Y-41600186D01*
X45044192Y-41864587D01*
X40676826Y-41864587D01*
X40542252Y-41730013D01*
X40274463Y-41551082D01*
X39976912Y-41427832D01*
X39661033Y-41365000D01*
X39338967Y-41365000D01*
X39023088Y-41427832D01*
X38725537Y-41551082D01*
X38457748Y-41730013D01*
X38230013Y-41957748D01*
X38051082Y-42225537D01*
X37927832Y-42523088D01*
X37865000Y-42838967D01*
X1397000Y-42838967D01*
X1397000Y-3304495D01*
X1515000Y-3304495D01*
X1515000Y-3695505D01*
X1591282Y-4079003D01*
X1740915Y-4440250D01*
X1958149Y-4765364D01*
X2234636Y-5041851D01*
X2559750Y-5259085D01*
X2920997Y-5408718D01*
X3304495Y-5485000D01*
X3695505Y-5485000D01*
X4079003Y-5408718D01*
X4440250Y-5259085D01*
X4765364Y-5041851D01*
X5041851Y-4765364D01*
X5259085Y-4440250D01*
X5408718Y-4079003D01*
X5485000Y-3695505D01*
X5485000Y-3304495D01*
X5408718Y-2920997D01*
X5259085Y-2559750D01*
X5041851Y-2234636D01*
X4765364Y-1958149D01*
X4440250Y-1740915D01*
X4079003Y-1591282D01*
X3695505Y-1515000D01*
X3304495Y-1515000D01*
X2920997Y-1591282D01*
X2559750Y-1740915D01*
X2234636Y-1958149D01*
X1958149Y-2234636D01*
X1740915Y-2559750D01*
X1591282Y-2920997D01*
X1515000Y-3304495D01*
X1397000Y-3304495D01*
X1397000Y-1611500D01*
X1487065Y-1501069D01*
X1612863Y-1397000D01*
X25029197Y-1397000D01*
X24639183Y-1787013D01*
G04 #@! TA.AperFunction,Conductor*
D20*
G36*
X24639183Y-1787013D02*
G01*
X24506920Y-1688359D01*
X24244099Y-1563175D01*
X24096890Y-1518524D01*
X23867000Y-1639845D01*
X23867000Y-2833000D01*
X23887000Y-2833000D01*
X23887000Y-3087000D01*
X23867000Y-3087000D01*
X23867000Y-3107000D01*
X23613000Y-3107000D01*
X23613000Y-3087000D01*
X23593000Y-3087000D01*
X23593000Y-2833000D01*
X23613000Y-2833000D01*
X23613000Y-1639845D01*
X23383110Y-1518524D01*
X23235901Y-1563175D01*
X22973080Y-1688359D01*
X22739731Y-1862412D01*
X22544822Y-2078645D01*
X22475195Y-2195534D01*
X22353475Y-2013368D01*
X22146632Y-1806525D01*
X21903411Y-1644010D01*
X21633158Y-1532068D01*
X21346260Y-1475000D01*
X21053740Y-1475000D01*
X20766842Y-1532068D01*
X20496589Y-1644010D01*
X20253368Y-1806525D01*
X20046525Y-2013368D01*
X19930000Y-2187760D01*
X19813475Y-2013368D01*
X19606632Y-1806525D01*
X19363411Y-1644010D01*
X19093158Y-1532068D01*
X18806260Y-1475000D01*
X18513740Y-1475000D01*
X18226842Y-1532068D01*
X17956589Y-1644010D01*
X17713368Y-1806525D01*
X17506525Y-2013368D01*
X17390000Y-2187760D01*
X17273475Y-2013368D01*
X17066632Y-1806525D01*
X16823411Y-1644010D01*
X16553158Y-1532068D01*
X16266260Y-1475000D01*
X15973740Y-1475000D01*
X15686842Y-1532068D01*
X15416589Y-1644010D01*
X15173368Y-1806525D01*
X14966525Y-2013368D01*
X14844805Y-2195534D01*
X14775178Y-2078645D01*
X14580269Y-1862412D01*
X14346920Y-1688359D01*
X14084099Y-1563175D01*
X13936890Y-1518524D01*
X13707000Y-1639845D01*
X13707000Y-2833000D01*
X13727000Y-2833000D01*
X13727000Y-3087000D01*
X13707000Y-3087000D01*
X13707000Y-3107000D01*
X13453000Y-3107000D01*
X13453000Y-3087000D01*
X13433000Y-3087000D01*
X13433000Y-2833000D01*
X13453000Y-2833000D01*
X13453000Y-1639845D01*
X13223110Y-1518524D01*
X13075901Y-1563175D01*
X12813080Y-1688359D01*
X12579731Y-1862412D01*
X12384822Y-2078645D01*
X12315195Y-2195534D01*
X12193475Y-2013368D01*
X11986632Y-1806525D01*
X11743411Y-1644010D01*
X11473158Y-1532068D01*
X11186260Y-1475000D01*
X10893740Y-1475000D01*
X10606842Y-1532068D01*
X10336589Y-1644010D01*
X10093368Y-1806525D01*
X9886525Y-2013368D01*
X9770000Y-2187760D01*
X9653475Y-2013368D01*
X9446632Y-1806525D01*
X9203411Y-1644010D01*
X8933158Y-1532068D01*
X8646260Y-1475000D01*
X8353740Y-1475000D01*
X8066842Y-1532068D01*
X7796589Y-1644010D01*
X7553368Y-1806525D01*
X7346525Y-2013368D01*
X7184010Y-2256589D01*
X7072068Y-2526842D01*
X7015000Y-2813740D01*
X7015000Y-3106260D01*
X7072068Y-3393158D01*
X7184010Y-3663411D01*
X7346525Y-3906632D01*
X7478380Y-4038487D01*
X7405820Y-4060498D01*
X7295506Y-4119463D01*
X7198815Y-4198815D01*
X7119463Y-4295506D01*
X7060498Y-4405820D01*
X7024188Y-4525518D01*
X7011928Y-4650000D01*
X7011928Y-6350000D01*
X7024188Y-6474482D01*
X7060498Y-6594180D01*
X7119463Y-6704494D01*
X7198815Y-6801185D01*
X7295506Y-6880537D01*
X7405820Y-6939502D01*
X7525518Y-6975812D01*
X7650000Y-6988072D01*
X7740000Y-6988072D01*
X7740001Y-31322667D01*
X7736324Y-31360000D01*
X7750998Y-31508985D01*
X7794454Y-31652246D01*
X7865026Y-31784276D01*
X7936201Y-31871002D01*
X7960000Y-31900001D01*
X7988998Y-31923799D01*
X12576201Y-36511003D01*
X12599999Y-36540001D01*
X12628997Y-36563799D01*
X12715723Y-36634974D01*
X12847753Y-36705546D01*
X12991014Y-36749003D01*
X13102667Y-36760000D01*
X13102677Y-36760000D01*
X13140000Y-36763676D01*
X13177323Y-36760000D01*
X14040001Y-36760000D01*
X14040000Y-37622677D01*
X14036324Y-37660000D01*
X14040000Y-37697322D01*
X14040000Y-37697332D01*
X14050997Y-37808985D01*
X14094080Y-37951014D01*
X14094454Y-37952246D01*
X14165026Y-38084276D01*
X14177931Y-38100000D01*
X14259999Y-38200001D01*
X14289003Y-38223804D01*
X14676196Y-38610997D01*
X14699999Y-38640001D01*
X14773146Y-38700031D01*
X14815723Y-38734974D01*
X14947753Y-38805546D01*
X15091014Y-38849003D01*
X15202667Y-38860000D01*
X15202677Y-38860000D01*
X15240000Y-38863676D01*
X15277323Y-38860000D01*
X26632678Y-38860000D01*
X26670000Y-38863676D01*
X26707322Y-38860000D01*
X26707333Y-38860000D01*
X26818986Y-38849003D01*
X26962247Y-38805546D01*
X27094276Y-38734974D01*
X27210001Y-38640001D01*
X27233804Y-38610997D01*
X43431008Y-22413795D01*
X43460001Y-22390001D01*
X43483795Y-22361008D01*
X43483799Y-22361004D01*
X43554973Y-22274277D01*
X43554974Y-22274276D01*
X43625546Y-22142247D01*
X43669003Y-21998986D01*
X43680000Y-21887333D01*
X43680000Y-21887324D01*
X43683676Y-21850001D01*
X43680000Y-21812678D01*
X43680000Y-14988072D01*
X43770000Y-14988072D01*
X43894482Y-14975812D01*
X44014180Y-14939502D01*
X44124494Y-14880537D01*
X44221185Y-14801185D01*
X44300537Y-14704494D01*
X44359502Y-14594180D01*
X44383966Y-14513534D01*
X44459731Y-14597588D01*
X44693080Y-14771641D01*
X44955901Y-14896825D01*
X45103110Y-14941476D01*
X45333000Y-14820155D01*
X45333000Y-13627000D01*
X45313000Y-13627000D01*
X45313000Y-13373000D01*
X45333000Y-13373000D01*
X45333000Y-12179845D01*
X45587000Y-12179845D01*
X45587000Y-13373000D01*
X45607000Y-13373000D01*
X45607000Y-13627000D01*
X45587000Y-13627000D01*
X45587000Y-14820155D01*
X45816890Y-14941476D01*
X45964099Y-14896825D01*
X46226920Y-14771641D01*
X46460269Y-14597588D01*
X46655178Y-14381355D01*
X46724805Y-14264466D01*
X46846525Y-14446632D01*
X47053368Y-14653475D01*
X47296589Y-14815990D01*
X47566842Y-14927932D01*
X47853740Y-14985000D01*
X48146260Y-14985000D01*
X48433158Y-14927932D01*
X48703411Y-14815990D01*
X48946632Y-14653475D01*
X49153475Y-14446632D01*
X49270000Y-14272240D01*
X49386525Y-14446632D01*
X49593368Y-14653475D01*
X49836589Y-14815990D01*
X50106842Y-14927932D01*
X50393740Y-14985000D01*
X50686260Y-14985000D01*
X50973158Y-14927932D01*
X51243411Y-14815990D01*
X51486632Y-14653475D01*
X51693475Y-14446632D01*
X51855990Y-14203411D01*
X51967932Y-13933158D01*
X52025000Y-13646260D01*
X52025000Y-13353740D01*
X51967932Y-13066842D01*
X51855990Y-12796589D01*
X51693475Y-12553368D01*
X51486632Y-12346525D01*
X51243411Y-12184010D01*
X50973158Y-12072068D01*
X50686260Y-12015000D01*
X50393740Y-12015000D01*
X50106842Y-12072068D01*
X49836589Y-12184010D01*
X49593368Y-12346525D01*
X49386525Y-12553368D01*
X49270000Y-12727760D01*
X49153475Y-12553368D01*
X48946632Y-12346525D01*
X48703411Y-12184010D01*
X48433158Y-12072068D01*
X48146260Y-12015000D01*
X47853740Y-12015000D01*
X47566842Y-12072068D01*
X47296589Y-12184010D01*
X47053368Y-12346525D01*
X46846525Y-12553368D01*
X46724805Y-12735534D01*
X46655178Y-12618645D01*
X46460269Y-12402412D01*
X46226920Y-12228359D01*
X45964099Y-12103175D01*
X45816890Y-12058524D01*
X45587000Y-12179845D01*
X45333000Y-12179845D01*
X45103110Y-12058524D01*
X44955901Y-12103175D01*
X44693080Y-12228359D01*
X44459731Y-12402412D01*
X44383966Y-12486466D01*
X44359502Y-12405820D01*
X44300537Y-12295506D01*
X44221185Y-12198815D01*
X44124494Y-12119463D01*
X44014180Y-12060498D01*
X43894482Y-12024188D01*
X43770000Y-12011928D01*
X42070000Y-12011928D01*
X41945518Y-12024188D01*
X41825820Y-12060498D01*
X41715506Y-12119463D01*
X41618815Y-12198815D01*
X41539463Y-12295506D01*
X41480498Y-12405820D01*
X41444188Y-12525518D01*
X41431928Y-12650000D01*
X41431928Y-14350000D01*
X41444188Y-14474482D01*
X41480498Y-14594180D01*
X41539463Y-14704494D01*
X41618815Y-14801185D01*
X41715506Y-14880537D01*
X41825820Y-14939502D01*
X41945518Y-14975812D01*
X42070000Y-14988072D01*
X42160000Y-14988072D01*
X42160001Y-21535196D01*
X26355199Y-37340000D01*
X19253889Y-37340000D01*
X19301185Y-37301185D01*
X19380537Y-37204494D01*
X19439502Y-37094180D01*
X19475812Y-36974482D01*
X19488072Y-36850000D01*
X19488072Y-35150000D01*
X19475812Y-35025518D01*
X19439502Y-34905820D01*
X19380537Y-34795506D01*
X19301185Y-34698815D01*
X19204494Y-34619463D01*
X19094180Y-34560498D01*
X19021620Y-34538487D01*
X19153475Y-34406632D01*
X19315990Y-34163411D01*
X19427932Y-33893158D01*
X19485000Y-33606260D01*
X19485000Y-33313740D01*
X19427932Y-33026842D01*
X19315990Y-32756589D01*
X19153475Y-32513368D01*
X18946632Y-32306525D01*
X18764466Y-32184805D01*
X18881355Y-32115178D01*
X19097588Y-31920269D01*
X19271641Y-31686920D01*
X19396825Y-31424099D01*
X19441476Y-31276890D01*
X19320155Y-31047000D01*
X18127000Y-31047000D01*
X18127000Y-31067000D01*
X17873000Y-31067000D01*
X17873000Y-31047000D01*
X16679845Y-31047000D01*
X16558524Y-31276890D01*
X16603175Y-31424099D01*
X16728359Y-31686920D01*
X16902412Y-31920269D01*
X17118645Y-32115178D01*
X17235534Y-32184805D01*
X17053368Y-32306525D01*
X16846525Y-32513368D01*
X16684010Y-32756589D01*
X16572068Y-33026842D01*
X16515000Y-33313740D01*
X16515000Y-33606260D01*
X16572068Y-33893158D01*
X16684010Y-34163411D01*
X16846525Y-34406632D01*
X16978380Y-34538487D01*
X16905820Y-34560498D01*
X16795506Y-34619463D01*
X16698815Y-34698815D01*
X16619463Y-34795506D01*
X16560498Y-34905820D01*
X16524188Y-35025518D01*
X16511928Y-35150000D01*
X16511928Y-35240000D01*
X14837333Y-35240000D01*
X14800000Y-35236323D01*
X14762667Y-35240000D01*
X13454802Y-35240000D01*
X9260000Y-31045199D01*
X9260000Y-6988072D01*
X9350000Y-6988072D01*
X9474482Y-6975812D01*
X9594180Y-6939502D01*
X9704494Y-6880537D01*
X9801185Y-6801185D01*
X9880537Y-6704494D01*
X9939502Y-6594180D01*
X9961513Y-6521620D01*
X10093368Y-6653475D01*
X10336589Y-6815990D01*
X10606842Y-6927932D01*
X10893740Y-6985000D01*
X11186260Y-6985000D01*
X11473158Y-6927932D01*
X11743411Y-6815990D01*
X11986632Y-6653475D01*
X12193475Y-6446632D01*
X12310000Y-6272240D01*
X12426525Y-6446632D01*
X12633368Y-6653475D01*
X12876589Y-6815990D01*
X13146842Y-6927932D01*
X13433740Y-6985000D01*
X13726260Y-6985000D01*
X14013158Y-6927932D01*
X14283411Y-6815990D01*
X14526632Y-6653475D01*
X14733475Y-6446632D01*
X14850000Y-6272240D01*
X14966525Y-6446632D01*
X15173368Y-6653475D01*
X15416589Y-6815990D01*
X15686842Y-6927932D01*
X15973740Y-6985000D01*
X16266260Y-6985000D01*
X16553158Y-6927932D01*
X16823411Y-6815990D01*
X17066632Y-6653475D01*
X17273475Y-6446632D01*
X17395195Y-6264466D01*
X17464822Y-6381355D01*
X17659731Y-6597588D01*
X17893080Y-6771641D01*
X18155901Y-6896825D01*
X18303110Y-6941476D01*
X18533000Y-6820155D01*
X18533000Y-5627000D01*
X18513000Y-5627000D01*
X18513000Y-5373000D01*
X18533000Y-5373000D01*
X18533000Y-5353000D01*
X18787000Y-5353000D01*
X18787000Y-5373000D01*
X18807000Y-5373000D01*
X18807000Y-5627000D01*
X18787000Y-5627000D01*
X18787000Y-6820155D01*
X19016890Y-6941476D01*
X19164099Y-6896825D01*
X19426920Y-6771641D01*
X19660269Y-6597588D01*
X19855178Y-6381355D01*
X19924805Y-6264466D01*
X20046525Y-6446632D01*
X20253368Y-6653475D01*
X20496589Y-6815990D01*
X20766842Y-6927932D01*
X21053740Y-6985000D01*
X21346260Y-6985000D01*
X21633158Y-6927932D01*
X21903411Y-6815990D01*
X22146632Y-6653475D01*
X22353475Y-6446632D01*
X22470000Y-6272240D01*
X22586525Y-6446632D01*
X22793368Y-6653475D01*
X23036589Y-6815990D01*
X23306842Y-6927932D01*
X23593740Y-6985000D01*
X23886260Y-6985000D01*
X24155001Y-6931544D01*
X24155001Y-7790197D01*
X17488998Y-14456201D01*
X17460000Y-14479999D01*
X17436202Y-14508997D01*
X17436201Y-14508998D01*
X17365026Y-14595724D01*
X17294454Y-14727754D01*
X17294077Y-14728998D01*
X17250998Y-14871014D01*
X17244058Y-14941476D01*
X17236324Y-15020000D01*
X17240001Y-15057332D01*
X17240000Y-19481821D01*
X17053368Y-19606525D01*
X16846525Y-19813368D01*
X16684010Y-20056589D01*
X16572068Y-20326842D01*
X16515000Y-20613740D01*
X16515000Y-20906260D01*
X16572068Y-21193158D01*
X16684010Y-21463411D01*
X16846525Y-21706632D01*
X17053368Y-21913475D01*
X17227760Y-22030000D01*
X17053368Y-22146525D01*
X16846525Y-22353368D01*
X16684010Y-22596589D01*
X16572068Y-22866842D01*
X16515000Y-23153740D01*
X16515000Y-23446260D01*
X16572068Y-23733158D01*
X16684010Y-24003411D01*
X16846525Y-24246632D01*
X17053368Y-24453475D01*
X17227760Y-24570000D01*
X17053368Y-24686525D01*
X16846525Y-24893368D01*
X16684010Y-25136589D01*
X16572068Y-25406842D01*
X16515000Y-25693740D01*
X16515000Y-25986260D01*
X16572068Y-26273158D01*
X16684010Y-26543411D01*
X16846525Y-26786632D01*
X17053368Y-26993475D01*
X17227760Y-27110000D01*
X17053368Y-27226525D01*
X16846525Y-27433368D01*
X16684010Y-27676589D01*
X16572068Y-27946842D01*
X16515000Y-28233740D01*
X16515000Y-28526260D01*
X16572068Y-28813158D01*
X16684010Y-29083411D01*
X16846525Y-29326632D01*
X17053368Y-29533475D01*
X17235534Y-29655195D01*
X17118645Y-29724822D01*
X16902412Y-29919731D01*
X16728359Y-30153080D01*
X16603175Y-30415901D01*
X16558524Y-30563110D01*
X16679845Y-30793000D01*
X17873000Y-30793000D01*
X17873000Y-30773000D01*
X18127000Y-30773000D01*
X18127000Y-30793000D01*
X19320155Y-30793000D01*
X19441476Y-30563110D01*
X19396825Y-30415901D01*
X19271641Y-30153080D01*
X19097588Y-29919731D01*
X18881355Y-29724822D01*
X18764466Y-29655195D01*
X18946632Y-29533475D01*
X19153475Y-29326632D01*
X19315990Y-29083411D01*
X19427932Y-28813158D01*
X19485000Y-28526260D01*
X19485000Y-28233740D01*
X19441209Y-28013592D01*
X19554801Y-27900000D01*
X24461928Y-27900000D01*
X24474188Y-28024482D01*
X24510498Y-28144180D01*
X24569463Y-28254494D01*
X24648815Y-28351185D01*
X24745506Y-28430537D01*
X24855820Y-28489502D01*
X24975518Y-28525812D01*
X25100000Y-28538072D01*
X25714250Y-28535000D01*
X25873000Y-28376250D01*
X25873000Y-27127000D01*
X24623750Y-27127000D01*
X24465000Y-27285750D01*
X24461928Y-27900000D01*
X19554801Y-27900000D01*
X21354801Y-26100000D01*
X24461928Y-26100000D01*
X24465000Y-26714250D01*
X24623750Y-26873000D01*
X25873000Y-26873000D01*
X25873000Y-25623750D01*
X26127000Y-25623750D01*
X26127000Y-26873000D01*
X26147000Y-26873000D01*
X26147000Y-27127000D01*
X26127000Y-27127000D01*
X26127000Y-28376250D01*
X26285750Y-28535000D01*
X26900000Y-28538072D01*
X27024482Y-28525812D01*
X27144180Y-28489502D01*
X27254494Y-28430537D01*
X27351185Y-28351185D01*
X27430537Y-28254494D01*
X27489502Y-28144180D01*
X27495056Y-28125873D01*
X27561495Y-28192312D01*
X27812905Y-28360299D01*
X28092257Y-28476011D01*
X28388816Y-28535000D01*
X28691184Y-28535000D01*
X28987743Y-28476011D01*
X29267095Y-28360299D01*
X29518505Y-28192312D01*
X29732312Y-27978505D01*
X29900299Y-27727095D01*
X30016011Y-27447743D01*
X30075000Y-27151184D01*
X30075000Y-26848816D01*
X30016011Y-26552257D01*
X29900299Y-26272905D01*
X29732312Y-26021495D01*
X29518505Y-25807688D01*
X29267095Y-25639701D01*
X28987743Y-25523989D01*
X28691184Y-25465000D01*
X28388816Y-25465000D01*
X28092257Y-25523989D01*
X27812905Y-25639701D01*
X27561495Y-25807688D01*
X27495056Y-25874127D01*
X27489502Y-25855820D01*
X27430537Y-25745506D01*
X27351185Y-25648815D01*
X27254494Y-25569463D01*
X27144180Y-25510498D01*
X27024482Y-25474188D01*
X26900000Y-25461928D01*
X26285750Y-25465000D01*
X26127000Y-25623750D01*
X25873000Y-25623750D01*
X25714250Y-25465000D01*
X25100000Y-25461928D01*
X24975518Y-25474188D01*
X24855820Y-25510498D01*
X24745506Y-25569463D01*
X24648815Y-25648815D01*
X24569463Y-25745506D01*
X24510498Y-25855820D01*
X24474188Y-25975518D01*
X24461928Y-26100000D01*
X21354801Y-26100000D01*
X23371004Y-24083798D01*
X23400001Y-24060001D01*
X23446443Y-24003411D01*
X23494974Y-23944277D01*
X23565546Y-23812247D01*
X23565546Y-23812246D01*
X23609003Y-23668986D01*
X23620000Y-23557333D01*
X23620000Y-23557323D01*
X23623676Y-23520000D01*
X23620000Y-23482677D01*
X23620000Y-20900000D01*
X24461928Y-20900000D01*
X24474188Y-21024482D01*
X24510498Y-21144180D01*
X24569463Y-21254494D01*
X24648815Y-21351185D01*
X24745506Y-21430537D01*
X24855820Y-21489502D01*
X24975518Y-21525812D01*
X25100000Y-21538072D01*
X25714250Y-21535000D01*
X25873000Y-21376250D01*
X25873000Y-20127000D01*
X24623750Y-20127000D01*
X24465000Y-20285750D01*
X24461928Y-20900000D01*
X23620000Y-20900000D01*
X23620000Y-19100000D01*
X24461928Y-19100000D01*
X24465000Y-19714250D01*
X24623750Y-19873000D01*
X25873000Y-19873000D01*
X25873000Y-18623750D01*
X26127000Y-18623750D01*
X26127000Y-19873000D01*
X26147000Y-19873000D01*
X26147000Y-20127000D01*
X26127000Y-20127000D01*
X26127000Y-21376250D01*
X26285750Y-21535000D01*
X26900000Y-21538072D01*
X27024482Y-21525812D01*
X27144180Y-21489502D01*
X27254494Y-21430537D01*
X27351185Y-21351185D01*
X27430537Y-21254494D01*
X27489502Y-21144180D01*
X27495056Y-21125873D01*
X27561495Y-21192312D01*
X27812905Y-21360299D01*
X28092257Y-21476011D01*
X28388816Y-21535000D01*
X28691184Y-21535000D01*
X28987743Y-21476011D01*
X29267095Y-21360299D01*
X29518505Y-21192312D01*
X29732312Y-20978505D01*
X29900299Y-20727095D01*
X30016011Y-20447743D01*
X30075000Y-20151184D01*
X30075000Y-19848816D01*
X30016011Y-19552257D01*
X29900299Y-19272905D01*
X29732312Y-19021495D01*
X29518505Y-18807688D01*
X29267095Y-18639701D01*
X28987743Y-18523989D01*
X28691184Y-18465000D01*
X28388816Y-18465000D01*
X28092257Y-18523989D01*
X27812905Y-18639701D01*
X27561495Y-18807688D01*
X27495056Y-18874127D01*
X27489502Y-18855820D01*
X27430537Y-18745506D01*
X27351185Y-18648815D01*
X27254494Y-18569463D01*
X27144180Y-18510498D01*
X27024482Y-18474188D01*
X26900000Y-18461928D01*
X26285750Y-18465000D01*
X26127000Y-18623750D01*
X25873000Y-18623750D01*
X25714250Y-18465000D01*
X25100000Y-18461928D01*
X24975518Y-18474188D01*
X24855820Y-18510498D01*
X24745506Y-18569463D01*
X24648815Y-18648815D01*
X24569463Y-18745506D01*
X24510498Y-18855820D01*
X24474188Y-18975518D01*
X24461928Y-19100000D01*
X23620000Y-19100000D01*
X23620000Y-18094801D01*
X30519802Y-11195000D01*
X30581939Y-11195000D01*
X30781898Y-11155226D01*
X30970256Y-11077205D01*
X31139774Y-10963937D01*
X31283937Y-10819774D01*
X31397205Y-10650256D01*
X31475226Y-10461898D01*
X31515000Y-10261939D01*
X31515000Y-10058061D01*
X31475226Y-9858102D01*
X31397205Y-9669744D01*
X31283937Y-9500226D01*
X31139774Y-9356063D01*
X30970256Y-9242795D01*
X30781898Y-9164774D01*
X30581939Y-9125000D01*
X30378061Y-9125000D01*
X30178102Y-9164774D01*
X29989744Y-9242795D01*
X29820226Y-9356063D01*
X29676063Y-9500226D01*
X29562795Y-9669744D01*
X29484774Y-9858102D01*
X29445000Y-10058061D01*
X29445000Y-10120198D01*
X22350000Y-17215199D01*
X22350000Y-16824801D01*
X26709802Y-12465000D01*
X26771939Y-12465000D01*
X26971898Y-12425226D01*
X27160256Y-12347205D01*
X27329774Y-12233937D01*
X27473937Y-12089774D01*
X27587205Y-11920256D01*
X27665226Y-11731898D01*
X27705000Y-11531939D01*
X27705000Y-11328061D01*
X27665226Y-11128102D01*
X27587205Y-10939744D01*
X27473937Y-10770226D01*
X27329774Y-10626063D01*
X27160256Y-10512795D01*
X26971898Y-10434774D01*
X26771939Y-10395000D01*
X26568061Y-10395000D01*
X26368102Y-10434774D01*
X26179744Y-10512795D01*
X26010226Y-10626063D01*
X25866063Y-10770226D01*
X25752795Y-10939744D01*
X25674774Y-11128102D01*
X25635000Y-11328061D01*
X25635000Y-11390198D01*
X21080000Y-15945199D01*
X21080000Y-15554801D01*
X28254802Y-8380000D01*
X34282678Y-8380000D01*
X34320000Y-8383676D01*
X34357322Y-8380000D01*
X34357333Y-8380000D01*
X34468986Y-8369003D01*
X34612247Y-8325546D01*
X34744276Y-8254974D01*
X34860001Y-8160001D01*
X34883804Y-8130997D01*
X36073592Y-6941210D01*
X36293740Y-6985000D01*
X36586260Y-6985000D01*
X36873158Y-6927932D01*
X37143411Y-6815990D01*
X37386632Y-6653475D01*
X37593475Y-6446632D01*
X37715195Y-6264466D01*
X37784822Y-6381355D01*
X37979731Y-6597588D01*
X38213080Y-6771641D01*
X38475901Y-6896825D01*
X38623110Y-6941476D01*
X38853000Y-6820155D01*
X38853000Y-5627000D01*
X38833000Y-5627000D01*
X38833000Y-5373000D01*
X38853000Y-5373000D01*
X38853000Y-5353000D01*
X39107000Y-5353000D01*
X39107000Y-5373000D01*
X39127000Y-5373000D01*
X39127000Y-5627000D01*
X39107000Y-5627000D01*
X39107000Y-6820155D01*
X39336890Y-6941476D01*
X39484099Y-6896825D01*
X39746920Y-6771641D01*
X39980269Y-6597588D01*
X40175178Y-6381355D01*
X40244805Y-6264466D01*
X40366525Y-6446632D01*
X40573368Y-6653475D01*
X40816589Y-6815990D01*
X41086842Y-6927932D01*
X41373740Y-6985000D01*
X41666260Y-6985000D01*
X41953158Y-6927932D01*
X42223411Y-6815990D01*
X42466632Y-6653475D01*
X42673475Y-6446632D01*
X42790000Y-6272240D01*
X42906525Y-6446632D01*
X43113368Y-6653475D01*
X43356589Y-6815990D01*
X43626842Y-6927932D01*
X43913740Y-6985000D01*
X44206260Y-6985000D01*
X44493158Y-6927932D01*
X44763411Y-6815990D01*
X45006632Y-6653475D01*
X45213475Y-6446632D01*
X45330000Y-6272240D01*
X45446525Y-6446632D01*
X45653368Y-6653475D01*
X45896589Y-6815990D01*
X46166842Y-6927932D01*
X46453740Y-6985000D01*
X46746260Y-6985000D01*
X46966408Y-6941209D01*
X52580001Y-12554804D01*
X52580000Y-41345198D01*
X52491375Y-41433823D01*
X52476912Y-41427832D01*
X52161033Y-41365000D01*
X51838967Y-41365000D01*
X51523088Y-41427832D01*
X51225537Y-41551082D01*
X50957748Y-41730013D01*
X50730013Y-41957748D01*
X50551082Y-42225537D01*
X50427832Y-42523088D01*
X50365000Y-42838967D01*
X50365000Y-43161033D01*
X50427832Y-43476912D01*
X50551082Y-43774463D01*
X50730013Y-44042252D01*
X50957748Y-44269987D01*
X51225537Y-44448918D01*
X51523088Y-44572168D01*
X51838967Y-44635000D01*
X52161033Y-44635000D01*
X52476912Y-44572168D01*
X52774463Y-44448918D01*
X53042252Y-44269987D01*
X53176826Y-44135413D01*
X57544192Y-44135413D01*
X57639956Y-44399814D01*
X57929571Y-44540704D01*
X58241108Y-44622384D01*
X58562595Y-44641718D01*
X58881675Y-44597961D01*
X59186088Y-44492795D01*
X59360044Y-44399814D01*
X59455808Y-44135413D01*
X58500000Y-43179605D01*
X57544192Y-44135413D01*
X53176826Y-44135413D01*
X53269987Y-44042252D01*
X53448918Y-43774463D01*
X53572168Y-43476912D01*
X53635000Y-43161033D01*
X53635000Y-43062595D01*
X56858282Y-43062595D01*
X56902039Y-43381675D01*
X57007205Y-43686088D01*
X57100186Y-43860044D01*
X57364587Y-43955808D01*
X58320395Y-43000000D01*
X58679605Y-43000000D01*
X59635413Y-43955808D01*
X59899814Y-43860044D01*
X60040704Y-43570429D01*
X60122384Y-43258892D01*
X60141718Y-42937405D01*
X60097961Y-42618325D01*
X59992795Y-42313912D01*
X59899814Y-42139956D01*
X59635413Y-42044192D01*
X58679605Y-43000000D01*
X58320395Y-43000000D01*
X57364587Y-42044192D01*
X57100186Y-42139956D01*
X56959296Y-42429571D01*
X56877616Y-42741108D01*
X56858282Y-43062595D01*
X53635000Y-43062595D01*
X53635000Y-42838967D01*
X53572168Y-42523088D01*
X53566177Y-42508625D01*
X53851004Y-42223798D01*
X53880001Y-42200001D01*
X53974974Y-42084276D01*
X54045546Y-41952247D01*
X54072136Y-41864587D01*
X57544192Y-41864587D01*
X58500000Y-42820395D01*
X59455808Y-41864587D01*
X59360044Y-41600186D01*
X59070429Y-41459296D01*
X58758892Y-41377616D01*
X58437405Y-41358282D01*
X58118325Y-41402039D01*
X57813912Y-41507205D01*
X57639956Y-41600186D01*
X57544192Y-41864587D01*
X54072136Y-41864587D01*
X54089003Y-41808986D01*
X54100000Y-41697333D01*
X54100000Y-41697324D01*
X54103676Y-41660001D01*
X54100000Y-41622678D01*
X54100000Y-12277322D01*
X54103676Y-12239999D01*
X54100000Y-12202676D01*
X54100000Y-12202667D01*
X54089003Y-12091014D01*
X54045546Y-11947753D01*
X53974974Y-11815724D01*
X53961811Y-11799685D01*
X53903799Y-11728996D01*
X53903795Y-11728992D01*
X53880001Y-11699999D01*
X53851008Y-11676205D01*
X49159802Y-6985000D01*
X49286260Y-6985000D01*
X49573158Y-6927932D01*
X49843411Y-6815990D01*
X50086632Y-6653475D01*
X50293475Y-6446632D01*
X50410000Y-6272240D01*
X50526525Y-6446632D01*
X50733368Y-6653475D01*
X50976589Y-6815990D01*
X51246842Y-6927932D01*
X51533740Y-6985000D01*
X51826260Y-6985000D01*
X52113158Y-6927932D01*
X52383411Y-6815990D01*
X52626632Y-6653475D01*
X52833475Y-6446632D01*
X52950000Y-6272240D01*
X53066525Y-6446632D01*
X53273368Y-6653475D01*
X53516589Y-6815990D01*
X53786842Y-6927932D01*
X54073740Y-6985000D01*
X54366260Y-6985000D01*
X54653158Y-6927932D01*
X54923411Y-6815990D01*
X55166632Y-6653475D01*
X55373475Y-6446632D01*
X55495195Y-6264466D01*
X55564822Y-6381355D01*
X55759731Y-6597588D01*
X55993080Y-6771641D01*
X56255901Y-6896825D01*
X56403110Y-6941476D01*
X56633000Y-6820155D01*
X56633000Y-5627000D01*
X56887000Y-5627000D01*
X56887000Y-6820155D01*
X57116890Y-6941476D01*
X57264099Y-6896825D01*
X57526920Y-6771641D01*
X57760269Y-6597588D01*
X57955178Y-6381355D01*
X58104157Y-6131252D01*
X58201481Y-5856891D01*
X58080814Y-5627000D01*
X56887000Y-5627000D01*
X56633000Y-5627000D01*
X56613000Y-5627000D01*
X56613000Y-5373000D01*
X56633000Y-5373000D01*
X56633000Y-5353000D01*
X56887000Y-5353000D01*
X56887000Y-5373000D01*
X58080814Y-5373000D01*
X58201481Y-5143109D01*
X58104157Y-4868748D01*
X57955178Y-4618645D01*
X57760269Y-4402412D01*
X57530594Y-4231100D01*
X57706632Y-4113475D01*
X57913475Y-3906632D01*
X58075990Y-3663411D01*
X58187932Y-3393158D01*
X58245000Y-3106260D01*
X58245000Y-2813740D01*
X58187932Y-2526842D01*
X58075990Y-2256589D01*
X57913475Y-2013368D01*
X57706632Y-1806525D01*
X57463411Y-1644010D01*
X57193158Y-1532068D01*
X56906260Y-1475000D01*
X56613740Y-1475000D01*
X56326842Y-1532068D01*
X56056589Y-1644010D01*
X55813368Y-1806525D01*
X55606525Y-2013368D01*
X55490000Y-2187760D01*
X55373475Y-2013368D01*
X55166632Y-1806525D01*
X54923411Y-1644010D01*
X54653158Y-1532068D01*
X54366260Y-1475000D01*
X54073740Y-1475000D01*
X53786842Y-1532068D01*
X53516589Y-1644010D01*
X53273368Y-1806525D01*
X53066525Y-2013368D01*
X52950000Y-2187760D01*
X52833475Y-2013368D01*
X52626632Y-1806525D01*
X52383411Y-1644010D01*
X52113158Y-1532068D01*
X51826260Y-1475000D01*
X51533740Y-1475000D01*
X51246842Y-1532068D01*
X50976589Y-1644010D01*
X50733368Y-1806525D01*
X50526525Y-2013368D01*
X50404805Y-2195534D01*
X50335178Y-2078645D01*
X50140269Y-1862412D01*
X49906920Y-1688359D01*
X49644099Y-1563175D01*
X49496890Y-1518524D01*
X49267000Y-1639845D01*
X49267000Y-2833000D01*
X49287000Y-2833000D01*
X49287000Y-3087000D01*
X49267000Y-3087000D01*
X49267000Y-3107000D01*
X49013000Y-3107000D01*
X49013000Y-3087000D01*
X48993000Y-3087000D01*
X48993000Y-2833000D01*
X49013000Y-2833000D01*
X49013000Y-1639845D01*
X48783110Y-1518524D01*
X48635901Y-1563175D01*
X48373080Y-1688359D01*
X48139731Y-1862412D01*
X47944822Y-2078645D01*
X47875195Y-2195534D01*
X47753475Y-2013368D01*
X47546632Y-1806525D01*
X47303411Y-1644010D01*
X47033158Y-1532068D01*
X46746260Y-1475000D01*
X46453740Y-1475000D01*
X46166842Y-1532068D01*
X45896589Y-1644010D01*
X45653368Y-1806525D01*
X45446525Y-2013368D01*
X45324805Y-2195534D01*
X45255178Y-2078645D01*
X45060269Y-1862412D01*
X44826920Y-1688359D01*
X44564099Y-1563175D01*
X44416890Y-1518524D01*
X44187000Y-1639845D01*
X44187000Y-2833000D01*
X44207000Y-2833000D01*
X44207000Y-3087000D01*
X44187000Y-3087000D01*
X44187000Y-3107000D01*
X43933000Y-3107000D01*
X43933000Y-3087000D01*
X43913000Y-3087000D01*
X43913000Y-2833000D01*
X43933000Y-2833000D01*
X43933000Y-1639845D01*
X43703110Y-1518524D01*
X43555901Y-1563175D01*
X43293080Y-1688359D01*
X43059731Y-1862412D01*
X42864822Y-2078645D01*
X42795195Y-2195534D01*
X42673475Y-2013368D01*
X42466632Y-1806525D01*
X42223411Y-1644010D01*
X41953158Y-1532068D01*
X41666260Y-1475000D01*
X41373740Y-1475000D01*
X41086842Y-1532068D01*
X40816589Y-1644010D01*
X40573368Y-1806525D01*
X40366525Y-2013368D01*
X40250000Y-2187760D01*
X40133475Y-2013368D01*
X39926632Y-1806525D01*
X39683411Y-1644010D01*
X39413158Y-1532068D01*
X39126260Y-1475000D01*
X38833740Y-1475000D01*
X38546842Y-1532068D01*
X38276589Y-1644010D01*
X38033368Y-1806525D01*
X37826525Y-2013368D01*
X37710000Y-2187760D01*
X37593475Y-2013368D01*
X37386632Y-1806525D01*
X37143411Y-1644010D01*
X36873158Y-1532068D01*
X36586260Y-1475000D01*
X36293740Y-1475000D01*
X36073592Y-1518791D01*
X35951801Y-1397000D01*
X63373000Y-1397000D01*
X63373000Y-2834766D01*
X63259085Y-2559750D01*
X63041851Y-2234636D01*
X62765364Y-1958149D01*
X62440250Y-1740915D01*
X62079003Y-1591282D01*
X61695505Y-1515000D01*
X61304495Y-1515000D01*
X60920997Y-1591282D01*
X60559750Y-1740915D01*
X60234636Y-1958149D01*
X59958149Y-2234636D01*
X59740915Y-2559750D01*
X59591282Y-2920997D01*
X59515000Y-3304495D01*
X59515000Y-3695505D01*
X59591282Y-4079003D01*
X59740915Y-4440250D01*
X59958149Y-4765364D01*
X60234636Y-5041851D01*
X60559750Y-5259085D01*
X60920997Y-5408718D01*
X61304495Y-5485000D01*
X61695505Y-5485000D01*
X62079003Y-5408718D01*
X62440250Y-5259085D01*
X62765364Y-5041851D01*
X63041851Y-4765364D01*
X63259085Y-4440250D01*
X63373000Y-4165234D01*
X63373000Y-51834766D01*
X63259085Y-51559750D01*
X63041851Y-51234636D01*
X62765364Y-50958149D01*
X62440250Y-50740915D01*
X62079003Y-50591282D01*
X61695505Y-50515000D01*
X61304495Y-50515000D01*
X60920997Y-50591282D01*
X60559750Y-50740915D01*
X60234636Y-50958149D01*
X59958149Y-51234636D01*
X59740915Y-51559750D01*
X59591282Y-51920997D01*
X59515000Y-52304495D01*
X59515000Y-52695505D01*
X59591282Y-53079003D01*
X59740915Y-53440250D01*
X59958149Y-53765364D01*
X60234636Y-54041851D01*
X60559750Y-54259085D01*
X60920997Y-54408718D01*
X61294440Y-54483000D01*
X3705560Y-54483000D01*
X4079003Y-54408718D01*
X4440250Y-54259085D01*
X4765364Y-54041851D01*
X5041851Y-53765364D01*
X5259085Y-53440250D01*
X5408718Y-53079003D01*
X5485000Y-52695505D01*
X5485000Y-52304495D01*
X5408718Y-51920997D01*
X5259085Y-51559750D01*
X5041851Y-51234636D01*
X4765364Y-50958149D01*
X4440250Y-50740915D01*
X4079003Y-50591282D01*
X3695505Y-50515000D01*
X3304495Y-50515000D01*
X2920997Y-50591282D01*
X2559750Y-50740915D01*
X2234636Y-50958149D01*
X1958149Y-51234636D01*
X1740915Y-51559750D01*
X1591282Y-51920997D01*
X1515000Y-52304495D01*
X1515000Y-52695505D01*
X1591282Y-53079003D01*
X1740915Y-53440250D01*
X1958149Y-53765364D01*
X2234636Y-54041851D01*
X2559750Y-54259085D01*
X2920997Y-54408718D01*
X3294440Y-54483000D01*
X1476305Y-54483000D01*
X1397000Y-54387137D01*
X1397000Y-48135413D01*
X24444192Y-48135413D01*
X24539956Y-48399814D01*
X24829571Y-48540704D01*
X25141108Y-48622384D01*
X25462595Y-48641718D01*
X25781675Y-48597961D01*
X26086088Y-48492795D01*
X26260044Y-48399814D01*
X26355808Y-48135413D01*
X25400000Y-47179605D01*
X24444192Y-48135413D01*
X1397000Y-48135413D01*
X1397000Y-47062595D01*
X23758282Y-47062595D01*
X23802039Y-47381675D01*
X23907205Y-47686088D01*
X24000186Y-47860044D01*
X24264587Y-47955808D01*
X25220395Y-47000000D01*
X25579605Y-47000000D01*
X26535413Y-47955808D01*
X26799814Y-47860044D01*
X26940704Y-47570429D01*
X27022384Y-47258892D01*
X27041718Y-46937405D01*
X26997961Y-46618325D01*
X26892795Y-46313912D01*
X26799814Y-46139956D01*
X26535413Y-46044192D01*
X25579605Y-47000000D01*
X25220395Y-47000000D01*
X24264587Y-46044192D01*
X24000186Y-46139956D01*
X23859296Y-46429571D01*
X23777616Y-46741108D01*
X23758282Y-47062595D01*
X1397000Y-47062595D01*
X1397000Y-45864587D01*
X24444192Y-45864587D01*
X25400000Y-46820395D01*
X26220395Y-46000000D01*
X31361928Y-46000000D01*
X31361928Y-48000000D01*
X31374188Y-48124482D01*
X31410498Y-48244180D01*
X31469463Y-48354494D01*
X31548815Y-48451185D01*
X31645506Y-48530537D01*
X31755820Y-48589502D01*
X31875518Y-48625812D01*
X32000000Y-48638072D01*
X34000000Y-48638072D01*
X34124482Y-48625812D01*
X34244180Y-48589502D01*
X34354494Y-48530537D01*
X34451185Y-48451185D01*
X34530537Y-48354494D01*
X34589502Y-48244180D01*
X34625812Y-48124482D01*
X34638072Y-48000000D01*
X34638072Y-47338967D01*
X37865000Y-47338967D01*
X37865000Y-47661033D01*
X37927832Y-47976912D01*
X38051082Y-48274463D01*
X38230013Y-48542252D01*
X38457748Y-48769987D01*
X38725537Y-48948918D01*
X39023088Y-49072168D01*
X39338967Y-49135000D01*
X39661033Y-49135000D01*
X39976912Y-49072168D01*
X40274463Y-48948918D01*
X40542252Y-48769987D01*
X40769987Y-48542252D01*
X40948918Y-48274463D01*
X41072168Y-47976912D01*
X41135000Y-47661033D01*
X41135000Y-47338967D01*
X44365000Y-47338967D01*
X44365000Y-47661033D01*
X44427832Y-47976912D01*
X44551082Y-48274463D01*
X44730013Y-48542252D01*
X44957748Y-48769987D01*
X45225537Y-48948918D01*
X45523088Y-49072168D01*
X45838967Y-49135000D01*
X46161033Y-49135000D01*
X46476912Y-49072168D01*
X46774463Y-48948918D01*
X47042252Y-48769987D01*
X47269987Y-48542252D01*
X47448918Y-48274463D01*
X47572168Y-47976912D01*
X47635000Y-47661033D01*
X47635000Y-47338967D01*
X50365000Y-47338967D01*
X50365000Y-47661033D01*
X50427832Y-47976912D01*
X50551082Y-48274463D01*
X50730013Y-48542252D01*
X50957748Y-48769987D01*
X51225537Y-48948918D01*
X51523088Y-49072168D01*
X51838967Y-49135000D01*
X52161033Y-49135000D01*
X52476912Y-49072168D01*
X52774463Y-48948918D01*
X53042252Y-48769987D01*
X53269987Y-48542252D01*
X53448918Y-48274463D01*
X53572168Y-47976912D01*
X53635000Y-47661033D01*
X53635000Y-47338967D01*
X56865000Y-47338967D01*
X56865000Y-47661033D01*
X56927832Y-47976912D01*
X57051082Y-48274463D01*
X57230013Y-48542252D01*
X57457748Y-48769987D01*
X57725537Y-48948918D01*
X58023088Y-49072168D01*
X58338967Y-49135000D01*
X58661033Y-49135000D01*
X58976912Y-49072168D01*
X59274463Y-48948918D01*
X59542252Y-48769987D01*
X59769987Y-48542252D01*
X59948918Y-48274463D01*
X60072168Y-47976912D01*
X60135000Y-47661033D01*
X60135000Y-47338967D01*
X60072168Y-47023088D01*
X59948918Y-46725537D01*
X59769987Y-46457748D01*
X59542252Y-46230013D01*
X59274463Y-46051082D01*
X58976912Y-45927832D01*
X58661033Y-45865000D01*
X58338967Y-45865000D01*
X58023088Y-45927832D01*
X57725537Y-46051082D01*
X57457748Y-46230013D01*
X57230013Y-46457748D01*
X57051082Y-46725537D01*
X56927832Y-47023088D01*
X56865000Y-47338967D01*
X53635000Y-47338967D01*
X53572168Y-47023088D01*
X53448918Y-46725537D01*
X53269987Y-46457748D01*
X53042252Y-46230013D01*
X52774463Y-46051082D01*
X52476912Y-45927832D01*
X52161033Y-45865000D01*
X51838967Y-45865000D01*
X51523088Y-45927832D01*
X51225537Y-46051082D01*
X50957748Y-46230013D01*
X50730013Y-46457748D01*
X50551082Y-46725537D01*
X50427832Y-47023088D01*
X50365000Y-47338967D01*
X47635000Y-47338967D01*
X47572168Y-47023088D01*
X47448918Y-46725537D01*
X47269987Y-46457748D01*
X47042252Y-46230013D01*
X46774463Y-46051082D01*
X46476912Y-45927832D01*
X46161033Y-45865000D01*
X45838967Y-45865000D01*
X45523088Y-45927832D01*
X45225537Y-46051082D01*
X44957748Y-46230013D01*
X44730013Y-46457748D01*
X44551082Y-46725537D01*
X44427832Y-47023088D01*
X44365000Y-47338967D01*
X41135000Y-47338967D01*
X41072168Y-47023088D01*
X40948918Y-46725537D01*
X40769987Y-46457748D01*
X40542252Y-46230013D01*
X40274463Y-46051082D01*
X39976912Y-45927832D01*
X39661033Y-45865000D01*
X39338967Y-45865000D01*
X39023088Y-45927832D01*
X38725537Y-46051082D01*
X38457748Y-46230013D01*
X38230013Y-46457748D01*
X38051082Y-46725537D01*
X37927832Y-47023088D01*
X37865000Y-47338967D01*
X34638072Y-47338967D01*
X34638072Y-46000000D01*
X34625812Y-45875518D01*
X34589502Y-45755820D01*
X34530537Y-45645506D01*
X34451185Y-45548815D01*
X34354494Y-45469463D01*
X34244180Y-45410498D01*
X34124482Y-45374188D01*
X34000000Y-45361928D01*
X32000000Y-45361928D01*
X31875518Y-45374188D01*
X31755820Y-45410498D01*
X31645506Y-45469463D01*
X31548815Y-45548815D01*
X31469463Y-45645506D01*
X31410498Y-45755820D01*
X31374188Y-45875518D01*
X31361928Y-46000000D01*
X26220395Y-46000000D01*
X26355808Y-45864587D01*
X26260044Y-45600186D01*
X25970429Y-45459296D01*
X25658892Y-45377616D01*
X25337405Y-45358282D01*
X25018325Y-45402039D01*
X24713912Y-45507205D01*
X24539956Y-45600186D01*
X24444192Y-45864587D01*
X1397000Y-45864587D01*
X1397000Y-42838967D01*
X37865000Y-42838967D01*
X37865000Y-43161033D01*
X37927832Y-43476912D01*
X38051082Y-43774463D01*
X38230013Y-44042252D01*
X38457748Y-44269987D01*
X38725537Y-44448918D01*
X39023088Y-44572168D01*
X39338967Y-44635000D01*
X39661033Y-44635000D01*
X39976912Y-44572168D01*
X40274463Y-44448918D01*
X40542252Y-44269987D01*
X40676826Y-44135413D01*
X45044192Y-44135413D01*
X45139956Y-44399814D01*
X45429571Y-44540704D01*
X45741108Y-44622384D01*
X46062595Y-44641718D01*
X46381675Y-44597961D01*
X46686088Y-44492795D01*
X46860044Y-44399814D01*
X46955808Y-44135413D01*
X46000000Y-43179605D01*
X45044192Y-44135413D01*
X40676826Y-44135413D01*
X40769987Y-44042252D01*
X40948918Y-43774463D01*
X41072168Y-43476912D01*
X41135000Y-43161033D01*
X41135000Y-43062595D01*
X44358282Y-43062595D01*
X44402039Y-43381675D01*
X44507205Y-43686088D01*
X44600186Y-43860044D01*
X44864587Y-43955808D01*
X45820395Y-43000000D01*
X46179605Y-43000000D01*
X47135413Y-43955808D01*
X47399814Y-43860044D01*
X47540704Y-43570429D01*
X47622384Y-43258892D01*
X47641718Y-42937405D01*
X47597961Y-42618325D01*
X47492795Y-42313912D01*
X47399814Y-42139956D01*
X47135413Y-42044192D01*
X46179605Y-43000000D01*
X45820395Y-43000000D01*
X44864587Y-42044192D01*
X44600186Y-42139956D01*
X44459296Y-42429571D01*
X44377616Y-42741108D01*
X44358282Y-43062595D01*
X41135000Y-43062595D01*
X41135000Y-42838967D01*
X41072168Y-42523088D01*
X40948918Y-42225537D01*
X40769987Y-41957748D01*
X40676826Y-41864587D01*
X45044192Y-41864587D01*
X46000000Y-42820395D01*
X46955808Y-41864587D01*
X46860044Y-41600186D01*
X46570429Y-41459296D01*
X46258892Y-41377616D01*
X45937405Y-41358282D01*
X45618325Y-41402039D01*
X45313912Y-41507205D01*
X45139956Y-41600186D01*
X45044192Y-41864587D01*
X40676826Y-41864587D01*
X40542252Y-41730013D01*
X40274463Y-41551082D01*
X39976912Y-41427832D01*
X39661033Y-41365000D01*
X39338967Y-41365000D01*
X39023088Y-41427832D01*
X38725537Y-41551082D01*
X38457748Y-41730013D01*
X38230013Y-41957748D01*
X38051082Y-42225537D01*
X37927832Y-42523088D01*
X37865000Y-42838967D01*
X1397000Y-42838967D01*
X1397000Y-3304495D01*
X1515000Y-3304495D01*
X1515000Y-3695505D01*
X1591282Y-4079003D01*
X1740915Y-4440250D01*
X1958149Y-4765364D01*
X2234636Y-5041851D01*
X2559750Y-5259085D01*
X2920997Y-5408718D01*
X3304495Y-5485000D01*
X3695505Y-5485000D01*
X4079003Y-5408718D01*
X4440250Y-5259085D01*
X4765364Y-5041851D01*
X5041851Y-4765364D01*
X5259085Y-4440250D01*
X5408718Y-4079003D01*
X5485000Y-3695505D01*
X5485000Y-3304495D01*
X5408718Y-2920997D01*
X5259085Y-2559750D01*
X5041851Y-2234636D01*
X4765364Y-1958149D01*
X4440250Y-1740915D01*
X4079003Y-1591282D01*
X3695505Y-1515000D01*
X3304495Y-1515000D01*
X2920997Y-1591282D01*
X2559750Y-1740915D01*
X2234636Y-1958149D01*
X1958149Y-2234636D01*
X1740915Y-2559750D01*
X1591282Y-2920997D01*
X1515000Y-3304495D01*
X1397000Y-3304495D01*
X1397000Y-1611500D01*
X1487065Y-1501069D01*
X1612863Y-1397000D01*
X25029197Y-1397000D01*
X24639183Y-1787013D01*
G37*
G04 #@! TD.AperFunction*
D19*
X31487000Y-2833000D02*
X31507000Y-2833000D01*
X31507000Y-3087000D01*
X31487000Y-3087000D01*
X31487000Y-3107000D01*
X31233000Y-3107000D01*
X31233000Y-3087000D01*
X31213000Y-3087000D01*
X31213000Y-2833000D01*
X31233000Y-2833000D01*
X31233000Y-2813000D01*
X31487000Y-2813000D01*
X31487000Y-2833000D01*
G04 #@! TA.AperFunction,Conductor*
D20*
G36*
X31487000Y-2833000D02*
G01*
X31507000Y-2833000D01*
X31507000Y-3087000D01*
X31487000Y-3087000D01*
X31487000Y-3107000D01*
X31233000Y-3107000D01*
X31233000Y-3087000D01*
X31213000Y-3087000D01*
X31213000Y-2833000D01*
X31233000Y-2833000D01*
X31233000Y-2813000D01*
X31487000Y-2813000D01*
X31487000Y-2833000D01*
G37*
G04 #@! TD.AperFunction*
M02*
