%FSLAX45Y45*%
G04 Gerber Fmt 4.5, Leading zero omitted, Abs format (unit mm)*
G04 Created by KiCad (PCBNEW (5.1.10)-1) date 2021-11-29 20:13:07*
%MOMM*%
%LPD*%
G01*
G04 APERTURE LIST*
%TA.AperFunction,Profile*%
%ADD10C,0.050000*%
%TD*%
%ADD11C,0.200000*%
%ADD12C,0.300000*%
G04 APERTURE END LIST*
D10*
X0Y-350000D02*
G75*
G02*
X350000Y0I350000J0D01*
G01*
X350000Y-5600000D02*
G75*
G02*
X0Y-5250000I0J350000D01*
G01*
X6500000Y-5250000D02*
G75*
G02*
X6150000Y-5600000I-350000J0D01*
G01*
X6150000Y0D02*
G75*
G02*
X6500000Y-350000I0J-350000D01*
G01*
X6150000Y0D02*
X350000Y0D01*
X6500000Y-5250000D02*
X6500000Y-350000D01*
X350000Y-5600000D02*
X6150000Y-5600000D01*
X0Y-350000D02*
X0Y-5250000D01*
D11*
X2647000Y-1123000D02*
X2687000Y-1163000D01*
X2687000Y-1123000D02*
X2647000Y-1163000D01*
X3028000Y-996000D02*
X3068000Y-1036000D01*
X3068000Y-996000D02*
X3028000Y-1036000D01*
X2645000Y-2000000D02*
G75*
G03*
X2645000Y-2000000I-45000J0D01*
G01*
X2645000Y-2700000D02*
G75*
G03*
X2645000Y-2700000I-45000J0D01*
G01*
X2899000Y-2000000D02*
G75*
G03*
X2899000Y-2000000I-45000J0D01*
G01*
X2899000Y-2700000D02*
G75*
G03*
X2899000Y-2700000I-45000J0D01*
G01*
X850000Y-246000D02*
X850000Y-346000D01*
X800000Y-296000D02*
X900000Y-296000D01*
X850000Y-500000D02*
X850000Y-600000D01*
X800000Y-550000D02*
X900000Y-550000D01*
X1104000Y-246000D02*
X1104000Y-346000D01*
X1054000Y-296000D02*
X1154000Y-296000D01*
X1104000Y-500000D02*
X1104000Y-600000D01*
X1054000Y-550000D02*
X1154000Y-550000D01*
X1358000Y-246000D02*
X1358000Y-346000D01*
X1308000Y-296000D02*
X1408000Y-296000D01*
X1358000Y-500000D02*
X1358000Y-600000D01*
X1308000Y-550000D02*
X1408000Y-550000D01*
X1612000Y-246000D02*
X1612000Y-346000D01*
X1562000Y-296000D02*
X1662000Y-296000D01*
X1612000Y-500000D02*
X1612000Y-600000D01*
X1562000Y-550000D02*
X1662000Y-550000D01*
X1800000Y-2026000D02*
X1800000Y-2126000D01*
X1750000Y-2076000D02*
X1850000Y-2076000D01*
X1800000Y-2280000D02*
X1800000Y-2380000D01*
X1750000Y-2330000D02*
X1850000Y-2330000D01*
X1800000Y-2534000D02*
X1800000Y-2634000D01*
X1750000Y-2584000D02*
X1850000Y-2584000D01*
X1800000Y-2788000D02*
X1800000Y-2888000D01*
X1750000Y-2838000D02*
X1850000Y-2838000D01*
X1800000Y-3042000D02*
X1800000Y-3142000D01*
X1750000Y-3092000D02*
X1850000Y-3092000D01*
X1800000Y-3296000D02*
X1800000Y-3396000D01*
X1750000Y-3346000D02*
X1850000Y-3346000D01*
X1800000Y-3550000D02*
X1800000Y-3650000D01*
X1750000Y-3600000D02*
X1850000Y-3600000D01*
X1866000Y-246000D02*
X1866000Y-346000D01*
X1816000Y-296000D02*
X1916000Y-296000D01*
X1866000Y-500000D02*
X1866000Y-600000D01*
X1816000Y-550000D02*
X1916000Y-550000D01*
X2120000Y-246000D02*
X2120000Y-346000D01*
X2070000Y-296000D02*
X2170000Y-296000D01*
X2120000Y-500000D02*
X2120000Y-600000D01*
X2070000Y-550000D02*
X2170000Y-550000D01*
X2374000Y-246000D02*
X2374000Y-346000D01*
X2324000Y-296000D02*
X2424000Y-296000D01*
X2374000Y-500000D02*
X2374000Y-600000D01*
X2324000Y-550000D02*
X2424000Y-550000D01*
X2540000Y-4650000D02*
X2540000Y-4750000D01*
X2490000Y-4700000D02*
X2590000Y-4700000D01*
X2628000Y-246000D02*
X2628000Y-346000D01*
X2578000Y-296000D02*
X2678000Y-296000D01*
X2628000Y-500000D02*
X2628000Y-600000D01*
X2578000Y-550000D02*
X2678000Y-550000D01*
X2882000Y-246000D02*
X2882000Y-346000D01*
X2832000Y-296000D02*
X2932000Y-296000D01*
X2882000Y-500000D02*
X2882000Y-600000D01*
X2832000Y-550000D02*
X2932000Y-550000D01*
X3136000Y-246000D02*
X3136000Y-346000D01*
X3086000Y-296000D02*
X3186000Y-296000D01*
X3136000Y-500000D02*
X3136000Y-600000D01*
X3086000Y-550000D02*
X3186000Y-550000D01*
X3300000Y-4650000D02*
X3300000Y-4750000D01*
X3250000Y-4700000D02*
X3350000Y-4700000D01*
X3390000Y-246000D02*
X3390000Y-346000D01*
X3340000Y-296000D02*
X3440000Y-296000D01*
X3390000Y-500000D02*
X3390000Y-600000D01*
X3340000Y-550000D02*
X3440000Y-550000D01*
X3644000Y-246000D02*
X3644000Y-346000D01*
X3594000Y-296000D02*
X3694000Y-296000D01*
X3644000Y-500000D02*
X3644000Y-600000D01*
X3594000Y-550000D02*
X3694000Y-550000D01*
X3898000Y-246000D02*
X3898000Y-346000D01*
X3848000Y-296000D02*
X3948000Y-296000D01*
X3898000Y-500000D02*
X3898000Y-600000D01*
X3848000Y-550000D02*
X3948000Y-550000D01*
X4152000Y-246000D02*
X4152000Y-346000D01*
X4102000Y-296000D02*
X4202000Y-296000D01*
X4152000Y-500000D02*
X4152000Y-600000D01*
X4102000Y-550000D02*
X4202000Y-550000D01*
X4292000Y-1300000D02*
X4292000Y-1400000D01*
X4242000Y-1350000D02*
X4342000Y-1350000D01*
X4406000Y-246000D02*
X4406000Y-346000D01*
X4356000Y-296000D02*
X4456000Y-296000D01*
X4406000Y-500000D02*
X4406000Y-600000D01*
X4356000Y-550000D02*
X4456000Y-550000D01*
X4546000Y-1300000D02*
X4546000Y-1400000D01*
X4496000Y-1350000D02*
X4596000Y-1350000D01*
X4660000Y-246000D02*
X4660000Y-346000D01*
X4610000Y-296000D02*
X4710000Y-296000D01*
X4660000Y-500000D02*
X4660000Y-600000D01*
X4610000Y-550000D02*
X4710000Y-550000D01*
X4800000Y-1300000D02*
X4800000Y-1400000D01*
X4750000Y-1350000D02*
X4850000Y-1350000D01*
X4914000Y-246000D02*
X4914000Y-346000D01*
X4864000Y-296000D02*
X4964000Y-296000D01*
X4914000Y-500000D02*
X4914000Y-600000D01*
X4864000Y-550000D02*
X4964000Y-550000D01*
X5054000Y-1300000D02*
X5054000Y-1400000D01*
X5004000Y-1350000D02*
X5104000Y-1350000D01*
X5168000Y-246000D02*
X5168000Y-346000D01*
X5118000Y-296000D02*
X5218000Y-296000D01*
X5168000Y-500000D02*
X5168000Y-600000D01*
X5118000Y-550000D02*
X5218000Y-550000D01*
X5422000Y-246000D02*
X5422000Y-346000D01*
X5372000Y-296000D02*
X5472000Y-296000D01*
X5422000Y-500000D02*
X5422000Y-600000D01*
X5372000Y-550000D02*
X5472000Y-550000D01*
X5676000Y-246000D02*
X5676000Y-346000D01*
X5626000Y-296000D02*
X5726000Y-296000D01*
X5676000Y-500000D02*
X5676000Y-600000D01*
X5626000Y-550000D02*
X5726000Y-550000D01*
X3988891Y-4338891D02*
X3988891Y-4261109D01*
X3911109Y-4261109D01*
X3911109Y-4338891D01*
X3988891Y-4338891D01*
X3988891Y-4788891D02*
X3988891Y-4711109D01*
X3911109Y-4711109D01*
X3911109Y-4788891D01*
X3988891Y-4788891D01*
X4638891Y-4338891D02*
X4638891Y-4261109D01*
X4561109Y-4261109D01*
X4561109Y-4338891D01*
X4638891Y-4338891D01*
X4638891Y-4788891D02*
X4638891Y-4711109D01*
X4561109Y-4711109D01*
X4561109Y-4788891D01*
X4638891Y-4788891D01*
X5238891Y-4338891D02*
X5238891Y-4261109D01*
X5161109Y-4261109D01*
X5161109Y-4338891D01*
X5238891Y-4338891D01*
X5238891Y-4788891D02*
X5238891Y-4711109D01*
X5161109Y-4711109D01*
X5161109Y-4788891D01*
X5238891Y-4788891D01*
X5888891Y-4338891D02*
X5888891Y-4261109D01*
X5811109Y-4261109D01*
X5811109Y-4338891D01*
X5888891Y-4338891D01*
X5888891Y-4788891D02*
X5888891Y-4711109D01*
X5811109Y-4711109D01*
X5811109Y-4788891D01*
X5888891Y-4788891D01*
D12*
X283928Y-6068214D02*
X283928Y-5768214D01*
X355357Y-5768214D01*
X398214Y-5782500D01*
X426786Y-5811071D01*
X441071Y-5839643D01*
X455357Y-5896786D01*
X455357Y-5939643D01*
X441071Y-5996786D01*
X426786Y-6025357D01*
X398214Y-6053929D01*
X355357Y-6068214D01*
X283928Y-6068214D01*
X583928Y-6068214D02*
X583928Y-5868214D01*
X583928Y-5925357D02*
X598214Y-5896786D01*
X612500Y-5882500D01*
X641071Y-5868214D01*
X669643Y-5868214D01*
X769643Y-6068214D02*
X769643Y-5868214D01*
X769643Y-5768214D02*
X755357Y-5782500D01*
X769643Y-5796786D01*
X783928Y-5782500D01*
X769643Y-5768214D01*
X769643Y-5796786D01*
X955357Y-6068214D02*
X926786Y-6053929D01*
X912500Y-6025357D01*
X912500Y-5768214D01*
X1112500Y-6068214D02*
X1083928Y-6053929D01*
X1069643Y-6025357D01*
X1069643Y-5768214D01*
X1455357Y-6068214D02*
X1455357Y-5768214D01*
X1555357Y-5982500D01*
X1655357Y-5768214D01*
X1655357Y-6068214D01*
X1926786Y-6068214D02*
X1926786Y-5911071D01*
X1912500Y-5882500D01*
X1883928Y-5868214D01*
X1826786Y-5868214D01*
X1798214Y-5882500D01*
X1926786Y-6053929D02*
X1898214Y-6068214D01*
X1826786Y-6068214D01*
X1798214Y-6053929D01*
X1783928Y-6025357D01*
X1783928Y-5996786D01*
X1798214Y-5968214D01*
X1826786Y-5953929D01*
X1898214Y-5953929D01*
X1926786Y-5939643D01*
X2069643Y-5868214D02*
X2069643Y-6168214D01*
X2069643Y-5882500D02*
X2098214Y-5868214D01*
X2155357Y-5868214D01*
X2183928Y-5882500D01*
X2198214Y-5896786D01*
X2212500Y-5925357D01*
X2212500Y-6011071D01*
X2198214Y-6039643D01*
X2183928Y-6053929D01*
X2155357Y-6068214D01*
X2098214Y-6068214D01*
X2069643Y-6053929D01*
X2341071Y-6039643D02*
X2355357Y-6053929D01*
X2341071Y-6068214D01*
X2326786Y-6053929D01*
X2341071Y-6039643D01*
X2341071Y-6068214D01*
X2341071Y-5882500D02*
X2355357Y-5896786D01*
X2341071Y-5911071D01*
X2326786Y-5896786D01*
X2341071Y-5882500D01*
X2341071Y-5911071D01*
X-42500Y-6542500D02*
X-2500Y-6582500D01*
X-2500Y-6542500D02*
X-42500Y-6582500D01*
X341071Y-6398214D02*
X369643Y-6398214D01*
X398214Y-6412500D01*
X412500Y-6426786D01*
X426786Y-6455357D01*
X441071Y-6512500D01*
X441071Y-6583929D01*
X426786Y-6641071D01*
X412500Y-6669643D01*
X398214Y-6683929D01*
X369643Y-6698214D01*
X341071Y-6698214D01*
X312500Y-6683929D01*
X298214Y-6669643D01*
X283928Y-6641071D01*
X269643Y-6583929D01*
X269643Y-6512500D01*
X283928Y-6455357D01*
X298214Y-6426786D01*
X312500Y-6412500D01*
X341071Y-6398214D01*
X569643Y-6669643D02*
X583928Y-6683929D01*
X569643Y-6698214D01*
X555357Y-6683929D01*
X569643Y-6669643D01*
X569643Y-6698214D01*
X841071Y-6498214D02*
X841071Y-6698214D01*
X769643Y-6383929D02*
X698214Y-6598214D01*
X883928Y-6598214D01*
X1055357Y-6398214D02*
X1083928Y-6398214D01*
X1112500Y-6412500D01*
X1126786Y-6426786D01*
X1141071Y-6455357D01*
X1155357Y-6512500D01*
X1155357Y-6583929D01*
X1141071Y-6641071D01*
X1126786Y-6669643D01*
X1112500Y-6683929D01*
X1083928Y-6698214D01*
X1055357Y-6698214D01*
X1026786Y-6683929D01*
X1012500Y-6669643D01*
X998214Y-6641071D01*
X983928Y-6583929D01*
X983928Y-6512500D01*
X998214Y-6455357D01*
X1012500Y-6426786D01*
X1026786Y-6412500D01*
X1055357Y-6398214D01*
X1341071Y-6398214D02*
X1369643Y-6398214D01*
X1398214Y-6412500D01*
X1412500Y-6426786D01*
X1426786Y-6455357D01*
X1441071Y-6512500D01*
X1441071Y-6583929D01*
X1426786Y-6641071D01*
X1412500Y-6669643D01*
X1398214Y-6683929D01*
X1369643Y-6698214D01*
X1341071Y-6698214D01*
X1312500Y-6683929D01*
X1298214Y-6669643D01*
X1283928Y-6641071D01*
X1269643Y-6583929D01*
X1269643Y-6512500D01*
X1283928Y-6455357D01*
X1298214Y-6426786D01*
X1312500Y-6412500D01*
X1341071Y-6398214D01*
X1569643Y-6698214D02*
X1569643Y-6498214D01*
X1569643Y-6526786D02*
X1583928Y-6512500D01*
X1612500Y-6498214D01*
X1655357Y-6498214D01*
X1683928Y-6512500D01*
X1698214Y-6541071D01*
X1698214Y-6698214D01*
X1698214Y-6541071D02*
X1712500Y-6512500D01*
X1741071Y-6498214D01*
X1783928Y-6498214D01*
X1812500Y-6512500D01*
X1826786Y-6541071D01*
X1826786Y-6698214D01*
X1969643Y-6698214D02*
X1969643Y-6498214D01*
X1969643Y-6526786D02*
X1983928Y-6512500D01*
X2012500Y-6498214D01*
X2055357Y-6498214D01*
X2083928Y-6512500D01*
X2098214Y-6541071D01*
X2098214Y-6698214D01*
X2098214Y-6541071D02*
X2112500Y-6512500D01*
X2141071Y-6498214D01*
X2183928Y-6498214D01*
X2212500Y-6512500D01*
X2226786Y-6541071D01*
X2226786Y-6698214D01*
X2812500Y-6383929D02*
X2555357Y-6769643D01*
X3198214Y-6398214D02*
X3226786Y-6398214D01*
X3255357Y-6412500D01*
X3269643Y-6426786D01*
X3283928Y-6455357D01*
X3298214Y-6512500D01*
X3298214Y-6583929D01*
X3283928Y-6641071D01*
X3269643Y-6669643D01*
X3255357Y-6683929D01*
X3226786Y-6698214D01*
X3198214Y-6698214D01*
X3169643Y-6683929D01*
X3155357Y-6669643D01*
X3141071Y-6641071D01*
X3126786Y-6583929D01*
X3126786Y-6512500D01*
X3141071Y-6455357D01*
X3155357Y-6426786D01*
X3169643Y-6412500D01*
X3198214Y-6398214D01*
X3426786Y-6669643D02*
X3441071Y-6683929D01*
X3426786Y-6698214D01*
X3412500Y-6683929D01*
X3426786Y-6669643D01*
X3426786Y-6698214D01*
X3626786Y-6398214D02*
X3655357Y-6398214D01*
X3683928Y-6412500D01*
X3698214Y-6426786D01*
X3712500Y-6455357D01*
X3726786Y-6512500D01*
X3726786Y-6583929D01*
X3712500Y-6641071D01*
X3698214Y-6669643D01*
X3683928Y-6683929D01*
X3655357Y-6698214D01*
X3626786Y-6698214D01*
X3598214Y-6683929D01*
X3583928Y-6669643D01*
X3569643Y-6641071D01*
X3555357Y-6583929D01*
X3555357Y-6512500D01*
X3569643Y-6455357D01*
X3583928Y-6426786D01*
X3598214Y-6412500D01*
X3626786Y-6398214D01*
X4012500Y-6698214D02*
X3841071Y-6698214D01*
X3926786Y-6698214D02*
X3926786Y-6398214D01*
X3898214Y-6441071D01*
X3869643Y-6469643D01*
X3841071Y-6483929D01*
X4283928Y-6398214D02*
X4141071Y-6398214D01*
X4126786Y-6541071D01*
X4141071Y-6526786D01*
X4169643Y-6512500D01*
X4241071Y-6512500D01*
X4269643Y-6526786D01*
X4283928Y-6541071D01*
X4298214Y-6569643D01*
X4298214Y-6641071D01*
X4283928Y-6669643D01*
X4269643Y-6683929D01*
X4241071Y-6698214D01*
X4169643Y-6698214D01*
X4141071Y-6683929D01*
X4126786Y-6669643D01*
X4398214Y-6398214D02*
X4598214Y-6398214D01*
X4469643Y-6698214D01*
X4698214Y-6398214D02*
X4698214Y-6455357D01*
X4812500Y-6398214D02*
X4812500Y-6455357D01*
X5255357Y-6812500D02*
X5241071Y-6798214D01*
X5212500Y-6755357D01*
X5198214Y-6726786D01*
X5183928Y-6683929D01*
X5169643Y-6612500D01*
X5169643Y-6555357D01*
X5183928Y-6483929D01*
X5198214Y-6441071D01*
X5212500Y-6412500D01*
X5241071Y-6369643D01*
X5255357Y-6355357D01*
X5355357Y-6426786D02*
X5369643Y-6412500D01*
X5398214Y-6398214D01*
X5469643Y-6398214D01*
X5498214Y-6412500D01*
X5512500Y-6426786D01*
X5526786Y-6455357D01*
X5526786Y-6483929D01*
X5512500Y-6526786D01*
X5341071Y-6698214D01*
X5526786Y-6698214D01*
X5883928Y-6698214D02*
X5883928Y-6398214D01*
X6012500Y-6698214D02*
X6012500Y-6541071D01*
X5998214Y-6512500D01*
X5969643Y-6498214D01*
X5926786Y-6498214D01*
X5898214Y-6512500D01*
X5883928Y-6526786D01*
X6198214Y-6698214D02*
X6169643Y-6683929D01*
X6155357Y-6669643D01*
X6141071Y-6641071D01*
X6141071Y-6555357D01*
X6155357Y-6526786D01*
X6169643Y-6512500D01*
X6198214Y-6498214D01*
X6241071Y-6498214D01*
X6269643Y-6512500D01*
X6283928Y-6526786D01*
X6298214Y-6555357D01*
X6298214Y-6641071D01*
X6283928Y-6669643D01*
X6269643Y-6683929D01*
X6241071Y-6698214D01*
X6198214Y-6698214D01*
X6469643Y-6698214D02*
X6441071Y-6683929D01*
X6426786Y-6655357D01*
X6426786Y-6398214D01*
X6698214Y-6683929D02*
X6669643Y-6698214D01*
X6612500Y-6698214D01*
X6583928Y-6683929D01*
X6569643Y-6655357D01*
X6569643Y-6541071D01*
X6583928Y-6512500D01*
X6612500Y-6498214D01*
X6669643Y-6498214D01*
X6698214Y-6512500D01*
X6712500Y-6541071D01*
X6712500Y-6569643D01*
X6569643Y-6598214D01*
X6826786Y-6683929D02*
X6855357Y-6698214D01*
X6912500Y-6698214D01*
X6941071Y-6683929D01*
X6955357Y-6655357D01*
X6955357Y-6641071D01*
X6941071Y-6612500D01*
X6912500Y-6598214D01*
X6869643Y-6598214D01*
X6841071Y-6583929D01*
X6826786Y-6555357D01*
X6826786Y-6541071D01*
X6841071Y-6512500D01*
X6869643Y-6498214D01*
X6912500Y-6498214D01*
X6941071Y-6512500D01*
X7055357Y-6812500D02*
X7069643Y-6798214D01*
X7098214Y-6755357D01*
X7112500Y-6726786D01*
X7126786Y-6683929D01*
X7141071Y-6612500D01*
X7141071Y-6555357D01*
X7126786Y-6483929D01*
X7112500Y-6441071D01*
X7098214Y-6412500D01*
X7069643Y-6369643D01*
X7055357Y-6355357D01*
X-2500Y-6958500D02*
G75*
G03*
X-2500Y-6958500I-45000J0D01*
G01*
X341071Y-6794214D02*
X369643Y-6794214D01*
X398214Y-6808500D01*
X412500Y-6822786D01*
X426786Y-6851357D01*
X441071Y-6908500D01*
X441071Y-6979929D01*
X426786Y-7037071D01*
X412500Y-7065643D01*
X398214Y-7079929D01*
X369643Y-7094214D01*
X341071Y-7094214D01*
X312500Y-7079929D01*
X298214Y-7065643D01*
X283928Y-7037071D01*
X269643Y-6979929D01*
X269643Y-6908500D01*
X283928Y-6851357D01*
X298214Y-6822786D01*
X312500Y-6808500D01*
X341071Y-6794214D01*
X569643Y-7065643D02*
X583928Y-7079929D01*
X569643Y-7094214D01*
X555357Y-7079929D01*
X569643Y-7065643D01*
X569643Y-7094214D01*
X726786Y-7094214D02*
X783928Y-7094214D01*
X812500Y-7079929D01*
X826786Y-7065643D01*
X855357Y-7022786D01*
X869643Y-6965643D01*
X869643Y-6851357D01*
X855357Y-6822786D01*
X841071Y-6808500D01*
X812500Y-6794214D01*
X755357Y-6794214D01*
X726786Y-6808500D01*
X712500Y-6822786D01*
X698214Y-6851357D01*
X698214Y-6922786D01*
X712500Y-6951357D01*
X726786Y-6965643D01*
X755357Y-6979929D01*
X812500Y-6979929D01*
X841071Y-6965643D01*
X855357Y-6951357D01*
X869643Y-6922786D01*
X1055357Y-6794214D02*
X1083928Y-6794214D01*
X1112500Y-6808500D01*
X1126786Y-6822786D01*
X1141071Y-6851357D01*
X1155357Y-6908500D01*
X1155357Y-6979929D01*
X1141071Y-7037071D01*
X1126786Y-7065643D01*
X1112500Y-7079929D01*
X1083928Y-7094214D01*
X1055357Y-7094214D01*
X1026786Y-7079929D01*
X1012500Y-7065643D01*
X998214Y-7037071D01*
X983928Y-6979929D01*
X983928Y-6908500D01*
X998214Y-6851357D01*
X1012500Y-6822786D01*
X1026786Y-6808500D01*
X1055357Y-6794214D01*
X1341071Y-6794214D02*
X1369643Y-6794214D01*
X1398214Y-6808500D01*
X1412500Y-6822786D01*
X1426786Y-6851357D01*
X1441071Y-6908500D01*
X1441071Y-6979929D01*
X1426786Y-7037071D01*
X1412500Y-7065643D01*
X1398214Y-7079929D01*
X1369643Y-7094214D01*
X1341071Y-7094214D01*
X1312500Y-7079929D01*
X1298214Y-7065643D01*
X1283928Y-7037071D01*
X1269643Y-6979929D01*
X1269643Y-6908500D01*
X1283928Y-6851357D01*
X1298214Y-6822786D01*
X1312500Y-6808500D01*
X1341071Y-6794214D01*
X1569643Y-7094214D02*
X1569643Y-6894214D01*
X1569643Y-6922786D02*
X1583928Y-6908500D01*
X1612500Y-6894214D01*
X1655357Y-6894214D01*
X1683928Y-6908500D01*
X1698214Y-6937071D01*
X1698214Y-7094214D01*
X1698214Y-6937071D02*
X1712500Y-6908500D01*
X1741071Y-6894214D01*
X1783928Y-6894214D01*
X1812500Y-6908500D01*
X1826786Y-6937071D01*
X1826786Y-7094214D01*
X1969643Y-7094214D02*
X1969643Y-6894214D01*
X1969643Y-6922786D02*
X1983928Y-6908500D01*
X2012500Y-6894214D01*
X2055357Y-6894214D01*
X2083928Y-6908500D01*
X2098214Y-6937071D01*
X2098214Y-7094214D01*
X2098214Y-6937071D02*
X2112500Y-6908500D01*
X2141071Y-6894214D01*
X2183928Y-6894214D01*
X2212500Y-6908500D01*
X2226786Y-6937071D01*
X2226786Y-7094214D01*
X2812500Y-6779929D02*
X2555357Y-7165643D01*
X3198214Y-6794214D02*
X3226786Y-6794214D01*
X3255357Y-6808500D01*
X3269643Y-6822786D01*
X3283928Y-6851357D01*
X3298214Y-6908500D01*
X3298214Y-6979929D01*
X3283928Y-7037071D01*
X3269643Y-7065643D01*
X3255357Y-7079929D01*
X3226786Y-7094214D01*
X3198214Y-7094214D01*
X3169643Y-7079929D01*
X3155357Y-7065643D01*
X3141071Y-7037071D01*
X3126786Y-6979929D01*
X3126786Y-6908500D01*
X3141071Y-6851357D01*
X3155357Y-6822786D01*
X3169643Y-6808500D01*
X3198214Y-6794214D01*
X3426786Y-7065643D02*
X3441071Y-7079929D01*
X3426786Y-7094214D01*
X3412500Y-7079929D01*
X3426786Y-7065643D01*
X3426786Y-7094214D01*
X3626786Y-6794214D02*
X3655357Y-6794214D01*
X3683928Y-6808500D01*
X3698214Y-6822786D01*
X3712500Y-6851357D01*
X3726786Y-6908500D01*
X3726786Y-6979929D01*
X3712500Y-7037071D01*
X3698214Y-7065643D01*
X3683928Y-7079929D01*
X3655357Y-7094214D01*
X3626786Y-7094214D01*
X3598214Y-7079929D01*
X3583928Y-7065643D01*
X3569643Y-7037071D01*
X3555357Y-6979929D01*
X3555357Y-6908500D01*
X3569643Y-6851357D01*
X3583928Y-6822786D01*
X3598214Y-6808500D01*
X3626786Y-6794214D01*
X3826786Y-6794214D02*
X4012500Y-6794214D01*
X3912500Y-6908500D01*
X3955357Y-6908500D01*
X3983928Y-6922786D01*
X3998214Y-6937071D01*
X4012500Y-6965643D01*
X4012500Y-7037071D01*
X3998214Y-7065643D01*
X3983928Y-7079929D01*
X3955357Y-7094214D01*
X3869643Y-7094214D01*
X3841071Y-7079929D01*
X3826786Y-7065643D01*
X4283928Y-6794214D02*
X4141071Y-6794214D01*
X4126786Y-6937071D01*
X4141071Y-6922786D01*
X4169643Y-6908500D01*
X4241071Y-6908500D01*
X4269643Y-6922786D01*
X4283928Y-6937071D01*
X4298214Y-6965643D01*
X4298214Y-7037071D01*
X4283928Y-7065643D01*
X4269643Y-7079929D01*
X4241071Y-7094214D01*
X4169643Y-7094214D01*
X4141071Y-7079929D01*
X4126786Y-7065643D01*
X4555357Y-6894214D02*
X4555357Y-7094214D01*
X4483928Y-6779929D02*
X4412500Y-6994214D01*
X4598214Y-6994214D01*
X4698214Y-6794214D02*
X4698214Y-6851357D01*
X4812500Y-6794214D02*
X4812500Y-6851357D01*
X5255357Y-7208500D02*
X5241071Y-7194214D01*
X5212500Y-7151357D01*
X5198214Y-7122786D01*
X5183928Y-7079929D01*
X5169643Y-7008500D01*
X5169643Y-6951357D01*
X5183928Y-6879929D01*
X5198214Y-6837071D01*
X5212500Y-6808500D01*
X5241071Y-6765643D01*
X5255357Y-6751357D01*
X5498214Y-6894214D02*
X5498214Y-7094214D01*
X5426786Y-6779929D02*
X5355357Y-6994214D01*
X5541071Y-6994214D01*
X5883928Y-7094214D02*
X5883928Y-6794214D01*
X6012500Y-7094214D02*
X6012500Y-6937071D01*
X5998214Y-6908500D01*
X5969643Y-6894214D01*
X5926786Y-6894214D01*
X5898214Y-6908500D01*
X5883928Y-6922786D01*
X6198214Y-7094214D02*
X6169643Y-7079929D01*
X6155357Y-7065643D01*
X6141071Y-7037071D01*
X6141071Y-6951357D01*
X6155357Y-6922786D01*
X6169643Y-6908500D01*
X6198214Y-6894214D01*
X6241071Y-6894214D01*
X6269643Y-6908500D01*
X6283928Y-6922786D01*
X6298214Y-6951357D01*
X6298214Y-7037071D01*
X6283928Y-7065643D01*
X6269643Y-7079929D01*
X6241071Y-7094214D01*
X6198214Y-7094214D01*
X6469643Y-7094214D02*
X6441071Y-7079929D01*
X6426786Y-7051357D01*
X6426786Y-6794214D01*
X6698214Y-7079929D02*
X6669643Y-7094214D01*
X6612500Y-7094214D01*
X6583928Y-7079929D01*
X6569643Y-7051357D01*
X6569643Y-6937071D01*
X6583928Y-6908500D01*
X6612500Y-6894214D01*
X6669643Y-6894214D01*
X6698214Y-6908500D01*
X6712500Y-6937071D01*
X6712500Y-6965643D01*
X6569643Y-6994214D01*
X6826786Y-7079929D02*
X6855357Y-7094214D01*
X6912500Y-7094214D01*
X6941071Y-7079929D01*
X6955357Y-7051357D01*
X6955357Y-7037071D01*
X6941071Y-7008500D01*
X6912500Y-6994214D01*
X6869643Y-6994214D01*
X6841071Y-6979929D01*
X6826786Y-6951357D01*
X6826786Y-6937071D01*
X6841071Y-6908500D01*
X6869643Y-6894214D01*
X6912500Y-6894214D01*
X6941071Y-6908500D01*
X7055357Y-7208500D02*
X7069643Y-7194214D01*
X7098214Y-7151357D01*
X7112500Y-7122786D01*
X7126786Y-7079929D01*
X7141071Y-7008500D01*
X7141071Y-6951357D01*
X7126786Y-6879929D01*
X7112500Y-6837071D01*
X7098214Y-6808500D01*
X7069643Y-6765643D01*
X7055357Y-6751357D01*
X-52500Y-7304500D02*
X-52500Y-7404500D01*
X-102500Y-7354500D02*
X-2500Y-7354500D01*
X441071Y-7490214D02*
X269643Y-7490214D01*
X355357Y-7490214D02*
X355357Y-7190214D01*
X326786Y-7233071D01*
X298214Y-7261643D01*
X269643Y-7275929D01*
X569643Y-7461643D02*
X583928Y-7475929D01*
X569643Y-7490214D01*
X555357Y-7475929D01*
X569643Y-7461643D01*
X569643Y-7490214D01*
X769643Y-7190214D02*
X798214Y-7190214D01*
X826786Y-7204500D01*
X841071Y-7218786D01*
X855357Y-7247357D01*
X869643Y-7304500D01*
X869643Y-7375929D01*
X855357Y-7433071D01*
X841071Y-7461643D01*
X826786Y-7475929D01*
X798214Y-7490214D01*
X769643Y-7490214D01*
X741071Y-7475929D01*
X726786Y-7461643D01*
X712500Y-7433071D01*
X698214Y-7375929D01*
X698214Y-7304500D01*
X712500Y-7247357D01*
X726786Y-7218786D01*
X741071Y-7204500D01*
X769643Y-7190214D01*
X1055357Y-7190214D02*
X1083928Y-7190214D01*
X1112500Y-7204500D01*
X1126786Y-7218786D01*
X1141071Y-7247357D01*
X1155357Y-7304500D01*
X1155357Y-7375929D01*
X1141071Y-7433071D01*
X1126786Y-7461643D01*
X1112500Y-7475929D01*
X1083928Y-7490214D01*
X1055357Y-7490214D01*
X1026786Y-7475929D01*
X1012500Y-7461643D01*
X998214Y-7433071D01*
X983928Y-7375929D01*
X983928Y-7304500D01*
X998214Y-7247357D01*
X1012500Y-7218786D01*
X1026786Y-7204500D01*
X1055357Y-7190214D01*
X1341071Y-7190214D02*
X1369643Y-7190214D01*
X1398214Y-7204500D01*
X1412500Y-7218786D01*
X1426786Y-7247357D01*
X1441071Y-7304500D01*
X1441071Y-7375929D01*
X1426786Y-7433071D01*
X1412500Y-7461643D01*
X1398214Y-7475929D01*
X1369643Y-7490214D01*
X1341071Y-7490214D01*
X1312500Y-7475929D01*
X1298214Y-7461643D01*
X1283928Y-7433071D01*
X1269643Y-7375929D01*
X1269643Y-7304500D01*
X1283928Y-7247357D01*
X1298214Y-7218786D01*
X1312500Y-7204500D01*
X1341071Y-7190214D01*
X1569643Y-7490214D02*
X1569643Y-7290214D01*
X1569643Y-7318786D02*
X1583928Y-7304500D01*
X1612500Y-7290214D01*
X1655357Y-7290214D01*
X1683928Y-7304500D01*
X1698214Y-7333071D01*
X1698214Y-7490214D01*
X1698214Y-7333071D02*
X1712500Y-7304500D01*
X1741071Y-7290214D01*
X1783928Y-7290214D01*
X1812500Y-7304500D01*
X1826786Y-7333071D01*
X1826786Y-7490214D01*
X1969643Y-7490214D02*
X1969643Y-7290214D01*
X1969643Y-7318786D02*
X1983928Y-7304500D01*
X2012500Y-7290214D01*
X2055357Y-7290214D01*
X2083928Y-7304500D01*
X2098214Y-7333071D01*
X2098214Y-7490214D01*
X2098214Y-7333071D02*
X2112500Y-7304500D01*
X2141071Y-7290214D01*
X2183928Y-7290214D01*
X2212500Y-7304500D01*
X2226786Y-7333071D01*
X2226786Y-7490214D01*
X2812500Y-7175929D02*
X2555357Y-7561643D01*
X3198214Y-7190214D02*
X3226786Y-7190214D01*
X3255357Y-7204500D01*
X3269643Y-7218786D01*
X3283928Y-7247357D01*
X3298214Y-7304500D01*
X3298214Y-7375929D01*
X3283928Y-7433071D01*
X3269643Y-7461643D01*
X3255357Y-7475929D01*
X3226786Y-7490214D01*
X3198214Y-7490214D01*
X3169643Y-7475929D01*
X3155357Y-7461643D01*
X3141071Y-7433071D01*
X3126786Y-7375929D01*
X3126786Y-7304500D01*
X3141071Y-7247357D01*
X3155357Y-7218786D01*
X3169643Y-7204500D01*
X3198214Y-7190214D01*
X3426786Y-7461643D02*
X3441071Y-7475929D01*
X3426786Y-7490214D01*
X3412500Y-7475929D01*
X3426786Y-7461643D01*
X3426786Y-7490214D01*
X3626786Y-7190214D02*
X3655357Y-7190214D01*
X3683928Y-7204500D01*
X3698214Y-7218786D01*
X3712500Y-7247357D01*
X3726786Y-7304500D01*
X3726786Y-7375929D01*
X3712500Y-7433071D01*
X3698214Y-7461643D01*
X3683928Y-7475929D01*
X3655357Y-7490214D01*
X3626786Y-7490214D01*
X3598214Y-7475929D01*
X3583928Y-7461643D01*
X3569643Y-7433071D01*
X3555357Y-7375929D01*
X3555357Y-7304500D01*
X3569643Y-7247357D01*
X3583928Y-7218786D01*
X3598214Y-7204500D01*
X3626786Y-7190214D01*
X3826786Y-7190214D02*
X4012500Y-7190214D01*
X3912500Y-7304500D01*
X3955357Y-7304500D01*
X3983928Y-7318786D01*
X3998214Y-7333071D01*
X4012500Y-7361643D01*
X4012500Y-7433071D01*
X3998214Y-7461643D01*
X3983928Y-7475929D01*
X3955357Y-7490214D01*
X3869643Y-7490214D01*
X3841071Y-7475929D01*
X3826786Y-7461643D01*
X4155357Y-7490214D02*
X4212500Y-7490214D01*
X4241071Y-7475929D01*
X4255357Y-7461643D01*
X4283928Y-7418786D01*
X4298214Y-7361643D01*
X4298214Y-7247357D01*
X4283928Y-7218786D01*
X4269643Y-7204500D01*
X4241071Y-7190214D01*
X4183928Y-7190214D01*
X4155357Y-7204500D01*
X4141071Y-7218786D01*
X4126786Y-7247357D01*
X4126786Y-7318786D01*
X4141071Y-7347357D01*
X4155357Y-7361643D01*
X4183928Y-7375929D01*
X4241071Y-7375929D01*
X4269643Y-7361643D01*
X4283928Y-7347357D01*
X4298214Y-7318786D01*
X4555357Y-7290214D02*
X4555357Y-7490214D01*
X4483928Y-7175929D02*
X4412500Y-7390214D01*
X4598214Y-7390214D01*
X4698214Y-7190214D02*
X4698214Y-7247357D01*
X4812500Y-7190214D02*
X4812500Y-7247357D01*
X5255357Y-7604500D02*
X5241071Y-7590214D01*
X5212500Y-7547357D01*
X5198214Y-7518786D01*
X5183928Y-7475929D01*
X5169643Y-7404500D01*
X5169643Y-7347357D01*
X5183928Y-7275929D01*
X5198214Y-7233071D01*
X5212500Y-7204500D01*
X5241071Y-7161643D01*
X5255357Y-7147357D01*
X5512500Y-7190214D02*
X5369643Y-7190214D01*
X5355357Y-7333071D01*
X5369643Y-7318786D01*
X5398214Y-7304500D01*
X5469643Y-7304500D01*
X5498214Y-7318786D01*
X5512500Y-7333071D01*
X5526786Y-7361643D01*
X5526786Y-7433071D01*
X5512500Y-7461643D01*
X5498214Y-7475929D01*
X5469643Y-7490214D01*
X5398214Y-7490214D01*
X5369643Y-7475929D01*
X5355357Y-7461643D01*
X5626786Y-7190214D02*
X5812500Y-7190214D01*
X5712500Y-7304500D01*
X5755357Y-7304500D01*
X5783928Y-7318786D01*
X5798214Y-7333071D01*
X5812500Y-7361643D01*
X5812500Y-7433071D01*
X5798214Y-7461643D01*
X5783928Y-7475929D01*
X5755357Y-7490214D01*
X5669643Y-7490214D01*
X5641071Y-7475929D01*
X5626786Y-7461643D01*
X6169643Y-7490214D02*
X6169643Y-7190214D01*
X6298214Y-7490214D02*
X6298214Y-7333071D01*
X6283928Y-7304500D01*
X6255357Y-7290214D01*
X6212500Y-7290214D01*
X6183928Y-7304500D01*
X6169643Y-7318786D01*
X6483928Y-7490214D02*
X6455357Y-7475929D01*
X6441071Y-7461643D01*
X6426786Y-7433071D01*
X6426786Y-7347357D01*
X6441071Y-7318786D01*
X6455357Y-7304500D01*
X6483928Y-7290214D01*
X6526786Y-7290214D01*
X6555357Y-7304500D01*
X6569643Y-7318786D01*
X6583928Y-7347357D01*
X6583928Y-7433071D01*
X6569643Y-7461643D01*
X6555357Y-7475929D01*
X6526786Y-7490214D01*
X6483928Y-7490214D01*
X6755357Y-7490214D02*
X6726786Y-7475929D01*
X6712500Y-7447357D01*
X6712500Y-7190214D01*
X6983928Y-7475929D02*
X6955357Y-7490214D01*
X6898214Y-7490214D01*
X6869643Y-7475929D01*
X6855357Y-7447357D01*
X6855357Y-7333071D01*
X6869643Y-7304500D01*
X6898214Y-7290214D01*
X6955357Y-7290214D01*
X6983928Y-7304500D01*
X6998214Y-7333071D01*
X6998214Y-7361643D01*
X6855357Y-7390214D01*
X7112500Y-7475929D02*
X7141071Y-7490214D01*
X7198214Y-7490214D01*
X7226786Y-7475929D01*
X7241071Y-7447357D01*
X7241071Y-7433071D01*
X7226786Y-7404500D01*
X7198214Y-7390214D01*
X7155357Y-7390214D01*
X7126786Y-7375929D01*
X7112500Y-7347357D01*
X7112500Y-7333071D01*
X7126786Y-7304500D01*
X7155357Y-7290214D01*
X7198214Y-7290214D01*
X7226786Y-7304500D01*
X7341071Y-7604500D02*
X7355357Y-7590214D01*
X7383928Y-7547357D01*
X7398214Y-7518786D01*
X7412500Y-7475929D01*
X7426786Y-7404500D01*
X7426786Y-7347357D01*
X7412500Y-7275929D01*
X7398214Y-7233071D01*
X7383928Y-7204500D01*
X7355357Y-7161643D01*
X7341071Y-7147357D01*
X-18609Y-7789391D02*
X-18609Y-7711609D01*
X-96391Y-7711609D01*
X-96391Y-7789391D01*
X-18609Y-7789391D01*
X441071Y-7886214D02*
X269643Y-7886214D01*
X355357Y-7886214D02*
X355357Y-7586214D01*
X326786Y-7629071D01*
X298214Y-7657643D01*
X269643Y-7671929D01*
X569643Y-7857643D02*
X583928Y-7871929D01*
X569643Y-7886214D01*
X555357Y-7871929D01*
X569643Y-7857643D01*
X569643Y-7886214D01*
X869643Y-7886214D02*
X698214Y-7886214D01*
X783928Y-7886214D02*
X783928Y-7586214D01*
X755357Y-7629071D01*
X726786Y-7657643D01*
X698214Y-7671929D01*
X1055357Y-7586214D02*
X1083928Y-7586214D01*
X1112500Y-7600500D01*
X1126786Y-7614786D01*
X1141071Y-7643357D01*
X1155357Y-7700500D01*
X1155357Y-7771929D01*
X1141071Y-7829071D01*
X1126786Y-7857643D01*
X1112500Y-7871929D01*
X1083928Y-7886214D01*
X1055357Y-7886214D01*
X1026786Y-7871929D01*
X1012500Y-7857643D01*
X998214Y-7829071D01*
X983928Y-7771929D01*
X983928Y-7700500D01*
X998214Y-7643357D01*
X1012500Y-7614786D01*
X1026786Y-7600500D01*
X1055357Y-7586214D01*
X1341071Y-7586214D02*
X1369643Y-7586214D01*
X1398214Y-7600500D01*
X1412500Y-7614786D01*
X1426786Y-7643357D01*
X1441071Y-7700500D01*
X1441071Y-7771929D01*
X1426786Y-7829071D01*
X1412500Y-7857643D01*
X1398214Y-7871929D01*
X1369643Y-7886214D01*
X1341071Y-7886214D01*
X1312500Y-7871929D01*
X1298214Y-7857643D01*
X1283928Y-7829071D01*
X1269643Y-7771929D01*
X1269643Y-7700500D01*
X1283928Y-7643357D01*
X1298214Y-7614786D01*
X1312500Y-7600500D01*
X1341071Y-7586214D01*
X1569643Y-7886214D02*
X1569643Y-7686214D01*
X1569643Y-7714786D02*
X1583928Y-7700500D01*
X1612500Y-7686214D01*
X1655357Y-7686214D01*
X1683928Y-7700500D01*
X1698214Y-7729071D01*
X1698214Y-7886214D01*
X1698214Y-7729071D02*
X1712500Y-7700500D01*
X1741071Y-7686214D01*
X1783928Y-7686214D01*
X1812500Y-7700500D01*
X1826786Y-7729071D01*
X1826786Y-7886214D01*
X1969643Y-7886214D02*
X1969643Y-7686214D01*
X1969643Y-7714786D02*
X1983928Y-7700500D01*
X2012500Y-7686214D01*
X2055357Y-7686214D01*
X2083928Y-7700500D01*
X2098214Y-7729071D01*
X2098214Y-7886214D01*
X2098214Y-7729071D02*
X2112500Y-7700500D01*
X2141071Y-7686214D01*
X2183928Y-7686214D01*
X2212500Y-7700500D01*
X2226786Y-7729071D01*
X2226786Y-7886214D01*
X2812500Y-7571929D02*
X2555357Y-7957643D01*
X3198214Y-7586214D02*
X3226786Y-7586214D01*
X3255357Y-7600500D01*
X3269643Y-7614786D01*
X3283928Y-7643357D01*
X3298214Y-7700500D01*
X3298214Y-7771929D01*
X3283928Y-7829071D01*
X3269643Y-7857643D01*
X3255357Y-7871929D01*
X3226786Y-7886214D01*
X3198214Y-7886214D01*
X3169643Y-7871929D01*
X3155357Y-7857643D01*
X3141071Y-7829071D01*
X3126786Y-7771929D01*
X3126786Y-7700500D01*
X3141071Y-7643357D01*
X3155357Y-7614786D01*
X3169643Y-7600500D01*
X3198214Y-7586214D01*
X3426786Y-7857643D02*
X3441071Y-7871929D01*
X3426786Y-7886214D01*
X3412500Y-7871929D01*
X3426786Y-7857643D01*
X3426786Y-7886214D01*
X3626786Y-7586214D02*
X3655357Y-7586214D01*
X3683928Y-7600500D01*
X3698214Y-7614786D01*
X3712500Y-7643357D01*
X3726786Y-7700500D01*
X3726786Y-7771929D01*
X3712500Y-7829071D01*
X3698214Y-7857643D01*
X3683928Y-7871929D01*
X3655357Y-7886214D01*
X3626786Y-7886214D01*
X3598214Y-7871929D01*
X3583928Y-7857643D01*
X3569643Y-7829071D01*
X3555357Y-7771929D01*
X3555357Y-7700500D01*
X3569643Y-7643357D01*
X3583928Y-7614786D01*
X3598214Y-7600500D01*
X3626786Y-7586214D01*
X3983928Y-7686214D02*
X3983928Y-7886214D01*
X3912500Y-7571929D02*
X3841071Y-7786214D01*
X4026786Y-7786214D01*
X4112500Y-7586214D02*
X4298214Y-7586214D01*
X4198214Y-7700500D01*
X4241071Y-7700500D01*
X4269643Y-7714786D01*
X4283928Y-7729071D01*
X4298214Y-7757643D01*
X4298214Y-7829071D01*
X4283928Y-7857643D01*
X4269643Y-7871929D01*
X4241071Y-7886214D01*
X4155357Y-7886214D01*
X4126786Y-7871929D01*
X4112500Y-7857643D01*
X4398214Y-7586214D02*
X4583928Y-7586214D01*
X4483928Y-7700500D01*
X4526786Y-7700500D01*
X4555357Y-7714786D01*
X4569643Y-7729071D01*
X4583928Y-7757643D01*
X4583928Y-7829071D01*
X4569643Y-7857643D01*
X4555357Y-7871929D01*
X4526786Y-7886214D01*
X4441071Y-7886214D01*
X4412500Y-7871929D01*
X4398214Y-7857643D01*
X4698214Y-7586214D02*
X4698214Y-7643357D01*
X4812500Y-7586214D02*
X4812500Y-7643357D01*
X5255357Y-8000500D02*
X5241071Y-7986214D01*
X5212500Y-7943357D01*
X5198214Y-7914786D01*
X5183928Y-7871929D01*
X5169643Y-7800500D01*
X5169643Y-7743357D01*
X5183928Y-7671929D01*
X5198214Y-7629071D01*
X5212500Y-7600500D01*
X5241071Y-7557643D01*
X5255357Y-7543357D01*
X5412500Y-7714786D02*
X5383928Y-7700500D01*
X5369643Y-7686214D01*
X5355357Y-7657643D01*
X5355357Y-7643357D01*
X5369643Y-7614786D01*
X5383928Y-7600500D01*
X5412500Y-7586214D01*
X5469643Y-7586214D01*
X5498214Y-7600500D01*
X5512500Y-7614786D01*
X5526786Y-7643357D01*
X5526786Y-7657643D01*
X5512500Y-7686214D01*
X5498214Y-7700500D01*
X5469643Y-7714786D01*
X5412500Y-7714786D01*
X5383928Y-7729071D01*
X5369643Y-7743357D01*
X5355357Y-7771929D01*
X5355357Y-7829071D01*
X5369643Y-7857643D01*
X5383928Y-7871929D01*
X5412500Y-7886214D01*
X5469643Y-7886214D01*
X5498214Y-7871929D01*
X5512500Y-7857643D01*
X5526786Y-7829071D01*
X5526786Y-7771929D01*
X5512500Y-7743357D01*
X5498214Y-7729071D01*
X5469643Y-7714786D01*
X5883928Y-7886214D02*
X5883928Y-7586214D01*
X6012500Y-7886214D02*
X6012500Y-7729071D01*
X5998214Y-7700500D01*
X5969643Y-7686214D01*
X5926786Y-7686214D01*
X5898214Y-7700500D01*
X5883928Y-7714786D01*
X6198214Y-7886214D02*
X6169643Y-7871929D01*
X6155357Y-7857643D01*
X6141071Y-7829071D01*
X6141071Y-7743357D01*
X6155357Y-7714786D01*
X6169643Y-7700500D01*
X6198214Y-7686214D01*
X6241071Y-7686214D01*
X6269643Y-7700500D01*
X6283928Y-7714786D01*
X6298214Y-7743357D01*
X6298214Y-7829071D01*
X6283928Y-7857643D01*
X6269643Y-7871929D01*
X6241071Y-7886214D01*
X6198214Y-7886214D01*
X6469643Y-7886214D02*
X6441071Y-7871929D01*
X6426786Y-7843357D01*
X6426786Y-7586214D01*
X6698214Y-7871929D02*
X6669643Y-7886214D01*
X6612500Y-7886214D01*
X6583928Y-7871929D01*
X6569643Y-7843357D01*
X6569643Y-7729071D01*
X6583928Y-7700500D01*
X6612500Y-7686214D01*
X6669643Y-7686214D01*
X6698214Y-7700500D01*
X6712500Y-7729071D01*
X6712500Y-7757643D01*
X6569643Y-7786214D01*
X6826786Y-7871929D02*
X6855357Y-7886214D01*
X6912500Y-7886214D01*
X6941071Y-7871929D01*
X6955357Y-7843357D01*
X6955357Y-7829071D01*
X6941071Y-7800500D01*
X6912500Y-7786214D01*
X6869643Y-7786214D01*
X6841071Y-7771929D01*
X6826786Y-7743357D01*
X6826786Y-7729071D01*
X6841071Y-7700500D01*
X6869643Y-7686214D01*
X6912500Y-7686214D01*
X6941071Y-7700500D01*
X7055357Y-8000500D02*
X7069643Y-7986214D01*
X7098214Y-7943357D01*
X7112500Y-7914786D01*
X7126786Y-7871929D01*
X7141071Y-7800500D01*
X7141071Y-7743357D01*
X7126786Y-7671929D01*
X7112500Y-7629071D01*
X7098214Y-7600500D01*
X7069643Y-7557643D01*
X7055357Y-7543357D01*
M02*
