M48
; DRILL file {KiCad (5.1.10)-1} date 11/29/21 20:12:40
; FORMAT={-:-/ absolute / metric / decimal}
; #@! TF.CreationDate,2021-11-29T20:12:40+01:00
; #@! TF.GenerationSoftware,Kicad,Pcbnew,(5.1.10)-1
; #@! TF.FileFunction,Plated,1,2,PTH
FMAT,2
METRIC
T1C0.400
T2C0.900
T3C1.000
T4C1.100
%
G90
G05
T1
X26.67Y-11.43
X30.48Y-10.16
T2
X26.0Y-20.0
X26.0Y-27.0
X28.54Y-20.0
X28.54Y-27.0
T3
X8.5Y-2.96
X8.5Y-5.5
X11.04Y-2.96
X11.04Y-5.5
X13.58Y-2.96
X13.58Y-5.5
X16.12Y-2.96
X16.12Y-5.5
X18.0Y-20.76
X18.0Y-23.3
X18.0Y-25.84
X18.0Y-28.38
X18.0Y-30.92
X18.0Y-33.46
X18.0Y-36.0
X18.66Y-2.96
X18.66Y-5.5
X21.2Y-2.96
X21.2Y-5.5
X23.74Y-2.96
X23.74Y-5.5
X25.4Y-47.0
X26.28Y-2.96
X26.28Y-5.5
X28.82Y-2.96
X28.82Y-5.5
X31.36Y-2.96
X31.36Y-5.5
X33.0Y-47.0
X33.9Y-2.96
X33.9Y-5.5
X36.44Y-2.96
X36.44Y-5.5
X38.98Y-2.96
X38.98Y-5.5
X41.52Y-2.96
X41.52Y-5.5
X42.92Y-13.5
X44.06Y-2.96
X44.06Y-5.5
X45.46Y-13.5
X46.6Y-2.96
X46.6Y-5.5
X48.0Y-13.5
X49.14Y-2.96
X49.14Y-5.5
X50.54Y-13.5
X51.68Y-2.96
X51.68Y-5.5
X54.22Y-2.96
X54.22Y-5.5
X56.76Y-2.96
X56.76Y-5.5
T4
X39.5Y-43.0
X39.5Y-47.5
X46.0Y-43.0
X46.0Y-47.5
X52.0Y-43.0
X52.0Y-47.5
X58.5Y-43.0
X58.5Y-47.5
T0
M30
